{
  "info": {
    "author": "aplazame",
    "author_email": "dev@aplazame.com",
    "bugtrack_url": null,
    "classifiers": [
      "Intended Audience :: Developers",
      "License :: OSI Approved :: Apache Software License",
      "Natural Language :: English",
      "Operating System :: OS Independent",
      "Programming Language :: Python",
      "Programming Language :: Python :: 2.6",
      "Programming Language :: Python :: 2.7",
      "Programming Language :: Python :: 3",
      "Programming Language :: Python :: 3.3",
      "Programming Language :: Python :: 3.4"
    ],
    "description": "Aplazame Python Sdk\n===================\n\n|Build Status|\n\n|Aplazame|\n\n`Aplazame`_, a consumer credit company, offers a payment system that can be\nused by online buyers to receive funding for their purchases.\n\nInstallation\n------------\n\nTo install aplazame-sdk, simply:\n\n.. code:: sh\n\n    $ pip install aplazame-sdk\n\nUsage\n-----\n\n.. code:: python\n\n    >>> import aplazame_sdk\n    >>> client = aplazame_sdk.Client('token', sandbox=True, version='1', ctype='json')\n    >>> r = client.orders(page=2)\n    >>> r.json()\n    {\n      \"cursor\": {\n        \"after\": 3,\n        \"before\": 1\n      },\n      \"paging\": {\n        \"count\": 314,\n        \"next\": \"https://api.aplazame.com/orders?page=3\",\n        \"previous\": \"https://api.aplazame.com/orders?page=1\"\n      },\n      \"results\": [\n      ]\n    }\n    >>> r.status_code\n    200\n\nExceptions\n----------\n\n.. code:: python\n\n    >>> import aplazame_sdk\n    >>> client = aplazame_sdk.Client('token')\n    >>> try:\n    ...     r = client.get_order('buh')\n    ... except aplazame_sdk.AplazameError as err:\n    ...     err.code\n    404\n\nHttp\n----\n\n.. code:: http\n\n    GET /orders HTTP/1.1\n    Accept: application/vnd.aplazame.sandbox.v1+json\n    Authorization: Bearer ->token<-\n    Host: api.aplazame.com\n\n    HTTP/1.1 200 OK\n    Content-Type: application/vnd.aplazame.sandbox.v1+json\n\nDocumentation\n-------------\n\nDocumentation is available at `docs.aplazame.com`_.\n\n.. _Aplazame: https://aplazame.com\n.. _docs.aplazame.com: http://docs.aplazame.com\n\n.. |Build Status| image:: https://img.shields.io/pypi/v/aplazame-sdk.svg\n   :target: https://pypi.python.org/pypi/aplazame-sdk\n.. |Aplazame| image:: https://aplazame.com/landing-assets/images/banners/banner-1517-white.png\n   :target: https://aplazame.com\n\n\nChange Log\n==========\n\n`0.2.6`_ (2015-12-11)\n---------------------\n\n`Full Changelog v0.2.6`_\n\n* Replace detail by get\n* Fix tests\n\n`0.2.5`_ (2015-12-11)\n---------------------\n\n`Full Changelog v0.2.5`_\n\n* Operations and payments summary\n* Tests\n\n`0.2.4`_ (2015-12-05)\n---------------------\n\n`Full Changelog v0.2.4`_\n\n* Instalment payments\n* Tests\n\n`0.2.3`_ (2015-10-13)\n---------------------\n\n`Full Changelog v0.2.3`_\n\n* Payments\n* Merchant requests\n* Tests\n\n`0.2.2`_ (2015-09-15)\n---------------------\n\n`Full Changelog v0.2.2`_\n\n* Fix lists kwargs\n* Add /me and operations\n* ci pull request strategy\n* ci publish on pypi\n* ci package versioning\n\n`0.2.1`_ (2015-08-24)\n---------------------\n\n`Full Changelog v0.2.1`_\n\n* ci deploy master\n* Simulator request\n* Fix minor errors\n\n`0.2.0`_ (2015-07-20)\n---------------------\n\n* Makefile\n* ci with drone.io\n* Coverage 100%\n* Test and build requirements\n* Add badges\n* Get method params strategy\n\n.. _0.2.0: https://github.com/aplazame/aplazame-sdk/tree/v0.2.0\n.. _0.2.1: https://github.com/aplazame/aplazame-sdk/tree/v0.2.1\n.. _0.2.2: https://github.com/aplazame/aplazame-sdk/tree/v0.2.2\n.. _0.2.3: https://github.com/aplazame/aplazame-sdk/tree/v0.2.3\n.. _0.2.4: https://github.com/aplazame/aplazame-sdk/tree/v0.2.4\n.. _0.2.5: https://github.com/aplazame/aplazame-sdk/tree/v0.2.5\n.. _0.2.6: https://github.com/aplazame/aplazame-sdk/tree/v0.2.6\n.. _Full Changelog v0.2.1: https://github.com/aplazame/aplazame-sdk/compare/v0.2.0...v0.2.1\n.. _Full Changelog v0.2.2: https://github.com/aplazame/aplazame-sdk/compare/v0.2.1...v0.2.2\n.. _Full Changelog v0.2.3: https://github.com/aplazame/aplazame-sdk/compare/v0.2.2...v0.2.3\n.. _Full Changelog v0.2.4: https://github.com/aplazame/aplazame-sdk/compare/v0.2.3...v0.2.4\n.. _Full Changelog v0.2.5: https://github.com/aplazame/aplazame-sdk/compare/v0.2.4...v0.2.5\n.. _Full Changelog v0.2.6: https://github.com/aplazame/aplazame-sdk/compare/v0.2.5...v0.2.6",
    "description_content_type": "",
    "docs_url": null,
    "download_url": "",
    "downloads": {
      "last_day": -1,
      "last_month": -1,
      "last_week": -1
    },
    "home_page": "https://github.com/aplazame/aplazame-sdk",
    "keywords": "python,aplazame,api,rest,sdk",
    "license": "Apache 2.0",
    "maintainer": "",
    "maintainer_email": "",
    "name": "aplazame-sdk",
    "package_url": "https://pypi.org/project/aplazame-sdk/",
    "platform": "",
    "project_url": "https://pypi.org/project/aplazame-sdk/",
    "project_urls": {
      "Homepage": "https://github.com/aplazame/aplazame-sdk"
    },
    "release_url": "https://pypi.org/project/aplazame-sdk/0.2.7/",
    "requires_dist": null,
    "requires_python": "",
    "summary": "Python SDK for Aplazame REST API",
    "version": "0.2.7",
    "yanked": false,
    "yanked_reason": null
  },
  "last_serial": 12502111,
  "releases": {
    "0.2.0": [
      {
        "comment_text": "",
        "digests": {
          "blake2b_256": "dca55ac4ac0a7b35d4b5e9ed71fcfc6453793b4fc57b7f809f76c47c3ad16e53",
          "md5": "86bbf6a7439b7fa3eff15f2013643278",
          "sha256": "1527e1d73c6d06ce1c34b70d6005baaa1001631528f339ce60802aa2b6c2017a"
        },
        "downloads": -1,
        "filename": "aplazame_sdk-0.2.0-py2.py3-none-any.whl",
        "has_sig": false,
        "md5_digest": "86bbf6a7439b7fa3eff15f2013643278",
        "packagetype": "bdist_wheel",
        "python_version": "2.7",
        "requires_python": null,
        "size": 6121,
        "upload_time": "2015-07-20T21:06:18",
        "upload_time_iso_8601": "2015-07-20T21:06:18.144450Z",
        "url": "https://files.pythonhosted.org/packages/dc/a5/5ac4ac0a7b35d4b5e9ed71fcfc6453793b4fc57b7f809f76c47c3ad16e53/aplazame_sdk-0.2.0-py2.py3-none-any.whl",
        "yanked": false,
        "yanked_reason": null
      },
      {
        "comment_text": "",
        "digests": {
          "blake2b_256": "be3fb0f88c7041c2363c138804ea2448dc0baae7337e8b12aee39ec85fc50b34",
          "md5": "4ac28deb2692d0ec80a359ab0a40cdbb",
          "sha256": "3dceed50275b24156d2912a441579bc91751e1a2fe7428fbee60f78cfe6f37de"
        },
        "downloads": -1,
        "filename": "aplazame-sdk-0.2.0.tar.gz",
        "has_sig": false,
        "md5_digest": "4ac28deb2692d0ec80a359ab0a40cdbb",
        "packagetype": "sdist",
        "python_version": "source",
        "requires_python": null,
        "size": 8561,
        "upload_time": "2015-07-20T21:06:13",
        "upload_time_iso_8601": "2015-07-20T21:06:13.879244Z",
        "url": "https://files.pythonhosted.org/packages/be/3f/b0f88c7041c2363c138804ea2448dc0baae7337e8b12aee39ec85fc50b34/aplazame-sdk-0.2.0.tar.gz",
        "yanked": false,
        "yanked_reason": null
      }
    ],
    "0.2.1": [
      {
        "comment_text": "",
        "digests": {
          "blake2b_256": "5795e5805b3ea7827ad66a1b06ff9d007e16b7847ec59dcd9305b58dba5c5f4c",
          "md5": "b85577ad550e2e8531fbbd280dd175bf",
          "sha256": "e7277411d532ca47ddd2d820b90683b09a1277d5542b1bd0bb2372a4b6d1e100"
        },
        "downloads": -1,
        "filename": "aplazame-sdk-0.2.1.b.tar.gz",
        "has_sig": false,
        "md5_digest": "b85577ad550e2e8531fbbd280dd175bf",
        "packagetype": "sdist",
        "python_version": "source",
        "requires_python": null,
        "size": 8957,
        "upload_time": "2015-08-24T15:18:33",
        "upload_time_iso_8601": "2015-08-24T15:18:33.624501Z",
        "url": "https://files.pythonhosted.org/packages/57/95/e5805b3ea7827ad66a1b06ff9d007e16b7847ec59dcd9305b58dba5c5f4c/aplazame-sdk-0.2.1.b.tar.gz",
        "yanked": false,
        "yanked_reason": null
      },
      {
        "comment_text": "",
        "digests": {
          "blake2b_256": "b1ee29d814ab670578caf3feb304d767711872809b0d858db3b539ff1b3f93d0",
          "md5": "38edd4b492fd968c81f55af9c837dc32",
          "sha256": "0b14c913a83929487e5a334b6a2fac535c11e84d08f14596bddc31f192a7e56e"
        },
        "downloads": -1,
        "filename": "aplazame_sdk-0.2.1-py2.py3-b-any.whl",
        "has_sig": false,
        "md5_digest": "38edd4b492fd968c81f55af9c837dc32",
        "packagetype": "bdist_wheel",
        "python_version": "any",
        "requires_python": null,
        "size": 6274,
        "upload_time": "2015-08-24T15:21:23",
        "upload_time_iso_8601": "2015-08-24T15:21:23.635242Z",
        "url": "https://files.pythonhosted.org/packages/b1/ee/29d814ab670578caf3feb304d767711872809b0d858db3b539ff1b3f93d0/aplazame_sdk-0.2.1-py2.py3-b-any.whl",
        "yanked": false,
        "yanked_reason": null
      }
    ],
    "0.2.2": [
      {
        "comment_text": "",
        "digests": {
          "blake2b_256": "356ed3a5385c384ed7c54c22067af48a48d898109680b39579c2cb7ae68dac36",
          "md5": "12593114da965d3e5265aa9e68f93dd4",
          "sha256": "be1e614f268980cf3361ac3b5703acaf324b26aece50c90d2711e044fec13a65"
        },
        "downloads": -1,
        "filename": "aplazame_sdk-0.2.2-py2.py3-none-any.whl",
        "has_sig": false,
        "md5_digest": "12593114da965d3e5265aa9e68f93dd4",
        "packagetype": "bdist_wheel",
        "python_version": "2.7",
        "requires_python": null,
        "size": 6533,
        "upload_time": "2015-09-15T22:09:16",
        "upload_time_iso_8601": "2015-09-15T22:09:16.217683Z",
        "url": "https://files.pythonhosted.org/packages/35/6e/d3a5385c384ed7c54c22067af48a48d898109680b39579c2cb7ae68dac36/aplazame_sdk-0.2.2-py2.py3-none-any.whl",
        "yanked": false,
        "yanked_reason": null
      },
      {
        "comment_text": "",
        "digests": {
          "blake2b_256": "c692c5cc3f9920daf0d6069dea5d4d15bb18ea28cab708d5b4ef85478e61907a",
          "md5": "59c055dfa99bba8689eb5c727cf95d49",
          "sha256": "aa4dbac19cbef38772457a573d4305974df136bad429b2160e32f4f48133ad37"
        },
        "downloads": -1,
        "filename": "aplazame-sdk-0.2.2.tar.gz",
        "has_sig": false,
        "md5_digest": "59c055dfa99bba8689eb5c727cf95d49",
        "packagetype": "sdist",
        "python_version": "source",
        "requires_python": null,
        "size": 8292,
        "upload_time": "2015-09-15T22:09:11",
        "upload_time_iso_8601": "2015-09-15T22:09:11.740411Z",
        "url": "https://files.pythonhosted.org/packages/c6/92/c5cc3f9920daf0d6069dea5d4d15bb18ea28cab708d5b4ef85478e61907a/aplazame-sdk-0.2.2.tar.gz",
        "yanked": false,
        "yanked_reason": null
      }
    ],
    "0.2.3": [
      {
        "comment_text": "",
        "digests": {
          "blake2b_256": "574977af608c2c31c038975c06a157d08ffd56f9da7f01e5d4d9dbabec1accb5",
          "md5": "5c70c20e4b675f425786ad3846b96de2",
          "sha256": "1ee407a942ef76e6ab425947db44543c1dd7a07807541fdefdc5975230b662ab"
        },
        "downloads": -1,
        "filename": "aplazame_sdk-0.2.3-py2.py3-none-any.whl",
        "has_sig": false,
        "md5_digest": "5c70c20e4b675f425786ad3846b96de2",
        "packagetype": "bdist_wheel",
        "python_version": "2.7",
        "requires_python": null,
        "size": 6649,
        "upload_time": "2015-10-13T16:44:29",
        "upload_time_iso_8601": "2015-10-13T16:44:29.301331Z",
        "url": "https://files.pythonhosted.org/packages/57/49/77af608c2c31c038975c06a157d08ffd56f9da7f01e5d4d9dbabec1accb5/aplazame_sdk-0.2.3-py2.py3-none-any.whl",
        "yanked": false,
        "yanked_reason": null
      },
      {
        "comment_text": "",
        "digests": {
          "blake2b_256": "d269dcd18525b1ca2270d5b1c9ac4c802e41571c8638d76049262ec158a89b9f",
          "md5": "a05e7ac17be7e2f09f4922044441124e",
          "sha256": "8be4d005bb4fa7b563a83ce5c02a1e75e9cf19bf516331d408d82ff7f761d598"
        },
        "downloads": -1,
        "filename": "aplazame-sdk-0.2.3.tar.gz",
        "has_sig": false,
        "md5_digest": "a05e7ac17be7e2f09f4922044441124e",
        "packagetype": "sdist",
        "python_version": "source",
        "requires_python": null,
        "size": 8432,
        "upload_time": "2015-10-13T16:44:25",
        "upload_time_iso_8601": "2015-10-13T16:44:25.449673Z",
        "url": "https://files.pythonhosted.org/packages/d2/69/dcd18525b1ca2270d5b1c9ac4c802e41571c8638d76049262ec158a89b9f/aplazame-sdk-0.2.3.tar.gz",
        "yanked": false,
        "yanked_reason": null
      }
    ],
    "0.2.4": [
      {
        "comment_text": "",
        "digests": {
          "blake2b_256": "b5f820051f9ece41046612d2b2b7d8fd7c64c169d1e08a457af4c9a01eaaec42",
          "md5": "69d7e2af4abd3143469585125f0c9a2a",
          "sha256": "0db49f53bf3724c45d4135776f54ac5ab9d497374ed2a78accb260bf9e56574c"
        },
        "downloads": -1,
        "filename": "aplazame_sdk-0.2.4-py2.py3-none-any.whl",
        "has_sig": false,
        "md5_digest": "69d7e2af4abd3143469585125f0c9a2a",
        "packagetype": "bdist_wheel",
        "python_version": "2.7",
        "requires_python": null,
        "size": 6720,
        "upload_time": "2015-12-05T11:35:52",
        "upload_time_iso_8601": "2015-12-05T11:35:52.179927Z",
        "url": "https://files.pythonhosted.org/packages/b5/f8/20051f9ece41046612d2b2b7d8fd7c64c169d1e08a457af4c9a01eaaec42/aplazame_sdk-0.2.4-py2.py3-none-any.whl",
        "yanked": false,
        "yanked_reason": null
      },
      {
        "comment_text": "",
        "digests": {
          "blake2b_256": "febd912f49255468c65fed2877a2a2ef3d8d418430dace408af1b85fdc66b947",
          "md5": "425bb08a74b864291a842ef12dce78c1",
          "sha256": "0debf5f6f71535bf301ecb7698dcf05e85d93b651a53cbd6f4c48a44f06161d5"
        },
        "downloads": -1,
        "filename": "aplazame-sdk-0.2.4.tar.gz",
        "has_sig": false,
        "md5_digest": "425bb08a74b864291a842ef12dce78c1",
        "packagetype": "sdist",
        "python_version": "source",
        "requires_python": null,
        "size": 8586,
        "upload_time": "2015-12-05T11:35:46",
        "upload_time_iso_8601": "2015-12-05T11:35:46.587805Z",
        "url": "https://files.pythonhosted.org/packages/fe/bd/912f49255468c65fed2877a2a2ef3d8d418430dace408af1b85fdc66b947/aplazame-sdk-0.2.4.tar.gz",
        "yanked": false,
        "yanked_reason": null
      }
    ],
    "0.2.5": [
      {
        "comment_text": "",
        "digests": {
          "blake2b_256": "2fdb0610baf4fdb6bf9a238986d6b3f45484b5ca19b079b179a4e896465fde9c",
          "md5": "020f8d5f14cf78b2f46c32c508c672a5",
          "sha256": "449249f6c1a179ef92bc22867401b732cf77d2cf35d0749addfa533fc743aa77"
        },
        "downloads": -1,
        "filename": "aplazame_sdk-0.2.5-py2.py3-none-any.whl",
        "has_sig": false,
        "md5_digest": "020f8d5f14cf78b2f46c32c508c672a5",
        "packagetype": "bdist_wheel",
        "python_version": "2.7",
        "requires_python": null,
        "size": 6834,
        "upload_time": "2015-12-11T14:40:27",
        "upload_time_iso_8601": "2015-12-11T14:40:27.954289Z",
        "url": "https://files.pythonhosted.org/packages/2f/db/0610baf4fdb6bf9a238986d6b3f45484b5ca19b079b179a4e896465fde9c/aplazame_sdk-0.2.5-py2.py3-none-any.whl",
        "yanked": false,
        "yanked_reason": null
      },
      {
        "comment_text": "",
        "digests": {
          "blake2b_256": "4f58e3fbab3770d84075e49e7d94b7111c412cf024982fd29661b1dae5b966ee",
          "md5": "5f0749659293580f9949808242a63461",
          "sha256": "6b57d97e4c2e17600fdcfec21728354cf87f1a51195ccac3220e6922fbc53ea4"
        },
        "downloads": -1,
        "filename": "aplazame-sdk-0.2.5.tar.gz",
        "has_sig": false,
        "md5_digest": "5f0749659293580f9949808242a63461",
        "packagetype": "sdist",
        "python_version": "source",
        "requires_python": null,
        "size": 8773,
        "upload_time": "2015-12-11T14:40:22",
        "upload_time_iso_8601": "2015-12-11T14:40:22.843120Z",
        "url": "https://files.pythonhosted.org/packages/4f/58/e3fbab3770d84075e49e7d94b7111c412cf024982fd29661b1dae5b966ee/aplazame-sdk-0.2.5.tar.gz",
        "yanked": false,
        "yanked_reason": null
      }
    ],
    "0.2.6": [
      {
        "comment_text": "",
        "digests": {
          "blake2b_256": "18097645f1dd5bc0989427045579f8194930e7a513777fb293772a51e5f412d2",
          "md5": "6392a567a823419db20e6ae4ccc2b48d",
          "sha256": "392b5e5ca838e102e0390820b86615ab92dc6ea766abb3125bdb43497cc3a1bb"
        },
        "downloads": -1,
        "filename": "aplazame_sdk-0.2.6-py2.py3-none-any.whl",
        "has_sig": false,
        "md5_digest": "6392a567a823419db20e6ae4ccc2b48d",
        "packagetype": "bdist_wheel",
        "python_version": "2.7",
        "requires_python": null,
        "size": 7054,
        "upload_time": "2015-12-11T15:32:21",
        "upload_time_iso_8601": "2015-12-11T15:32:21.358884Z",
        "url": "https://files.pythonhosted.org/packages/18/09/7645f1dd5bc0989427045579f8194930e7a513777fb293772a51e5f412d2/aplazame_sdk-0.2.6-py2.py3-none-any.whl",
        "yanked": false,
        "yanked_reason": null
      },
      {
        "comment_text": "",
        "digests": {
          "blake2b_256": "ba65d9a1dafd951052017144a9d46384788785609d4f555c555291d98ae660dc",
          "md5": "dd6d2fc8b83d0fb3034e45ddf233df69",
          "sha256": "64c22716bf553c07f94271db5b64c3094b45930d712c05f2fde01c9c93ab9c3d"
        },
        "downloads": -1,
        "filename": "aplazame-sdk-0.2.6.tar.gz",
        "has_sig": false,
        "md5_digest": "dd6d2fc8b83d0fb3034e45ddf233df69",
        "packagetype": "sdist",
        "python_version": "source",
        "requires_python": null,
        "size": 8957,
        "upload_time": "2015-12-11T15:32:11",
        "upload_time_iso_8601": "2015-12-11T15:32:11.902008Z",
        "url": "https://files.pythonhosted.org/packages/ba/65/d9a1dafd951052017144a9d46384788785609d4f555c555291d98ae660dc/aplazame-sdk-0.2.6.tar.gz",
        "yanked": false,
        "yanked_reason": null
      }
    ],
    "0.2.7": [
      {
        "comment_text": "",
        "digests": {
          "blake2b_256": "384b4a97aa67f83177bdeb6611263c50f7c0a132f54416d209c556054e0b7346",
          "md5": "989761f1d7794904d3d412074162d3a5",
          "sha256": "179c3f48982712308ae7ef820979389a4336530b18fd200c50f7e5cb545fe94b"
        },
        "downloads": -1,
        "filename": "aplazame-sdk-0.2.7.tar.gz",
        "has_sig": false,
        "md5_digest": "989761f1d7794904d3d412074162d3a5",
        "packagetype": "sdist",
        "python_version": "source",
        "requires_python": null,
        "size": 9214,
        "upload_time": "2022-01-07T09:17:30",
        "upload_time_iso_8601": "2022-01-07T09:17:30.562499Z",
        "url": "https://files.pythonhosted.org/packages/38/4b/4a97aa67f83177bdeb6611263c50f7c0a132f54416d209c556054e0b7346/aplazame-sdk-0.2.7.tar.gz",
        "yanked": false,
        "yanked_reason": null
      }
    ]
  },
  "urls": [
    {
      "comment_text": "",
      "digests": {
        "blake2b_256": "384b4a97aa67f83177bdeb6611263c50f7c0a132f54416d209c556054e0b7346",
        "md5": "989761f1d7794904d3d412074162d3a5",
        "sha256": "179c3f48982712308ae7ef820979389a4336530b18fd200c50f7e5cb545fe94b"
      },
      "downloads": -1,
      "filename": "aplazame-sdk-0.2.7.tar.gz",
      "has_sig": false,
      "md5_digest": "989761f1d7794904d3d412074162d3a5",
      "packagetype": "sdist",
      "python_version": "source",
      "requires_python": null,
      "size": 9214,
      "upload_time": "2022-01-07T09:17:30",
      "upload_time_iso_8601": "2022-01-07T09:17:30.562499Z",
      "url": "https://files.pythonhosted.org/packages/38/4b/4a97aa67f83177bdeb6611263c50f7c0a132f54416d209c556054e0b7346/aplazame-sdk-0.2.7.tar.gz",
      "yanked": false,
      "yanked_reason": null
    }
  ],
  "vulnerabilities": []
}