{
  "info": {
    "author": "Pocheng, Scott",
    "author_email": "pcghuang@gmail.com, scott820914@gmail.com",
    "bugtrack_url": null,
    "classifiers": [
      "Development Status :: 4 - Beta",
      "Intended Audience :: Developers",
      "License :: OSI Approved :: BSD License",
      "Operating System :: OS Independent",
      "Programming Language :: Python :: 3",
      "Programming Language :: Python :: 3.6"
    ],
    "description": "# Django REST Framework Google JSON Style API\n\n[![Build Status](https://travis-ci.com/Envive/django-rest-framework-google-json-style-api.svg?branch=master)](https://travis-ci.com/Envive/django-rest-framework-google-json-style-api) \n[![codecov.io](https://codecov.io/github/envive/django-rest-framework-google-json-style-api/coverage.svg?branch=master)](https://codecov.io/github/envive/django-rest-framework-google-json-style-api)\n[![PyPI version](https://badge.fury.io/py/django-rest-framework-google-json-style-api.svg)](https://badge.fury.io/py/django-rest-framework-google-json-style-api)\n\n## Format specification\n- https://google.github.io/styleguide/jsoncstyleguide.xml\n\n## Installation\n\nAt the command line:\n\n```\n$ pip install django-rest-framework-google-json-style-api\n```\n\nAdd the render and parser to your django settings file.\n\n```python\n# ...\nREST_FRAMEWORK = {\n    'PAGE_SIZE': 10,\n    'DEFAULT_PAGINATION_CLASS':\n        'rest_framework_google_json_style_api.pagination.GoogleJsonStylePageNumberPagination',\n    'DEFAULT_RENDERER_CLASSES': (\n        'rest_framework_google_json_style_api.renderers.JSONRenderer',\n        # Any other renders\n    ),\n    'DEFAULT_PARSER_CLASSES': (\n        'rest_framework_google_json_style_api.parsers.JSONParser',\n        # Any other parsers\n    ),\n}\n# ...\n```\n\n## Goals\nBy default, Django REST Framework will produce a response like:\n\n```json\n{\n    \"id\": 1,\n    \"username\": \"scott\",\n    \"full_name\": \"Scott Chang\"\n}\n```\n\nand\n\n```json\n[\n    {\n        \"id\": 1,\n        \"username\": \"scott\",\n        \"full_name\": \"Scott Chang\"\n    },\n    {\n        \"id\": 2,\n        \"username\": \"pocheng\",\n        \"full_name\": \"Pocheng Huang\"\n    }\n]\n```\n\nGoogle JSON Style Guide shows a response to look like the following:\n\n```json\n{\n    \"data\": {\n        \"id\": 1,\n        \"username\": \"scott\",\n        \"fullName\": \"Scott Chang\"\n    }\n}\n```\n\nand\n\n```json\n{\n    \"data\": {\n        \"items\":[\n            {\n                \"id\": 1,\n                \"username\": \"scott\",\n                \"fullName\": \"Scott Chang\"\n            },\n            {\n                \"id\": 2,\n                \"username\": \"pocheng\",\n                \"fullName\": \"Pocheng Huang\"\n            }\n        ]\n    }\n}\n```\n\nGoogle JSON Style Guide uses camel case for field names. So, by default the package uses camel case.\nIf you want to use underscores, you must specify it in your django settings file.\n\n```python\nGOOGLE_JSON_STYLE_API = {\n    # ...\n    'CAMELIZE': False\n    # ...\n}\n```\n\n## Pagination\n```json\n{\n    \"method\": \"list\",\n    \"params\": {\n        \"page\": \"1\",\n        \"pageSize\": \"2\"\n    },\n    \"data\": {\n        \"currentItemCount\": 2,\n        \"itemsPerPage\": 2,\n        \"totalItems\": 200,\n        \"pageIndex\": 1,\n        \"totalPages\": 100,\n        \"nextLink\": \"http://example.com/api/v1/?page=2&page_size=2\",\n        \"previousLink\": null,\n        \"items\": [\n            {\n                \"id\": 1,\n                \"username\": \"scott\",\n                \"fullName\": \"Scott Chang\"\n            },\n            {\n                \"id\": 2,\n                \"username\": \"pocheng\",\n                \"fullName\": \"Pocheng Huang\"\n            }\n        ]\n    }\n}\n```\n\n## Attach meta to data object\n\n#### Example\nLet's add the count of items in the data object.\n\n```python\nclass AuthorViewSet(viewsets.ModelViewSet):\n    queryset = Author.objects.all()\n    # ...\n\n    def list(self, request, *args, **kwargs):\n        response = super(AuthorViewSet, self).list(request, *args, **kwargs)\n        response.data = {\n            'meta': {\n                # Add meta data in here\n                'num_items': self.queryset.count(),\n            },\n            # Keep original data in results\n            'results': response.data\n        }\n```\n\n#### Response\n\n```json\n{\n    \"data\": {\n        \"numItems\": 2,\n        \"items\":[\n            {\n                \"id\": 1,\n                \"username\": \"scott\",\n                \"fullName\": \"Scott Chang\"\n            },\n            {\n                \"id\": 2,\n                \"username\": \"pocheng\",\n                \"fullName\": \"Pocheng Huang\"\n            }\n        ]\n    }\n}\n```\n\n\n## Underscoreize Options\nThere are two conventions of snake case.\n\n### Case 1 (default)\n```\nv2Counter -> v_2_counter\nfooBar2 -> foo_bar_2\n```\n\n### Case 2\n```\nv2Counter -> v2_counter\nfooBar2 -> foo_bar2\n```\n\nBy default, the package uses the first case. To use the second case, specify it in your django settings file. The setting only works when you use camel case(default).\n\n```python\nGOOGLE_JSON_STYLE_API = {\n    # ...\n    'JSON_UNDERSCOREIZE': {\n        'no_underscore_before_number': True,\n    },\n    # ...\n}\n```",
    "description_content_type": "text/markdown",
    "docs_url": null,
    "download_url": "",
    "downloads": {
      "last_day": -1,
      "last_month": -1,
      "last_week": -1
    },
    "home_page": "https://github.com/Envive",
    "keywords": "",
    "license": "BSD License",
    "maintainer": "",
    "maintainer_email": "",
    "name": "django-rest-framework-google-json-style-api",
    "package_url": "https://pypi.org/project/django-rest-framework-google-json-style-api/",
    "platform": "",
    "project_url": "https://pypi.org/project/django-rest-framework-google-json-style-api/",
    "project_urls": {
      "Homepage": "https://github.com/Envive"
    },
    "release_url": "https://pypi.org/project/django-rest-framework-google-json-style-api/1.2.4/",
    "requires_dist": null,
    "requires_python": "",
    "summary": "Make Google Json Style and Django Rest Framework play nice together.",
    "version": "1.2.4",
    "yanked": false,
    "yanked_reason": null
  },
  "last_serial": 9841563,
  "releases": {
    "0.1.1": [
      {
        "comment_text": "",
        "digests": {
          "blake2b_256": "b6d5c5a37544e12f9cbbf92efa4546a22b839276ec94aeee228232195a4ea6b8",
          "md5": "25ef5ad7e5565a7f92d436f3ade15437",
          "sha256": "3712e59c04cee7e87ca6eafc40d3d0208c4aec1269a21a4af7f27bcc6c6fd015"
        },
        "downloads": -1,
        "filename": "django-rest-framework-google-json-style-api-0.1.1.tar.gz",
        "has_sig": false,
        "md5_digest": "25ef5ad7e5565a7f92d436f3ade15437",
        "packagetype": "sdist",
        "python_version": "source",
        "requires_python": null,
        "size": 10884,
        "upload_time": "2019-01-25T08:25:17",
        "upload_time_iso_8601": "2019-01-25T08:25:17.098627Z",
        "url": "https://files.pythonhosted.org/packages/b6/d5/c5a37544e12f9cbbf92efa4546a22b839276ec94aeee228232195a4ea6b8/django-rest-framework-google-json-style-api-0.1.1.tar.gz",
        "yanked": false,
        "yanked_reason": null
      }
    ],
    "1.0.0": [
      {
        "comment_text": "",
        "digests": {
          "blake2b_256": "39db562280637406ca3bb2678210ba05266fbc8b908eda72738bf1ce03b9c00d",
          "md5": "c4bb4dc9895a796058b862897b5923cf",
          "sha256": "34b9949ee57fe04bd6e94c29a8aadabf060e487d89e50220de83266708b4e710"
        },
        "downloads": -1,
        "filename": "django-rest-framework-google-json-style-api-1.0.0.tar.gz",
        "has_sig": false,
        "md5_digest": "c4bb4dc9895a796058b862897b5923cf",
        "packagetype": "sdist",
        "python_version": "source",
        "requires_python": null,
        "size": 11689,
        "upload_time": "2019-06-18T08:42:21",
        "upload_time_iso_8601": "2019-06-18T08:42:21.859169Z",
        "url": "https://files.pythonhosted.org/packages/39/db/562280637406ca3bb2678210ba05266fbc8b908eda72738bf1ce03b9c00d/django-rest-framework-google-json-style-api-1.0.0.tar.gz",
        "yanked": false,
        "yanked_reason": null
      }
    ],
    "1.0.1": [
      {
        "comment_text": "",
        "digests": {
          "blake2b_256": "b8ed7892187065b264d2a4a3c53c686eec979c66861ebafe74fb82ad81448546",
          "md5": "a9ae030e44c0efd8dc18ff497b12c2fe",
          "sha256": "0a6a0793091959ae741fd73f53a5887fe1beb0b6199d4496f852c86e059d2386"
        },
        "downloads": -1,
        "filename": "django-rest-framework-google-json-style-api-1.0.1.tar.gz",
        "has_sig": false,
        "md5_digest": "a9ae030e44c0efd8dc18ff497b12c2fe",
        "packagetype": "sdist",
        "python_version": "source",
        "requires_python": null,
        "size": 11698,
        "upload_time": "2020-02-24T02:55:44",
        "upload_time_iso_8601": "2020-02-24T02:55:44.674897Z",
        "url": "https://files.pythonhosted.org/packages/b8/ed/7892187065b264d2a4a3c53c686eec979c66861ebafe74fb82ad81448546/django-rest-framework-google-json-style-api-1.0.1.tar.gz",
        "yanked": false,
        "yanked_reason": null
      }
    ],
    "1.1.1": [
      {
        "comment_text": "",
        "digests": {
          "blake2b_256": "8f018e6d58a1234e2e762f89001e6ad424874bda57d4baabc93ac866d29a5521",
          "md5": "ca06ef75a6fda7c8b5346dc3846d3cdd",
          "sha256": "c3a41131017b2bcf85ceef0f0e5e45aa0d14715cd0a86d2017ac7ebbc2ba1bbe"
        },
        "downloads": -1,
        "filename": "django-rest-framework-google-json-style-api-1.1.1.tar.gz",
        "has_sig": false,
        "md5_digest": "ca06ef75a6fda7c8b5346dc3846d3cdd",
        "packagetype": "sdist",
        "python_version": "source",
        "requires_python": null,
        "size": 11584,
        "upload_time": "2020-03-12T02:24:43",
        "upload_time_iso_8601": "2020-03-12T02:24:43.299357Z",
        "url": "https://files.pythonhosted.org/packages/8f/01/8e6d58a1234e2e762f89001e6ad424874bda57d4baabc93ac866d29a5521/django-rest-framework-google-json-style-api-1.1.1.tar.gz",
        "yanked": false,
        "yanked_reason": null
      }
    ],
    "1.2.2": [
      {
        "comment_text": "",
        "digests": {
          "blake2b_256": "bbb060ca1210ac391eea81679857f43a6e27ce5430b42c89e3c95bdd8490da26",
          "md5": "e232af54a32530a51400acf4aa44c4f2",
          "sha256": "b6c429fc26c9fe2a97d3015c989e754b1735cc3fc1afe210c3d9a6308d2975c6"
        },
        "downloads": -1,
        "filename": "django-rest-framework-google-json-style-api-1.2.2.tar.gz",
        "has_sig": false,
        "md5_digest": "e232af54a32530a51400acf4aa44c4f2",
        "packagetype": "sdist",
        "python_version": "source",
        "requires_python": null,
        "size": 11579,
        "upload_time": "2020-04-16T00:27:07",
        "upload_time_iso_8601": "2020-04-16T00:27:07.823890Z",
        "url": "https://files.pythonhosted.org/packages/bb/b0/60ca1210ac391eea81679857f43a6e27ce5430b42c89e3c95bdd8490da26/django-rest-framework-google-json-style-api-1.2.2.tar.gz",
        "yanked": false,
        "yanked_reason": null
      }
    ],
    "1.2.3": [
      {
        "comment_text": "",
        "digests": {
          "blake2b_256": "538a2624564f760b765f001ed10e7470edc40f6263f9c74196e0ccb618db9e9e",
          "md5": "18d05c53393162e3987383ac510582a5",
          "sha256": "df560a4faf14f4d129d126cfbc3ef7c29c1cae8b7e95596439a1f827a6ac3dd0"
        },
        "downloads": -1,
        "filename": "django-rest-framework-google-json-style-api-1.2.3.tar.gz",
        "has_sig": false,
        "md5_digest": "18d05c53393162e3987383ac510582a5",
        "packagetype": "sdist",
        "python_version": "source",
        "requires_python": null,
        "size": 11614,
        "upload_time": "2021-02-04T07:34:58",
        "upload_time_iso_8601": "2021-02-04T07:34:58.664155Z",
        "url": "https://files.pythonhosted.org/packages/53/8a/2624564f760b765f001ed10e7470edc40f6263f9c74196e0ccb618db9e9e/django-rest-framework-google-json-style-api-1.2.3.tar.gz",
        "yanked": false,
        "yanked_reason": null
      }
    ],
    "1.2.4": [
      {
        "comment_text": "",
        "digests": {
          "blake2b_256": "cdc9cdbfd9f473b1fcf5bd0ebb52f5be5d672a853965a135bcdfd6f27aa20df1",
          "md5": "a4edc88bd071ebe1da0637d2b05cbd00",
          "sha256": "f9bae71818b3640b9293eab8eb4d74b476dde6a3c8d0cc99a7b04504cb672166"
        },
        "downloads": -1,
        "filename": "django-rest-framework-google-json-style-api-1.2.4.tar.gz",
        "has_sig": false,
        "md5_digest": "a4edc88bd071ebe1da0637d2b05cbd00",
        "packagetype": "sdist",
        "python_version": "source",
        "requires_python": null,
        "size": 11653,
        "upload_time": "2021-03-22T08:45:13",
        "upload_time_iso_8601": "2021-03-22T08:45:13.128902Z",
        "url": "https://files.pythonhosted.org/packages/cd/c9/cdbfd9f473b1fcf5bd0ebb52f5be5d672a853965a135bcdfd6f27aa20df1/django-rest-framework-google-json-style-api-1.2.4.tar.gz",
        "yanked": false,
        "yanked_reason": null
      }
    ]
  },
  "urls": [
    {
      "comment_text": "",
      "digests": {
        "blake2b_256": "cdc9cdbfd9f473b1fcf5bd0ebb52f5be5d672a853965a135bcdfd6f27aa20df1",
        "md5": "a4edc88bd071ebe1da0637d2b05cbd00",
        "sha256": "f9bae71818b3640b9293eab8eb4d74b476dde6a3c8d0cc99a7b04504cb672166"
      },
      "downloads": -1,
      "filename": "django-rest-framework-google-json-style-api-1.2.4.tar.gz",
      "has_sig": false,
      "md5_digest": "a4edc88bd071ebe1da0637d2b05cbd00",
      "packagetype": "sdist",
      "python_version": "source",
      "requires_python": null,
      "size": 11653,
      "upload_time": "2021-03-22T08:45:13",
      "upload_time_iso_8601": "2021-03-22T08:45:13.128902Z",
      "url": "https://files.pythonhosted.org/packages/cd/c9/cdbfd9f473b1fcf5bd0ebb52f5be5d672a853965a135bcdfd6f27aa20df1/django-rest-framework-google-json-style-api-1.2.4.tar.gz",
      "yanked": false,
      "yanked_reason": null
    }
  ],
  "vulnerabilities": []
}