{
  "info": {
    "author": "Willian Antunes",
    "author_email": "Willian Antunes <willian.lima.antunes@gmail.com>",
    "bugtrack_url": null,
    "classifiers": [
      "Environment :: Web Environment",
      "Framework :: Django :: 2.2",
      "Intended Audience :: Developers",
      "License :: OSI Approved :: MIT License",
      "Operating System :: OS Independent",
      "Programming Language :: Python :: 3.7"
    ],
    "description": "# DRF Link Navigation Pagination\n\nYet another [thirdy party package for DRF Pagination](https://www.django-rest-framework.org/api-guide/pagination/).\n\nThis package adds support to some headers that allow you to configure the behaviour of the LimitOffsetPagination class.\n\n## X-Drf-Change-Domain\nIf you want to change de host address located on `next` and `previous` fields, then this is the right thing to you. Take this body as an example:\n\n```json\n{\n  \"links\": {\n    \"next\": \"http://localhost/api/v1/entities/?limit=1&offset=2\",\n    \"previous\": \"http://localhost/api/v1/entities/limit=1\"\n  },\n  \"count\": 100,\n  \"results\": [\n    {\n      \"id\": \"bc6c6868-4e4d-4381-a785-f353ee7ecce5\"\n    }\n  ]\n}\n```\n\nUsing a reverse proxy (like AWS API Gateway) to intermediate between your API, adding `X-Drf-Change-Domain=chumaco` header to the request will make the client receive the following:\n\n```json\n{\n  \"links\": {\n    \"next\": \"http://chumaco/api/v1/entities/?limit=1&offset=2\",\n    \"previous\": \"http://chumaco/api/v1/entities/limit=1\"\n  },\n  \"count\": 100,\n  \"results\": [\n    {\n      \"id\": \"bc6c6868-4e4d-4381-a785-f353ee7ecce5\"\n    }\n  ]\n}\n```\n## X-Drf-Max-Pagination-Size\nThis header allows you to define different limits to the pagination depending on the gateway you are exposing your API.\nFor example. For **client A** we allow a max of `50` entries, for **client B** we allow a max of `100` you can by injecting \nthis header on the client's requests.\n\nIf for some reason the client exceeds the limit he will receive a Bad Request Error:\n```json\n{\n    \"detail\": \"Bad limit value sent.\",\n    \"error\": {\n        \"code\": \"bad_limit_value\"\n    },\n    \"type\": \"API_EXCEPTION\"\n}\n```\n\nOtherwise the default paginated  response is generated:\n```json\n{\n  \"links\": {\n    \"next\": \"https://chumaco/api/v1/entities/?limit=1&offset=2\",\n    \"previous\": \"https://chumaco/api/v1/entities/limit=1\"\n  },\n  \"count\": 100,\n  \"results\": [\n    {\n      \"id\": \"bc6c6868-4e4d-4381-a785-f353ee7ecce5\"\n    }\n  ]\n}\n```\n\n# Configuration process\n\nTo use this package after installing you need to use it's pagination class. in your `settings.py` do the following:\n```python\nREST_FRAMEWORK = {\n    \"DEFAULT_PAGINATION_CLASS\": \"drf_link_navigation_pagination.LinkNavigationPagination\",\n    ...\n}\n```\n\n## Tests\n\nIn order to execute the tests:\n\n    pipenv run tox\n\n\n",
    "description_content_type": "text/markdown",
    "docs_url": null,
    "download_url": "",
    "downloads": {
      "last_day": -1,
      "last_month": -1,
      "last_week": -1
    },
    "home_page": "https://github.com/juntossomosmais/drf-link-navigation-pagination",
    "keywords": "",
    "license": "MIT",
    "maintainer": "",
    "maintainer_email": "",
    "name": "drf-link-navigation-pagination",
    "package_url": "https://pypi.org/project/drf-link-navigation-pagination/",
    "platform": "",
    "project_url": "https://pypi.org/project/drf-link-navigation-pagination/",
    "project_urls": {
      "Homepage": "https://github.com/juntossomosmais/drf-link-navigation-pagination"
    },
    "release_url": "https://pypi.org/project/drf-link-navigation-pagination/0.1.0/",
    "requires_dist": [
      "django",
      "djangorestframework"
    ],
    "requires_python": "",
    "summary": "Yet another pagination class for DRF to set host address by header",
    "version": "0.1.0",
    "yanked": false,
    "yanked_reason": null
  },
  "last_serial": 10498979,
  "releases": {
    "0.0.1": [
      {
        "comment_text": "",
        "digests": {
          "blake2b_256": "2246be1f7836c1ddabfc70216f2aa54a32c137242dc56b8272f08b653b2ac9d5",
          "md5": "f69f8b606d3e739c47fa4e6cfd1d2d51",
          "sha256": "cacc68a01b466c76d82dec10ba84504bcd6ccee093256688eda4f9a65eb55544"
        },
        "downloads": -1,
        "filename": "drf_link_navigation_pagination-0.0.1-py3-none-any.whl",
        "has_sig": false,
        "md5_digest": "f69f8b606d3e739c47fa4e6cfd1d2d51",
        "packagetype": "bdist_wheel",
        "python_version": "py3",
        "requires_python": null,
        "size": 7550,
        "upload_time": "2019-11-22T19:19:02",
        "upload_time_iso_8601": "2019-11-22T19:19:02.496634Z",
        "url": "https://files.pythonhosted.org/packages/22/46/be1f7836c1ddabfc70216f2aa54a32c137242dc56b8272f08b653b2ac9d5/drf_link_navigation_pagination-0.0.1-py3-none-any.whl",
        "yanked": false,
        "yanked_reason": null
      },
      {
        "comment_text": "",
        "digests": {
          "blake2b_256": "356040c3442b6503687fe8830fd45a27c06240819a599082342e97ecc4463b83",
          "md5": "8f6c7415f94e6df3a2805dc6a2abb2f8",
          "sha256": "f9bee60056603653dcc688931f060ddc69ca56304fb2c38f53c59cc6c3bd8900"
        },
        "downloads": -1,
        "filename": "drf-link-navigation-pagination-0.0.1.tar.gz",
        "has_sig": false,
        "md5_digest": "8f6c7415f94e6df3a2805dc6a2abb2f8",
        "packagetype": "sdist",
        "python_version": "source",
        "requires_python": null,
        "size": 4668,
        "upload_time": "2019-11-22T19:19:04",
        "upload_time_iso_8601": "2019-11-22T19:19:04.860638Z",
        "url": "https://files.pythonhosted.org/packages/35/60/40c3442b6503687fe8830fd45a27c06240819a599082342e97ecc4463b83/drf-link-navigation-pagination-0.0.1.tar.gz",
        "yanked": false,
        "yanked_reason": null
      }
    ],
    "0.0.2": [
      {
        "comment_text": "",
        "digests": {
          "blake2b_256": "c74aeb00fddc6ab66046c6e342c74d302baac5610d424cacc1e0dfc8aa71c3a4",
          "md5": "d83d95a8141ad28772c1510726fb5a57",
          "sha256": "1c5f5110822a2570efcbb96c7d8bb3b0ef6227ca1195a9ceaf92ebb1c401d7d0"
        },
        "downloads": -1,
        "filename": "drf_link_navigation_pagination-0.0.2-py3-none-any.whl",
        "has_sig": false,
        "md5_digest": "d83d95a8141ad28772c1510726fb5a57",
        "packagetype": "bdist_wheel",
        "python_version": "py3",
        "requires_python": null,
        "size": 7997,
        "upload_time": "2019-11-25T16:56:36",
        "upload_time_iso_8601": "2019-11-25T16:56:36.795575Z",
        "url": "https://files.pythonhosted.org/packages/c7/4a/eb00fddc6ab66046c6e342c74d302baac5610d424cacc1e0dfc8aa71c3a4/drf_link_navigation_pagination-0.0.2-py3-none-any.whl",
        "yanked": false,
        "yanked_reason": null
      },
      {
        "comment_text": "",
        "digests": {
          "blake2b_256": "38b76c936b85d055f8a61671f8ac3d9bf2fc16e3d8e3d7ca54e6567ceb2cd75c",
          "md5": "09a2937cd21350552efe6680712a9ee1",
          "sha256": "778359341de468c49d79691da4108c26feb3ef307732b5a2f1fbe38b980696ad"
        },
        "downloads": -1,
        "filename": "drf-link-navigation-pagination-0.0.2.tar.gz",
        "has_sig": false,
        "md5_digest": "09a2937cd21350552efe6680712a9ee1",
        "packagetype": "sdist",
        "python_version": "source",
        "requires_python": null,
        "size": 5026,
        "upload_time": "2019-11-25T16:56:38",
        "upload_time_iso_8601": "2019-11-25T16:56:38.173319Z",
        "url": "https://files.pythonhosted.org/packages/38/b7/6c936b85d055f8a61671f8ac3d9bf2fc16e3d8e3d7ca54e6567ceb2cd75c/drf-link-navigation-pagination-0.0.2.tar.gz",
        "yanked": false,
        "yanked_reason": null
      }
    ],
    "0.0.3": [
      {
        "comment_text": "",
        "digests": {
          "blake2b_256": "5918a9a7adf0dde6e8ec0327f9b840814c973058bd2b5d4da42b1799034c77f5",
          "md5": "58a6b1589a6b87dc6a83aaef17d3bc23",
          "sha256": "020048511f559fd89b9727136a7b06c2318ef337ca65bb6d7049808b8ff98198"
        },
        "downloads": -1,
        "filename": "drf_link_navigation_pagination-0.0.3-py3-none-any.whl",
        "has_sig": false,
        "md5_digest": "58a6b1589a6b87dc6a83aaef17d3bc23",
        "packagetype": "bdist_wheel",
        "python_version": "py3",
        "requires_python": null,
        "size": 8080,
        "upload_time": "2019-11-25T18:15:40",
        "upload_time_iso_8601": "2019-11-25T18:15:40.245002Z",
        "url": "https://files.pythonhosted.org/packages/59/18/a9a7adf0dde6e8ec0327f9b840814c973058bd2b5d4da42b1799034c77f5/drf_link_navigation_pagination-0.0.3-py3-none-any.whl",
        "yanked": false,
        "yanked_reason": null
      },
      {
        "comment_text": "",
        "digests": {
          "blake2b_256": "0d5264df193a788fb61454decc536550199abb3f0ef8fd8f9641714ec04e80f9",
          "md5": "ec13597151473ea0a832e22527bfdd5c",
          "sha256": "fee695b1129ab8977c155c2a61b83eda7662527ba50f80406eccf2aa564f207f"
        },
        "downloads": -1,
        "filename": "drf-link-navigation-pagination-0.0.3.tar.gz",
        "has_sig": false,
        "md5_digest": "ec13597151473ea0a832e22527bfdd5c",
        "packagetype": "sdist",
        "python_version": "source",
        "requires_python": null,
        "size": 5098,
        "upload_time": "2019-11-25T18:15:41",
        "upload_time_iso_8601": "2019-11-25T18:15:41.753006Z",
        "url": "https://files.pythonhosted.org/packages/0d/52/64df193a788fb61454decc536550199abb3f0ef8fd8f9641714ec04e80f9/drf-link-navigation-pagination-0.0.3.tar.gz",
        "yanked": false,
        "yanked_reason": null
      }
    ],
    "0.0.4": [
      {
        "comment_text": "",
        "digests": {
          "blake2b_256": "bcd411dc47342a8a1813b037b1cbe85639f82d07001fed316d3e792cc31f97c4",
          "md5": "d4e6536562feea5545987fa837de57e2",
          "sha256": "1d9429ea7765279641c77ac374272a145d7d08e6da0773d6dd060baa36ac59b3"
        },
        "downloads": -1,
        "filename": "drf_link_navigation_pagination-0.0.4-py3-none-any.whl",
        "has_sig": false,
        "md5_digest": "d4e6536562feea5545987fa837de57e2",
        "packagetype": "bdist_wheel",
        "python_version": "py3",
        "requires_python": null,
        "size": 8515,
        "upload_time": "2019-11-25T21:13:16",
        "upload_time_iso_8601": "2019-11-25T21:13:16.974794Z",
        "url": "https://files.pythonhosted.org/packages/bc/d4/11dc47342a8a1813b037b1cbe85639f82d07001fed316d3e792cc31f97c4/drf_link_navigation_pagination-0.0.4-py3-none-any.whl",
        "yanked": false,
        "yanked_reason": null
      },
      {
        "comment_text": "",
        "digests": {
          "blake2b_256": "d4991a40ca3e0840da193aa4fd5fac70095d0a6a0f3ce61ced3d28ddda871c98",
          "md5": "4af679d109078421101a97e212d1d2aa",
          "sha256": "f4c876cd9652a44f528fa58348b9e7ddbda58eb33bb07052c640ec1b72ad8325"
        },
        "downloads": -1,
        "filename": "drf-link-navigation-pagination-0.0.4.tar.gz",
        "has_sig": false,
        "md5_digest": "4af679d109078421101a97e212d1d2aa",
        "packagetype": "sdist",
        "python_version": "source",
        "requires_python": null,
        "size": 5553,
        "upload_time": "2019-11-25T21:13:18",
        "upload_time_iso_8601": "2019-11-25T21:13:18.205892Z",
        "url": "https://files.pythonhosted.org/packages/d4/99/1a40ca3e0840da193aa4fd5fac70095d0a6a0f3ce61ced3d28ddda871c98/drf-link-navigation-pagination-0.0.4.tar.gz",
        "yanked": false,
        "yanked_reason": null
      }
    ],
    "0.1.0": [
      {
        "comment_text": "",
        "digests": {
          "blake2b_256": "555c4114b467c499a2d7e39069169cc6178448b42a72cff1c1424c0201318a7a",
          "md5": "b217af685c6df9693d6620bdb3d51e43",
          "sha256": "d71a6e16a07405ad37f1d3634dff3c154938e2c105ca04890300591e64418c88"
        },
        "downloads": -1,
        "filename": "drf_link_navigation_pagination-0.1.0-py3-none-any.whl",
        "has_sig": false,
        "md5_digest": "b217af685c6df9693d6620bdb3d51e43",
        "packagetype": "bdist_wheel",
        "python_version": "py3",
        "requires_python": null,
        "size": 9910,
        "upload_time": "2021-05-28T13:25:34",
        "upload_time_iso_8601": "2021-05-28T13:25:34.553140Z",
        "url": "https://files.pythonhosted.org/packages/55/5c/4114b467c499a2d7e39069169cc6178448b42a72cff1c1424c0201318a7a/drf_link_navigation_pagination-0.1.0-py3-none-any.whl",
        "yanked": false,
        "yanked_reason": null
      },
      {
        "comment_text": "",
        "digests": {
          "blake2b_256": "11cadf5047ef9925a8c63bebd03468b730c7aa88475f912b0dd642f59fed2a54",
          "md5": "0372540b5ef107a5fb21161357a1799d",
          "sha256": "160eaddc4fec9cfadd890998ffc70ca6ea5a61fcfaaa158e9a79b82b533579a4"
        },
        "downloads": -1,
        "filename": "drf-link-navigation-pagination-0.1.0.tar.gz",
        "has_sig": false,
        "md5_digest": "0372540b5ef107a5fb21161357a1799d",
        "packagetype": "sdist",
        "python_version": "source",
        "requires_python": null,
        "size": 6780,
        "upload_time": "2021-05-28T13:25:35",
        "upload_time_iso_8601": "2021-05-28T13:25:35.881544Z",
        "url": "https://files.pythonhosted.org/packages/11/ca/df5047ef9925a8c63bebd03468b730c7aa88475f912b0dd642f59fed2a54/drf-link-navigation-pagination-0.1.0.tar.gz",
        "yanked": false,
        "yanked_reason": null
      }
    ]
  },
  "urls": [
    {
      "comment_text": "",
      "digests": {
        "blake2b_256": "555c4114b467c499a2d7e39069169cc6178448b42a72cff1c1424c0201318a7a",
        "md5": "b217af685c6df9693d6620bdb3d51e43",
        "sha256": "d71a6e16a07405ad37f1d3634dff3c154938e2c105ca04890300591e64418c88"
      },
      "downloads": -1,
      "filename": "drf_link_navigation_pagination-0.1.0-py3-none-any.whl",
      "has_sig": false,
      "md5_digest": "b217af685c6df9693d6620bdb3d51e43",
      "packagetype": "bdist_wheel",
      "python_version": "py3",
      "requires_python": null,
      "size": 9910,
      "upload_time": "2021-05-28T13:25:34",
      "upload_time_iso_8601": "2021-05-28T13:25:34.553140Z",
      "url": "https://files.pythonhosted.org/packages/55/5c/4114b467c499a2d7e39069169cc6178448b42a72cff1c1424c0201318a7a/drf_link_navigation_pagination-0.1.0-py3-none-any.whl",
      "yanked": false,
      "yanked_reason": null
    },
    {
      "comment_text": "",
      "digests": {
        "blake2b_256": "11cadf5047ef9925a8c63bebd03468b730c7aa88475f912b0dd642f59fed2a54",
        "md5": "0372540b5ef107a5fb21161357a1799d",
        "sha256": "160eaddc4fec9cfadd890998ffc70ca6ea5a61fcfaaa158e9a79b82b533579a4"
      },
      "downloads": -1,
      "filename": "drf-link-navigation-pagination-0.1.0.tar.gz",
      "has_sig": false,
      "md5_digest": "0372540b5ef107a5fb21161357a1799d",
      "packagetype": "sdist",
      "python_version": "source",
      "requires_python": null,
      "size": 6780,
      "upload_time": "2021-05-28T13:25:35",
      "upload_time_iso_8601": "2021-05-28T13:25:35.881544Z",
      "url": "https://files.pythonhosted.org/packages/11/ca/df5047ef9925a8c63bebd03468b730c7aa88475f912b0dd642f59fed2a54/drf-link-navigation-pagination-0.1.0.tar.gz",
      "yanked": false,
      "yanked_reason": null
    }
  ],
  "vulnerabilities": []
}