{
  "info": {
    "author": "Tonye Jack",
    "author_email": "jtonye@ymail.com",
    "bugtrack_url": null,
    "classifiers": [
      "Development Status :: 2 - Pre-Alpha",
      "Intended Audience :: Developers",
      "License :: OSI Approved :: MIT License",
      "Natural Language :: English",
      "Programming Language :: Python :: 2.7",
      "Programming Language :: Python :: 3.5",
      "Programming Language :: Python :: 3.6",
      "Programming Language :: Python :: 3.7",
      "Programming Language :: Python :: 3.8",
      "Programming Language :: Python :: 3.9"
    ],
    "description": "=====================\ndrf-restricted-fields\n=====================\n\n.. image:: https://img.shields.io/pypi/v/drf_restricted_fields.svg\n        :target: https://pypi.python.org/pypi/drf_restricted_fields\n\n.. image:: https://github.com/tj-django/drf-restricted-fields/actions/workflows/test.yml/badge.svg\n        :target: https://github.com/tj-django/drf-restricted-fields/actions/workflows/test.yml\n\n\n.. image:: https://readthedocs.org/projects/drf-restricted-fields/badge/?version=latest\n        :target: https://drf-restricted-fields.readthedocs.io/en/latest/?version=latest\n        :alt: Documentation Status\n\n.. image:: https://pyup.io/repos/github/tj-django/drf-restricted-fields/shield.svg\n     :target: https://pyup.io/repos/github/tj-django/drf-restricted-fields/\n     :alt: Updates\n\n\nFeatures\n========\n\nRestrict fields returned by DRF serializers using the ``only`` query parameter\n------------------------------------------------------------------------------\n\n.. code-block:: console\n\n    GET http://127.0.0.1:8000/api/users/?only=id&only=name\n\n\nSerialize only the `id` and `name` fields.\n\n.. code-block:: console\n\n    {\n        \"count\": 198,\n        \"next\": \"http://127.0.0.1:8000/api/users/?only=id&only=name&page=1\",\n        \"previous\": null,\n        \"results\":[\n            {\n                \"id\": 1,\n                \"name\": \"Test\"\n            },\n            ...\n        ],\n    }\n\n\nDefer fields returned by DRF serializers using the ``defer`` query parameter\n----------------------------------------------------------------------------\n\n.. code-block:: console\n\n    GET http://127.0.0.1:8000/api/users/?defer=name&defer=age\n\n\nSerialize only the `id` and `name` fields.\n\n.. code-block:: console\n\n    {\n        \"count\": 198,\n        \"next\": \"http://127.0.0.1:8000/api/users/?defer=name&defer=age&page=1\",\n        \"previous\": null,\n        \"results\":[\n            {\n                \"id\": 1,\n            },\n            ...\n        ],\n    }\n\n\n* Free software: MIT license\n* Documentation: https://drf-restricted-fields.readthedocs.io.\n\n\n\n",
    "description_content_type": "text/x-rst",
    "docs_url": null,
    "download_url": "",
    "downloads": {
      "last_day": -1,
      "last_month": -1,
      "last_week": -1
    },
    "home_page": "https://github.com/tj-django/drf-restricted-fields",
    "keywords": "drf_restricted_fields,restricted_fields",
    "license": "MIT license",
    "maintainer": "",
    "maintainer_email": "",
    "name": "drf-restricted-fields",
    "package_url": "https://pypi.org/project/drf-restricted-fields/",
    "platform": "",
    "project_url": "https://pypi.org/project/drf-restricted-fields/",
    "project_urls": {
      "Homepage": "https://github.com/tj-django/drf-restricted-fields"
    },
    "release_url": "https://pypi.org/project/drf-restricted-fields/0.0.1/",
    "requires_dist": [
      "django",
      "djangorestframework",
      "bump2version ; extra == 'deploy'",
      "readme-renderer[md] ; extra == 'deploy'",
      "changes ; extra == 'deploy'",
      "git-changelog ; extra == 'deploy'",
      "twine ; extra == 'deploy'",
      "wheel ; extra == 'deploy'",
      "django ; extra == 'development'",
      "djangorestframework ; extra == 'development'",
      "bump2version ; extra == 'development'",
      "readme-renderer[md] ; extra == 'development'",
      "changes ; extra == 'development'",
      "git-changelog ; extra == 'development'",
      "twine ; extra == 'development'",
      "wheel ; extra == 'development'",
      "pytest (>=3) ; extra == 'development'",
      "tox ; extra == 'development'",
      "tox-gh-actions ; extra == 'development'",
      "coverage ; extra == 'development'",
      "flake8 ; extra == 'development'",
      "yamllint ; extra == 'development'",
      "isort ; extra == 'development'",
      "black ; extra == 'development'",
      "black ; (python_version >= \"3.6\") and extra == 'development'",
      "watchdog[watchmedo] ; extra == 'docs'",
      "Sphinx ; extra == 'docs'",
      "flake8 ; extra == 'lint'",
      "yamllint ; extra == 'lint'",
      "isort ; extra == 'lint'",
      "black ; extra == 'lint'",
      "black ; (python_version >= \"3.6\") and extra == 'lint'",
      "pytest (>=3) ; extra == 'test'",
      "tox ; extra == 'test'",
      "tox-gh-actions ; extra == 'test'",
      "coverage ; extra == 'test'"
    ],
    "requires_python": ">=2.6",
    "summary": "Restrict fields returned by DRF serializers",
    "version": "0.0.1",
    "yanked": false,
    "yanked_reason": null
  },
  "last_serial": 10029560,
  "releases": {
    "0.0.1": [
      {
        "comment_text": "",
        "digests": {
          "blake2b_256": "f7fffcdba065be7d637629eaeaa4c0455cd67fd1f89f2dc0b1c5111da230b2bf",
          "md5": "ddaeb9b0fd240fed1b32ee0339213a62",
          "sha256": "2dd9d0ad89044fa45c1132432fc98fcee7b9249fb321f4d5947bfdc41b3e0a94"
        },
        "downloads": -1,
        "filename": "drf_restricted_fields-0.0.1-py2.py3-none-any.whl",
        "has_sig": false,
        "md5_digest": "ddaeb9b0fd240fed1b32ee0339213a62",
        "packagetype": "bdist_wheel",
        "python_version": "py2.py3",
        "requires_python": ">=2.6",
        "size": 4875,
        "upload_time": "2021-04-11T03:38:36",
        "upload_time_iso_8601": "2021-04-11T03:38:36.802489Z",
        "url": "https://files.pythonhosted.org/packages/f7/ff/fcdba065be7d637629eaeaa4c0455cd67fd1f89f2dc0b1c5111da230b2bf/drf_restricted_fields-0.0.1-py2.py3-none-any.whl",
        "yanked": false,
        "yanked_reason": null
      },
      {
        "comment_text": "",
        "digests": {
          "blake2b_256": "5fc2a748c4456276fdba233ac526116a0a040e86c0a6daeb430205aa14a79b88",
          "md5": "e3dccb7fb9318552443e0934acba0bd7",
          "sha256": "c1539e85a47de6f0c4bac3fbefd531be66a2166710a022123b6ff0ac3895d095"
        },
        "downloads": -1,
        "filename": "drf_restricted_fields-0.0.1.tar.gz",
        "has_sig": false,
        "md5_digest": "e3dccb7fb9318552443e0934acba0bd7",
        "packagetype": "sdist",
        "python_version": "source",
        "requires_python": ">=2.6",
        "size": 6869,
        "upload_time": "2021-04-11T03:38:38",
        "upload_time_iso_8601": "2021-04-11T03:38:38.264773Z",
        "url": "https://files.pythonhosted.org/packages/5f/c2/a748c4456276fdba233ac526116a0a040e86c0a6daeb430205aa14a79b88/drf_restricted_fields-0.0.1.tar.gz",
        "yanked": false,
        "yanked_reason": null
      }
    ]
  },
  "urls": [
    {
      "comment_text": "",
      "digests": {
        "blake2b_256": "f7fffcdba065be7d637629eaeaa4c0455cd67fd1f89f2dc0b1c5111da230b2bf",
        "md5": "ddaeb9b0fd240fed1b32ee0339213a62",
        "sha256": "2dd9d0ad89044fa45c1132432fc98fcee7b9249fb321f4d5947bfdc41b3e0a94"
      },
      "downloads": -1,
      "filename": "drf_restricted_fields-0.0.1-py2.py3-none-any.whl",
      "has_sig": false,
      "md5_digest": "ddaeb9b0fd240fed1b32ee0339213a62",
      "packagetype": "bdist_wheel",
      "python_version": "py2.py3",
      "requires_python": ">=2.6",
      "size": 4875,
      "upload_time": "2021-04-11T03:38:36",
      "upload_time_iso_8601": "2021-04-11T03:38:36.802489Z",
      "url": "https://files.pythonhosted.org/packages/f7/ff/fcdba065be7d637629eaeaa4c0455cd67fd1f89f2dc0b1c5111da230b2bf/drf_restricted_fields-0.0.1-py2.py3-none-any.whl",
      "yanked": false,
      "yanked_reason": null
    },
    {
      "comment_text": "",
      "digests": {
        "blake2b_256": "5fc2a748c4456276fdba233ac526116a0a040e86c0a6daeb430205aa14a79b88",
        "md5": "e3dccb7fb9318552443e0934acba0bd7",
        "sha256": "c1539e85a47de6f0c4bac3fbefd531be66a2166710a022123b6ff0ac3895d095"
      },
      "downloads": -1,
      "filename": "drf_restricted_fields-0.0.1.tar.gz",
      "has_sig": false,
      "md5_digest": "e3dccb7fb9318552443e0934acba0bd7",
      "packagetype": "sdist",
      "python_version": "source",
      "requires_python": ">=2.6",
      "size": 6869,
      "upload_time": "2021-04-11T03:38:38",
      "upload_time_iso_8601": "2021-04-11T03:38:38.264773Z",
      "url": "https://files.pythonhosted.org/packages/5f/c2/a748c4456276fdba233ac526116a0a040e86c0a6daeb430205aa14a79b88/drf_restricted_fields-0.0.1.tar.gz",
      "yanked": false,
      "yanked_reason": null
    }
  ],
  "vulnerabilities": []
}