{
  "info": {
    "author": "Deepak Chourasia",
    "author_email": "deepak.chourasia@gmail.com",
    "bugtrack_url": null,
    "classifiers": [
      "Development Status :: 5 - Production/Stable",
      "Intended Audience :: Developers",
      "License :: OSI Approved :: Apache Software License",
      "Natural Language :: English",
      "Programming Language :: Python :: 3",
      "Topic :: Software Development :: Testing"
    ],
    "description": "JsonUpdate-NG\n==========================\n\nIntroduction\n------------\njsonupdate-ng provides easy and scalable way to update any json document using following ways:\n* json : a head json which you can use to add/update/delete nodes from base json\n* jsonpath : a jsonpath as node name along with the value to add/update/delete multiple nodes from the base json in one shot\n* a mixup of json and jsonpaths\n\n**PS -** jsonpath is a language like xpath to select single/multiple nodes from a given json. There are multiple tutorials on web to learn this.\n\nHere are few resources to learn jsonpath:\n* **jsonpath tutorial** : https://goessner.net/articles/JsonPath/index.html#e2\n* **jsonpath evaluator** : https://jsonpath.com/ \n\n![License](https://img.shields.io/pypi/l/robotframework.svg)\n\nPrerequisites\n-------------\njsonupdate-ng has following prerequisites:\n```\njsonpath-ng>=1.4.3\nsetuptools>=39.1.0\n```\nyou can install all the prerequisites either one by one or using the requirements.txt provided with source code:\n```\npip install -r requirements.txt\n```\nInstallation\n------------\nRESTLibrary can be easily installed using pip with following command:\n```\npip install jsonupdate-ng\n```\nAlternatively it can also be installed from the sourcecode:\n```\npython setup.py install\n```\n\nMajor features\n-----------------\n### updateJson\nthis python function takes two arguments, base json and head json, and updates the base json based on the details provided in head.\n#### Example\n```\nfrom jsonupdate_ng import jsonupdate_ng\n\nupdatedJson = jsonupdate_ng.updateJson(baseJson, headJson)\n```\n\n```\ncontents of base json\n\n{\n\t\"page\": 1,\n\t\"per_page\": 6,\n\t\"total\": 12,\n\t\"total_pages\": 2,\n\t\"data\": [\n\t\t{\n\t\t\t\"id\": 1,\n\t\t\t\"email\": \"george.bluth@reqres.in\",\n\t\t\t\"first_name\": \"George\",\n\t\t\t\"last_name\": \"Bluth\",\n\t\t\t\"avatar\": \"https://reqres.in/img/faces/1-image.jpg\"\n\t\t},\n\t\t{\n\t\t\t\"id\": 2,\n\t\t\t\"email\": \"janet.weaver@reqres.in\",\n\t\t\t\"first_name\": \"Janet\",\n\t\t\t\"last_name\": \"Weaver\",\n\t\t\t\"avatar\": \"https://reqres.in/img/faces/2-image.jpg\"\n\t\t},\n\t\t{\n\t\t\t\"id\": 3,\n\t\t\t\"email\": \"emma.wong@reqres.in\",\n\t\t\t\"first_name\": \"Emma\",\n\t\t\t\"last_name\": \"Wong\",\n\t\t\t\"avatar\": \"https://reqres.in/img/faces/3-image.jpg\"\n\t\t},\n\t\t{\n\t\t\t\"id\": 4,\n\t\t\t\"email\": \"eve.holt@reqres.in\",\n\t\t\t\"first_name\": \"Eve\",\n\t\t\t\"last_name\": \"Holt\",\n\t\t\t\"avatar\": \"https://reqres.in/img/faces/4-image.jpg\"\n\t\t},\n\t\t{\n\t\t\t\"id\": 5,\n\t\t\t\"email\": \"charles.morris@reqres.in\",\n\t\t\t\"first_name\": \"Charles\",\n\t\t\t\"last_name\": \"Morris\",\n\t\t\t\"avatar\": \"https://reqres.in/img/faces/5-image.jpg\"\n\t\t},\n\t\t{\n\t\t\t\"id\": 6,\n\t\t\t\"email\": \"tracey.ramos@reqres.in\",\n\t\t\t\"first_name\": \"Tracey\",\n\t\t\t\"last_name\": \"Ramos\",\n\t\t\t\"avatar\": \"https://reqres.in/img/faces/6-image.jpg\"\n\t\t}\n\t]\n}\n```\n```\ncontents of head json (comments are just to clarify the example, please remove them before trying it in your code)\n{\n    \"name\" : \"users\",                                       // this will add a name node at the root\n    \"per_page\" : 12,                                        // this will update the per_page value\n    \"company\" : { \"name\" : \"anything\", \"office\" : \"anywhere\" }, // this will add a new object at the root \n    \"total_pages\" : \"<<<DELETE>>>\",                             // this will delete total_pages node from the root\n    \"data\" : [\n        {\n            \"id\": 100,                                          // this will update id of the first item in the data list\n\t\t\t\"full_name\": \"deepak chourasia\",                    // this will add a full_name node in the first item of the data list\n        }\n    ],\n    \"$.limit\" : 6,                                              // this will add a limit node at the root\n    \"$.data[*].designation\" : \"developer\",                      // this will add a designation node in all the objects inside data list\n    \"$.data[?(@.id > 3)].salary\" : \"$100,000\",                    // this will add a salary node in all the objects inside data list which have id > 3\n    \"$.data[100]\" : {                                            // this can be used to add/update an object at provided index in the data list, if index is greater than current length of the list then item will be added to the end of the list\n\t\t\t\"id\": 101,\n\t\t\t\"email\": \"deepak.chourasia@gmail.com\",\n\t\t\t\"first_name\": \"Deepak\",\n\t\t\t\"last_name\": \"Chourasia\"\n    },\n    \"$.data[?(@.id > 4)].avatar\" : \"<<<DELETE>>>\"                // this will delete avtar node from the object inside data list which has id > 4\n}\n```\n\n### checkIfNodeExistsAtGivenJsonPath\nthis function checks if a node exists at given jsonpath in the provided json\n#### Example\n```\nfrom jsonupdate_ng import jsonupdate_ng\n\nexists = jsonupdate_ng.checkIfNodeExistsAtGivenJsonPath(baseJson, \"$.data\")\n```\n### Add_Update_Delete_Node_AtGivenJsonPath\nthis function can perform multiple tasks based on the situation:\n* will add a node if it doesnt exist in base json\n* will update the node value if node already exists in base json\n* will delete the node if value is provided as <<<DELETE\\>>>\n```\nfrom jsonupdate_ng import jsonupdate_ng\n\nupdatedJson = jsonupdate_ng.Add_Update_Delete_Node_AtGivenJsonPath(baseJson, \"$.name\", \"Deepak Chourasia\")\n```\nContributions:\n--------------\nCreator and maintainer : [Deepak Chourasia](https://www.linkedin.com/in/deepak-chourasia-10767610/)\n\nLicense\n--------\nJsonUpdate-NG is open source software provided under the [Apache License 2.0](http://apache.org/licenses/LICENSE-2.0)\n\n",
    "description_content_type": "text/markdown",
    "docs_url": null,
    "download_url": "",
    "downloads": {
      "last_day": -1,
      "last_month": -1,
      "last_week": -1
    },
    "home_page": "https://gitlab.sas.com/sindec/rf-rest",
    "keywords": "",
    "license": "",
    "maintainer": "",
    "maintainer_email": "",
    "name": "jsonupdate-ng",
    "package_url": "https://pypi.org/project/jsonupdate-ng/",
    "platform": "",
    "project_url": "https://pypi.org/project/jsonupdate-ng/",
    "project_urls": {
      "Bug Tracker": "https://gitlab.sas.com/sindec/jsonupdate-ng",
      "Homepage": "https://gitlab.sas.com/sindec/rf-rest"
    },
    "release_url": "https://pypi.org/project/jsonupdate-ng/1.0.0/",
    "requires_dist": null,
    "requires_python": ">=3.5.2",
    "summary": "A jsonp based implementation to easily update any json document",
    "version": "1.0.0",
    "yanked": false,
    "yanked_reason": null
  },
  "last_serial": 11070066,
  "releases": {
    "1.0.0": [
      {
        "comment_text": "",
        "digests": {
          "blake2b_256": "39c4f547a856d027ca63d761c49eb9d67aa3e2d85c3f613ea269a73ea4f760f6",
          "md5": "14e4901cbd8277b6ad1d0be37e2f902e",
          "sha256": "9b1c2ea60e5cfe673e178b140c48ad9c2a292d9c082413ed51670f0bd00a4a76"
        },
        "downloads": -1,
        "filename": "jsonupdate_ng-1.0.0-py3-none-any.whl",
        "has_sig": false,
        "md5_digest": "14e4901cbd8277b6ad1d0be37e2f902e",
        "packagetype": "bdist_wheel",
        "python_version": "py3",
        "requires_python": ">=3.5.2",
        "size": 9593,
        "upload_time": "2021-08-02T15:02:48",
        "upload_time_iso_8601": "2021-08-02T15:02:48.088821Z",
        "url": "https://files.pythonhosted.org/packages/39/c4/f547a856d027ca63d761c49eb9d67aa3e2d85c3f613ea269a73ea4f760f6/jsonupdate_ng-1.0.0-py3-none-any.whl",
        "yanked": false,
        "yanked_reason": null
      },
      {
        "comment_text": "",
        "digests": {
          "blake2b_256": "16b96663d67f0c3c9b9213a5254ddb43cfa0bb9d274cbbbfaff443188432989a",
          "md5": "7634c12aed94d1408d7400a67c09cf81",
          "sha256": "f0a70f03a1e0234c2aeee0ba19f285ed6e12f961234ecce4d2c4e51741b2bbbe"
        },
        "downloads": -1,
        "filename": "jsonupdate-ng-1.0.0.tar.gz",
        "has_sig": false,
        "md5_digest": "7634c12aed94d1408d7400a67c09cf81",
        "packagetype": "sdist",
        "python_version": "source",
        "requires_python": ">=3.5.2",
        "size": 8923,
        "upload_time": "2021-08-02T15:02:49",
        "upload_time_iso_8601": "2021-08-02T15:02:49.373249Z",
        "url": "https://files.pythonhosted.org/packages/16/b9/6663d67f0c3c9b9213a5254ddb43cfa0bb9d274cbbbfaff443188432989a/jsonupdate-ng-1.0.0.tar.gz",
        "yanked": false,
        "yanked_reason": null
      }
    ]
  },
  "urls": [
    {
      "comment_text": "",
      "digests": {
        "blake2b_256": "39c4f547a856d027ca63d761c49eb9d67aa3e2d85c3f613ea269a73ea4f760f6",
        "md5": "14e4901cbd8277b6ad1d0be37e2f902e",
        "sha256": "9b1c2ea60e5cfe673e178b140c48ad9c2a292d9c082413ed51670f0bd00a4a76"
      },
      "downloads": -1,
      "filename": "jsonupdate_ng-1.0.0-py3-none-any.whl",
      "has_sig": false,
      "md5_digest": "14e4901cbd8277b6ad1d0be37e2f902e",
      "packagetype": "bdist_wheel",
      "python_version": "py3",
      "requires_python": ">=3.5.2",
      "size": 9593,
      "upload_time": "2021-08-02T15:02:48",
      "upload_time_iso_8601": "2021-08-02T15:02:48.088821Z",
      "url": "https://files.pythonhosted.org/packages/39/c4/f547a856d027ca63d761c49eb9d67aa3e2d85c3f613ea269a73ea4f760f6/jsonupdate_ng-1.0.0-py3-none-any.whl",
      "yanked": false,
      "yanked_reason": null
    },
    {
      "comment_text": "",
      "digests": {
        "blake2b_256": "16b96663d67f0c3c9b9213a5254ddb43cfa0bb9d274cbbbfaff443188432989a",
        "md5": "7634c12aed94d1408d7400a67c09cf81",
        "sha256": "f0a70f03a1e0234c2aeee0ba19f285ed6e12f961234ecce4d2c4e51741b2bbbe"
      },
      "downloads": -1,
      "filename": "jsonupdate-ng-1.0.0.tar.gz",
      "has_sig": false,
      "md5_digest": "7634c12aed94d1408d7400a67c09cf81",
      "packagetype": "sdist",
      "python_version": "source",
      "requires_python": ">=3.5.2",
      "size": 8923,
      "upload_time": "2021-08-02T15:02:49",
      "upload_time_iso_8601": "2021-08-02T15:02:49.373249Z",
      "url": "https://files.pythonhosted.org/packages/16/b9/6663d67f0c3c9b9213a5254ddb43cfa0bb9d274cbbbfaff443188432989a/jsonupdate-ng-1.0.0.tar.gz",
      "yanked": false,
      "yanked_reason": null
    }
  ],
  "vulnerabilities": []
}