{
  "info": {
    "author": "Aaron Bach",
    "author_email": "bachya1208@gmail.com",
    "bugtrack_url": null,
    "classifiers": [
      "License :: OSI Approved :: MIT License",
      "Programming Language :: Python",
      "Programming Language :: Python :: 3",
      "Programming Language :: Python :: 3.10",
      "Programming Language :: Python :: 3.11",
      "Programming Language :: Python :: 3.9",
      "Programming Language :: Python :: Implementation :: CPython",
      "Programming Language :: Python :: Implementation :: PyPy"
    ],
    "description": "# 🔖 linkding-cli: A CLI to interact with a linkding instance\n\n[![CI](https://github.com/bachya/linkding-cli/workflows/CI/badge.svg)](https://github.com/bachya/linkding-cli/actions)\n[![PyPi](https://img.shields.io/pypi/v/linkding-cli.svg)](https://pypi.python.org/pypi/linkding-cli)\n[![Version](https://img.shields.io/pypi/pyversions/linkding-cli.svg)](https://pypi.python.org/pypi/linkding-cli)\n[![License](https://img.shields.io/pypi/l/linkding-cli.svg)](https://github.com/bachya/linkding-cli/blob/main/LICENSE)\n[![Code Coverage](https://codecov.io/gh/bachya/linkding-cli/branch/dev/graph/badge.svg)](https://codecov.io/gh/bachya/linkding-cli)\n[![Maintainability](https://api.codeclimate.com/v1/badges/f01be3cd230902508636/maintainability)](https://codeclimate.com/github/bachya/linkding-cli/maintainability)\n[![Say Thanks](https://img.shields.io/badge/SayThanks-!-1EAEDB.svg)](https://saythanks.io/to/bachya)\n\n`linkding-cli` is a CLI to interact with a\n[linkding](https://github.com/sissbruecker/linkding) instance.\n\n- [Installation](#installation)\n- [Python Versions](#python-versions)\n- [Usage](#usage)\n  - [Main Help](#main-help)\n  - [Configuration](#configuration)\n    - [Example: CLI Options](#example--cli-options)\n    - [Example: Environment Variables](#example--environment-variables)\n    - [Example: Configuration File](#example--configuration-file)\n    - [Merging Configuration Options](#merging-configuration-options)\n  - [Bookmarks](#bookmarks)\n    - [The `bookmarks all` command](#the-bookmarks-all-command)\n    - [The `bookmarks archive` command](#the-bookmarks-archive-command)\n    - [The `bookmarks create` command](#the-bookmarks-create-command)\n    - [The `bookmarks delete` command](#the-bookmarks-delete-command)\n    - [The `bookmarks get` command](#the-bookmarks-get-command)\n    - [The `bookmarks unarchive` command](#the-bookmarks-unarchive-command)\n    - [The `bookmarks update` command](#the-bookmarks-update-command)\n  - [Tags](#tags)\n    - [The `tags all` command](#the-tags-all-command)\n    - [The `tags create` command](#the-tags-create-command)\n    - [The `tags get` command](#the-tags-get-command)\n  - [Misc.](#misc)\n    - [Parsing and Pretty Printing Data](#parsing-and-pretty-printing-data)\n- [Contributing](#contributing)\n\n# Installation\n\n```bash\npip install linkding-cli\n```\n\n# Python Versions\n\n`linkding-cli` is currently supported on:\n\n- Python 3.9\n- Python 3.10\n- Python 3.11\n\n# Usage\n\n## Main Help\n\n```\n$ linkding --help\nUsage: linkding [OPTIONS] COMMAND [ARGS]...\n\n  Interact with a linkding instance.\n\nOptions:\n  -c, --config PATH     A path to a config file.  [env var: LINKDING_CONFIG]\n  -t, --token TOKEN     A linkding API token.  [env var: LINKDING_TOKEN]\n  -u, --url URL         A URL to a linkding instance.  [env var: LINKDING_URL]\n  -v, --verbose         Increase verbosity of standard output.\n  --install-completion  Install completion for the current shell.\n  --show-completion     Show completion for the current shell, to copy it or\n                        customize the installation.\n  --help                Show this message and exit.\n\nCommands:\n  bookmarks  Work with bookmarks.\n  tags       Work with tags.\n```\n\n## Configuration\n\nConfiguration can be provided via a variety of sources:\n\n- CLI Options\n- Environment Variables\n- Configuration File\n\n### Example: CLI Options\n\n```\n$ linkding -u http://127.0.0.1:8000 -t abcde12345 ...\n```\n\n### Example: Environment Variables\n\n```\n$ LINKDING_URL=http://127.0.0.1:8000 LINKDING_TOKEN=abcde12345 linkding ...\n```\n\n### Example: Configuration File\n\nThe configuration file can be formatted as either JSON:\n\n```json\n{\n  \"token\": \"abcde12345\",\n  \"url\": \"http://127.0.0.1:8000\",\n  \"verbose\": false\n}\n```\n\n...or YAML\n\n```yaml\n---\ntoken: \"abcde12345\"\nurl: \"http://127.0.0.1:8000\"\nverbose: false\n```\n\nThen, the linkding file can be provided via either `-c` or `--config`.\n\n```\n$ linkding -c ~/.config/linkding.json ...\n```\n\n### Merging Configuration Options\n\nWhen parsing configuration options, `linkding-cli` looks at the configuration sources in\nthe following order:\n\n1. Configuration File\n2. Environment Variables\n3. CLI Options\n\nThis allows you to mix and match sources – for instance, you might have \"defaults\" in\nthe configuration file and override them via environment variables.\n\n## Bookmarks\n\n```\nUsage: linkding bookmarks [OPTIONS] COMMAND [ARGS]...\n\n  Work with bookmarks.\n\nOptions:\n  --help  Show this message and exit.\n\nCommands:\n  all        Get all bookmarks.\n  archive    Archive a bookmark by its linkding ID.\n  create     Create a bookmark.\n  delete     Delete a bookmark by its linkding ID.\n  get        Get a bookmark by its linkding ID.\n  unarchive  Unarchive a bookmark by its linkding ID.\n  update     Update a bookmark by its linkding ID.\n```\n\n### The `bookmarks all` command\n\n```\nUsage: linkding bookmarks all [OPTIONS]\n\n  Get all bookmarks.\n\nOptions:\n  -a, --archived        Return archived bookmarks.\n  -l, --limit INTEGER   The number of bookmarks to return.\n  -o, --offset INTEGER  The index from which to return results.\n  -q, --query TEXT      Return bookmarks containing a query string.\n  --help                Show this message and exit.\n```\n\n#### Examples:\n\n```sh\n# Get all bookmarks, but limit the results to 10:\n$ linkding bookmarks all --limit 10\n\n# Get all archived bookmarks that contain \"software\":\n$ linkding bookmarks all --archived --query software\n```\n\n### The `bookmarks archive` command\n\n```\nUsage: linkding bookmarks archive [OPTIONS] [BOOKMARK_ID]\n\n  Archive a bookmark by its linkding ID.\n\nArguments:\n  [BOOKMARK_ID]  The ID of a bookmark to archive.\n\nOptions:\n  --help  Show this message and exit.\n```\n\n#### Examples:\n\n```sh\n# Archive bookmark 12:\n$ linkding bookmarks archive 12\n```\n\n### The `bookmarks create` command\n\n```\nUsage: linkding bookmarks create [OPTIONS] URL\n\n  Create a bookmark.\n\nArguments:\n  URL  The URL to bookmark.  [required]\n\nOptions:\n  -a, --archived                 Whether the newly-created bookmark should be\n                                 immediately archived.\n  -d, --description DESCRIPTION  The description to give the bookmark.\n  --shared                       Whether the newly-created bookmark should be\n                                 shareable with other linkding users\n  --tags TAG1,TAG2,...           The tags to apply to the bookmark.\n  -t, --title TITLE              The title to give the bookmark.\n  --unread                       Whether the newly-created bookmark should be\n                                 marked as unread.\n  --help                         Show this message and exit.\n```\n\n#### Examples:\n\n```sh\n# Create a bookmark:\n$ linkding bookmarks create https://example.com\n\n# Create a bookmark and immeditely archive it:\n$ linkding bookmarks create -a https://example.com\n\n# Create a bookmark with title, description, and tags:\n$ linkding bookmarks create https://example.com -t Example -d \"A description\" --tags tag1,tag2\n```\n\n### The `bookmarks delete` command\n\n```\nUsage: linkding bookmarks delete [OPTIONS] [BOOKMARK_ID]\n\n  Delete a bookmark by its linkding ID.\n\nArguments:\n  [BOOKMARK_ID]  The ID of a bookmark to delete.\n\nOptions:\n  --help  Show this message and exit.\n```\n\n#### Examples:\n\n```sh\n# Delete the bookmark with an ID of 12:\n$ linkding bookmarks delete 12\n```\n\n### The `bookmarks get` command\n\n```\nUsage: linkding bookmarks get [OPTIONS] [BOOKMARK_ID]\n\n  Get a bookmark by its linkding ID.\n\nArguments:\n  [BOOKMARK_ID]  The ID of a bookmark to retrieve.\n\nOptions:\n  --help  Show this message and exit.\n```\n\n#### Examples:\n\n```sh\n# Get bookmark 12:\n$ linkding bookmarks get 12\n```\n\n### The `bookmarks unarchive` command\n\n```\nUsage: linkding bookmarks unarchive [OPTIONS] [BOOKMARK_ID]\n\n  Unarchive a bookmark by its linkding ID.\n\nArguments:\n  [BOOKMARK_ID]  The ID of a bookmark to unarchive.\n\nOptions:\n  --help  Show this message and exit.\n```\n\n#### Examples:\n\n```sh\n# Unarchive bookmark 12:\n$ linkding bookmarks unarchive 12\n```\n\n### The `bookmarks update` command\n\n```\nUsage: linkding bookmarks update [OPTIONS] BOOKMARK_ID\n\n  Update a bookmark by its linkdingn ID.\n\nArguments:\n  BOOKMARK_ID  The ID of a bookmark to update.  [required]\n\nOptions:\n  -u, --url URL                  The URL to assign to the bookmark.\n  -d, --description DESCRIPTION  The description to give the bookmark.\n  --shared                       Whether the -created bookmark should be\n                                 shareable with other linkding users\n  --tags TAG1,TAG2,...           The tags to apply to the bookmark.\n  -t, --title TITLE              The title to give the bookmark.\n  --unread                       Whether the bookmark should be marked as\n                                 unread.\n  --help                         Show this message and exit.\n```\n\n#### Examples:\n\n```sh\n# Update a bookmark with a new url:\n$ linkding bookmarks update 12 -u https://example.com\n\n# Update a bookmark with title, description, and tags:\n$ linkding bookmarks update 12 -t Example -d \"A description\" --tags tag1,tag2\n```\n\n## Tags\n\n```\nUsage: linkding tags [OPTIONS] COMMAND [ARGS]...\n\n  Work with tags.\n\nOptions:\n  --help  Show this message and exit.\n\nCommands:\n  all     Get all tags.\n  create  Create a tag.\n  get     Get a tag by its linkding ID.\n```\n\n### The `tags all` command\n\n```\nUsage: linkding tags all [OPTIONS]\n\n  Get all tags.\n\nOptions:\n  -l, --limit INTEGER   The number of tags to return.\n  -o, --offset INTEGER  The index from which to return results.\n  --help                Show this message and exit.\n```\n\n#### Examples:\n\n```sh\n# Get all tags, but limit the results to 10:\n$ linkding tags all --limit 10\n```\n\n### The `tags create` command\n\n```\nUsage: linkding tags create [OPTIONS] TAG_NAME\n\n  Create a tag.\n\nArguments:\n  TAG_NAME  The tag to create.  [required]\n\nOptions:\n  --help  Show this message and exit.\n```\n\n#### Examples:\n\n```sh\n# Create a tag:\n$ linkding tags create sample-tag\n```\n\n### The `tags get` command\n\n```\nUsage: linkding tags get [OPTIONS] TAG_ID\n\n  Get a tag by its linkding ID.\n\nArguments:\n  TAG_ID  The ID of a tag to retrieve.  [required]\n\nOptions:\n  --help  Show this message and exit.\n```\n\n#### Examples:\n\n```sh\n# Get tag 12:\n$ linkding tags get 12\n```\n\n## Misc.\n\n### Parsing and Pretty Printing Data\n\n`linkding-cli` doesn't have built-in utilities for modifying JSON output in any way.\nInstead, it's recommended to use a tool like [`jq`](https://stedolan.github.io/jq/).\nThis allows for multiple new outcomes, like pretty-printing:\n\n```\n$ linkding bookmarks all | jq\n{\n  \"count\": 123,\n  \"next\": \"http://127.0.0.1:8000/api/bookmarks/?limit=100&offset=100\",\n  \"previous\": null,\n  \"results\": [\n    {\n      \"id\": 1,\n      \"url\": \"https://example.com\",\n      \"title\": \"Example title\",\n      \"description\": \"Example description\",\n      \"website_title\": \"Website title\",\n      \"website_description\": \"Website description\",\n      \"tag_names\": [\n        \"tag1\",\n        \"tag2\"\n      ],\n      \"date_added\": \"2020-09-26T09:46:23.006313Z\",\n      \"date_modified\": \"2020-09-26T16:01:14.275335Z\"\n    }\n  ]\n}\n```\n\n...and slicing/parsing data:\n\n```\n$ linkding bookmarks all | jq '.results[0].title'\n\"Example title\"\n```\n\n# Contributing\n\n1. [Check for open features/bugs](https://github.com/bachya/linkding-cli/issues)\n   or [initiate a discussion on one](https://github.com/bachya/linkding-cli/issues/new).\n2. [Fork the repository](https://github.com/bachya/linkding-cli/fork).\n3. (_optional, but highly recommended_) Create a virtual environment: `python3 -m venv .venv`\n4. (_optional, but highly recommended_) Enter the virtual environment: `source ./.venv/bin/activate`\n5. Install the dev environment: `script/setup`\n6. Code your new feature or bug fix.\n7. Write tests that cover your new functionality.\n8. Run tests and ensure 100% code coverage: `nox -rs coverage`\n9. Update `README.md` with any new documentation.\n10. Add yourself to `AUTHORS.md`.\n11. Submit a pull request!\n",
    "description_content_type": "text/markdown",
    "docs_url": null,
    "download_url": "",
    "downloads": {
      "last_day": -1,
      "last_month": -1,
      "last_week": -1
    },
    "home_page": "https://github.com/bachya/linkding-cli",
    "keywords": "",
    "license": "MIT",
    "maintainer": "",
    "maintainer_email": "",
    "name": "linkding-cli",
    "package_url": "https://pypi.org/project/linkding-cli/",
    "platform": null,
    "project_url": "https://pypi.org/project/linkding-cli/",
    "project_urls": {
      "Bug Tracker": "https://github.com/bachya/linkding_cli/issues",
      "Changelog": "https://github.com/bachya/linkding_cli/releases",
      "Homepage": "https://github.com/bachya/linkding-cli",
      "Repository": "https://github.com/bachya/linkding-cli"
    },
    "release_url": "https://pypi.org/project/linkding-cli/2022.11.0/",
    "requires_dist": [
      "ruamel.yaml (>=0.17.21,<0.18.0)",
      "aiolinkding (>=2022.10.0)",
      "typer[all] (>=0.6,<0.8)"
    ],
    "requires_python": ">=3.9.0,<4.0.0",
    "summary": "A CLI to interact with a linkding instance",
    "version": "2022.11.0",
    "yanked": false,
    "yanked_reason": null
  },
  "last_serial": 15881497,
  "releases": {
    "0.0.1": [
      {
        "comment_text": "",
        "digests": {
          "blake2b_256": "e5ca20f4f88b5c6a68b862803ca44b8de445eef775dce13c6f4378545c38d96d",
          "md5": "d3d4591f9bf3cb62e609831f9482b960",
          "sha256": "8cf634fe6770d2c7a1c7559ecb7730c18fd2a245e240c52492a76a578cf04d3d"
        },
        "downloads": -1,
        "filename": "linkding_cli-0.0.1-py3-none-any.whl",
        "has_sig": false,
        "md5_digest": "d3d4591f9bf3cb62e609831f9482b960",
        "packagetype": "bdist_wheel",
        "python_version": "py3",
        "requires_python": ">=3.8.0,<4.0.0",
        "size": 4978,
        "upload_time": "2022-05-19T02:35:40",
        "upload_time_iso_8601": "2022-05-19T02:35:40.613080Z",
        "url": "https://files.pythonhosted.org/packages/e5/ca/20f4f88b5c6a68b862803ca44b8de445eef775dce13c6f4378545c38d96d/linkding_cli-0.0.1-py3-none-any.whl",
        "yanked": false,
        "yanked_reason": null
      },
      {
        "comment_text": "",
        "digests": {
          "blake2b_256": "1a93b267d2328b7ae7c33a0016d565576587e5c2aa44c84883d512c15b562808",
          "md5": "0d3edc47f5d979cc7413c4864b9c985a",
          "sha256": "8d00dafd8e2e94e6986d9c0eec187a2408e53d218e6dd6fcd3b18cc51082044f"
        },
        "downloads": -1,
        "filename": "linkding_cli-0.0.1.tar.gz",
        "has_sig": false,
        "md5_digest": "0d3edc47f5d979cc7413c4864b9c985a",
        "packagetype": "sdist",
        "python_version": "source",
        "requires_python": ">=3.8.0,<4.0.0",
        "size": 4627,
        "upload_time": "2022-05-19T02:35:42",
        "upload_time_iso_8601": "2022-05-19T02:35:42.780889Z",
        "url": "https://files.pythonhosted.org/packages/1a/93/b267d2328b7ae7c33a0016d565576587e5c2aa44c84883d512c15b562808/linkding_cli-0.0.1.tar.gz",
        "yanked": false,
        "yanked_reason": null
      }
    ],
    "2022.10.0": [
      {
        "comment_text": "",
        "digests": {
          "blake2b_256": "786c88d2db6dfd5de41f4196c0e1948b69be8dfb00f063edcc698e4d9952026b",
          "md5": "a543c56192456a4f456cd2d591d3b9a5",
          "sha256": "a40c8dde282a0869eee9e08286a9b220c81d0ca91b6abe8a65d10fb661f92e85"
        },
        "downloads": -1,
        "filename": "linkding_cli-2022.10.0-py3-none-any.whl",
        "has_sig": false,
        "md5_digest": "a543c56192456a4f456cd2d591d3b9a5",
        "packagetype": "bdist_wheel",
        "python_version": "py3",
        "requires_python": ">=3.9.0,<4.0.0",
        "size": 13328,
        "upload_time": "2022-10-30T21:52:49",
        "upload_time_iso_8601": "2022-10-30T21:52:49.238347Z",
        "url": "https://files.pythonhosted.org/packages/78/6c/88d2db6dfd5de41f4196c0e1948b69be8dfb00f063edcc698e4d9952026b/linkding_cli-2022.10.0-py3-none-any.whl",
        "yanked": false,
        "yanked_reason": null
      },
      {
        "comment_text": "",
        "digests": {
          "blake2b_256": "2240d887da92ec71904cc69da05181a139e6d73dbbd653a30f85e93ef649e94f",
          "md5": "1bd4444e7659e50b71b25a406f0f2429",
          "sha256": "a260a7cf4b02e6293115f85b71f2aa284a3a218f85d233b04a70f922235c034f"
        },
        "downloads": -1,
        "filename": "linkding_cli-2022.10.0.tar.gz",
        "has_sig": false,
        "md5_digest": "1bd4444e7659e50b71b25a406f0f2429",
        "packagetype": "sdist",
        "python_version": "source",
        "requires_python": ">=3.9.0,<4.0.0",
        "size": 14752,
        "upload_time": "2022-10-30T21:52:50",
        "upload_time_iso_8601": "2022-10-30T21:52:50.371412Z",
        "url": "https://files.pythonhosted.org/packages/22/40/d887da92ec71904cc69da05181a139e6d73dbbd653a30f85e93ef649e94f/linkding_cli-2022.10.0.tar.gz",
        "yanked": false,
        "yanked_reason": null
      }
    ],
    "2022.11.0": [
      {
        "comment_text": "",
        "digests": {
          "blake2b_256": "57472ae96f92be7a3ad9329dfb29ef3dddfda591f3f05cce7c22c586ab58e03c",
          "md5": "5f1d6c4661b6ecf58a0aede124e625e8",
          "sha256": "8517ae618d5b120066640864fc5351842c447852a83dd26528b1b04dff916d85"
        },
        "downloads": -1,
        "filename": "linkding_cli-2022.11.0-py3-none-any.whl",
        "has_sig": false,
        "md5_digest": "5f1d6c4661b6ecf58a0aede124e625e8",
        "packagetype": "bdist_wheel",
        "python_version": "py3",
        "requires_python": ">=3.9.0,<4.0.0",
        "size": 13334,
        "upload_time": "2022-11-24T17:17:58",
        "upload_time_iso_8601": "2022-11-24T17:17:58.321951Z",
        "url": "https://files.pythonhosted.org/packages/57/47/2ae96f92be7a3ad9329dfb29ef3dddfda591f3f05cce7c22c586ab58e03c/linkding_cli-2022.11.0-py3-none-any.whl",
        "yanked": false,
        "yanked_reason": null
      },
      {
        "comment_text": "",
        "digests": {
          "blake2b_256": "17b5beb10bb84324edf496f3cc3cb054ac84e598ad8641b29c07685f07e4fd41",
          "md5": "20914db944edb8a160e6311a9314d9d6",
          "sha256": "406296c7eea9b040e98f193c72303198ed58e14649bb1c7f811bfdca818a9267"
        },
        "downloads": -1,
        "filename": "linkding_cli-2022.11.0.tar.gz",
        "has_sig": false,
        "md5_digest": "20914db944edb8a160e6311a9314d9d6",
        "packagetype": "sdist",
        "python_version": "source",
        "requires_python": ">=3.9.0,<4.0.0",
        "size": 14763,
        "upload_time": "2022-11-24T17:17:59",
        "upload_time_iso_8601": "2022-11-24T17:17:59.849911Z",
        "url": "https://files.pythonhosted.org/packages/17/b5/beb10bb84324edf496f3cc3cb054ac84e598ad8641b29c07685f07e4fd41/linkding_cli-2022.11.0.tar.gz",
        "yanked": false,
        "yanked_reason": null
      }
    ],
    "2022.5.0": [
      {
        "comment_text": "",
        "digests": {
          "blake2b_256": "e826486ed3402da029f6c026aeb8a71e39aa4dae31b91fcfc53053778cb3b6e0",
          "md5": "70a0b92bbfbdade6deccf04f35b1a61a",
          "sha256": "fe51e3285e37bd8a46260bca62158d0709429250c21bbe544c6ca97132dff2ed"
        },
        "downloads": -1,
        "filename": "linkding_cli-2022.5.0-py3-none-any.whl",
        "has_sig": false,
        "md5_digest": "70a0b92bbfbdade6deccf04f35b1a61a",
        "packagetype": "bdist_wheel",
        "python_version": "py3",
        "requires_python": ">=3.8.0,<4.0.0",
        "size": 12222,
        "upload_time": "2022-05-24T22:06:13",
        "upload_time_iso_8601": "2022-05-24T22:06:13.686516Z",
        "url": "https://files.pythonhosted.org/packages/e8/26/486ed3402da029f6c026aeb8a71e39aa4dae31b91fcfc53053778cb3b6e0/linkding_cli-2022.5.0-py3-none-any.whl",
        "yanked": false,
        "yanked_reason": null
      },
      {
        "comment_text": "",
        "digests": {
          "blake2b_256": "ceaecb4a354120edc3b1c85adc456e30b8fe389dba047885e46154aa3dfeb07f",
          "md5": "0a92a3bed4d006ef54a37af4e04e0d96",
          "sha256": "1bc0d545a215fd76991c996f4115902a982dfdbbeb384c67d266c3a5140fd4c1"
        },
        "downloads": -1,
        "filename": "linkding_cli-2022.5.0.tar.gz",
        "has_sig": false,
        "md5_digest": "0a92a3bed4d006ef54a37af4e04e0d96",
        "packagetype": "sdist",
        "python_version": "source",
        "requires_python": ">=3.8.0,<4.0.0",
        "size": 13385,
        "upload_time": "2022-05-24T22:06:14",
        "upload_time_iso_8601": "2022-05-24T22:06:14.872952Z",
        "url": "https://files.pythonhosted.org/packages/ce/ae/cb4a354120edc3b1c85adc456e30b8fe389dba047885e46154aa3dfeb07f/linkding_cli-2022.5.0.tar.gz",
        "yanked": false,
        "yanked_reason": null
      }
    ],
    "2022.5.1": [
      {
        "comment_text": "",
        "digests": {
          "blake2b_256": "ea61817ca5c3edd23755a2456df819799e36545034fa53c10b2fa7f7c54356b0",
          "md5": "867fff55610c6cb47ca08f1ed13081e8",
          "sha256": "3fc96b81c14a1ef59d0c68f8eb6fc6ba8b6401f0eba712202d74a004bc7598db"
        },
        "downloads": -1,
        "filename": "linkding_cli-2022.5.1-py3-none-any.whl",
        "has_sig": false,
        "md5_digest": "867fff55610c6cb47ca08f1ed13081e8",
        "packagetype": "bdist_wheel",
        "python_version": "py3",
        "requires_python": ">=3.8.0,<4.0.0",
        "size": 12234,
        "upload_time": "2022-05-26T18:32:47",
        "upload_time_iso_8601": "2022-05-26T18:32:47.697584Z",
        "url": "https://files.pythonhosted.org/packages/ea/61/817ca5c3edd23755a2456df819799e36545034fa53c10b2fa7f7c54356b0/linkding_cli-2022.5.1-py3-none-any.whl",
        "yanked": false,
        "yanked_reason": null
      },
      {
        "comment_text": "",
        "digests": {
          "blake2b_256": "b28432f40fbe51d30265885317502f22e845c79629aea449251367bac0f7ab94",
          "md5": "7acf6edc3426aa701d04c778bf616aa9",
          "sha256": "b7bc9abcb97064d917745376e48dddd0c77265f04925557b82769bf046411f74"
        },
        "downloads": -1,
        "filename": "linkding_cli-2022.5.1.tar.gz",
        "has_sig": false,
        "md5_digest": "7acf6edc3426aa701d04c778bf616aa9",
        "packagetype": "sdist",
        "python_version": "source",
        "requires_python": ">=3.8.0,<4.0.0",
        "size": 13434,
        "upload_time": "2022-05-26T18:32:49",
        "upload_time_iso_8601": "2022-05-26T18:32:49.292721Z",
        "url": "https://files.pythonhosted.org/packages/b2/84/32f40fbe51d30265885317502f22e845c79629aea449251367bac0f7ab94/linkding_cli-2022.5.1.tar.gz",
        "yanked": false,
        "yanked_reason": null
      }
    ],
    "2022.7.0": [
      {
        "comment_text": "",
        "digests": {
          "blake2b_256": "1569d83ae4d6587f272ef7aa73495e957713eaed9c07bbc9c190dfcea745136c",
          "md5": "33ecaba2a56b9ea485f9f1edcbf39952",
          "sha256": "71e375f79bc7c28e9ecc99947aaa9250b654264deae23e87e62f1bec422cd678"
        },
        "downloads": -1,
        "filename": "linkding_cli-2022.7.0-py3-none-any.whl",
        "has_sig": false,
        "md5_digest": "33ecaba2a56b9ea485f9f1edcbf39952",
        "packagetype": "bdist_wheel",
        "python_version": "py3",
        "requires_python": ">=3.8.0,<4.0.0",
        "size": 12516,
        "upload_time": "2022-07-25T18:25:03",
        "upload_time_iso_8601": "2022-07-25T18:25:03.062039Z",
        "url": "https://files.pythonhosted.org/packages/15/69/d83ae4d6587f272ef7aa73495e957713eaed9c07bbc9c190dfcea745136c/linkding_cli-2022.7.0-py3-none-any.whl",
        "yanked": false,
        "yanked_reason": null
      },
      {
        "comment_text": "",
        "digests": {
          "blake2b_256": "9eac4c1eae5e1088ab7b03e5fc4a047230ec03092be3b593d22c1954171eae6c",
          "md5": "4c358e99e149423f4f9384912419953e",
          "sha256": "d2fadb1a77a7f777f175ced54e8e409799566242ed6e0bbf26e8f7e22a899157"
        },
        "downloads": -1,
        "filename": "linkding_cli-2022.7.0.tar.gz",
        "has_sig": false,
        "md5_digest": "4c358e99e149423f4f9384912419953e",
        "packagetype": "sdist",
        "python_version": "source",
        "requires_python": ">=3.8.0,<4.0.0",
        "size": 13831,
        "upload_time": "2022-07-25T18:25:04",
        "upload_time_iso_8601": "2022-07-25T18:25:04.582577Z",
        "url": "https://files.pythonhosted.org/packages/9e/ac/4c1eae5e1088ab7b03e5fc4a047230ec03092be3b593d22c1954171eae6c/linkding_cli-2022.7.0.tar.gz",
        "yanked": false,
        "yanked_reason": null
      }
    ],
    "2022.8.0": [
      {
        "comment_text": "",
        "digests": {
          "blake2b_256": "a4f3cb070099a7ef8f693b305a04adf32dd561e49ed42b2b5f1f9b666bf4daa0",
          "md5": "24202e8d11f744f6ef75e7fa1c4075af",
          "sha256": "172b539a2c1745e226d79fe6c411a6c86c23249b147a8553ec5afa83fc9eec9e"
        },
        "downloads": -1,
        "filename": "linkding_cli-2022.8.0-py3-none-any.whl",
        "has_sig": false,
        "md5_digest": "24202e8d11f744f6ef75e7fa1c4075af",
        "packagetype": "bdist_wheel",
        "python_version": "py3",
        "requires_python": ">=3.8.0,<4.0.0",
        "size": 12612,
        "upload_time": "2022-08-04T23:47:47",
        "upload_time_iso_8601": "2022-08-04T23:47:47.074956Z",
        "url": "https://files.pythonhosted.org/packages/a4/f3/cb070099a7ef8f693b305a04adf32dd561e49ed42b2b5f1f9b666bf4daa0/linkding_cli-2022.8.0-py3-none-any.whl",
        "yanked": false,
        "yanked_reason": null
      },
      {
        "comment_text": "",
        "digests": {
          "blake2b_256": "b9c0b45b1763486c277ab131686a58869bfbdd4fb0dd6c940aa73078a69e61ea",
          "md5": "825329048b9d0408525c41539d3692bd",
          "sha256": "c3580dda653a6a24a4691ac76f7455d49846a3964b97d52a836f5256af1b231f"
        },
        "downloads": -1,
        "filename": "linkding_cli-2022.8.0.tar.gz",
        "has_sig": false,
        "md5_digest": "825329048b9d0408525c41539d3692bd",
        "packagetype": "sdist",
        "python_version": "source",
        "requires_python": ">=3.8.0,<4.0.0",
        "size": 13938,
        "upload_time": "2022-08-04T23:47:48",
        "upload_time_iso_8601": "2022-08-04T23:47:48.990689Z",
        "url": "https://files.pythonhosted.org/packages/b9/c0/b45b1763486c277ab131686a58869bfbdd4fb0dd6c940aa73078a69e61ea/linkding_cli-2022.8.0.tar.gz",
        "yanked": false,
        "yanked_reason": null
      }
    ]
  },
  "urls": [
    {
      "comment_text": "",
      "digests": {
        "blake2b_256": "57472ae96f92be7a3ad9329dfb29ef3dddfda591f3f05cce7c22c586ab58e03c",
        "md5": "5f1d6c4661b6ecf58a0aede124e625e8",
        "sha256": "8517ae618d5b120066640864fc5351842c447852a83dd26528b1b04dff916d85"
      },
      "downloads": -1,
      "filename": "linkding_cli-2022.11.0-py3-none-any.whl",
      "has_sig": false,
      "md5_digest": "5f1d6c4661b6ecf58a0aede124e625e8",
      "packagetype": "bdist_wheel",
      "python_version": "py3",
      "requires_python": ">=3.9.0,<4.0.0",
      "size": 13334,
      "upload_time": "2022-11-24T17:17:58",
      "upload_time_iso_8601": "2022-11-24T17:17:58.321951Z",
      "url": "https://files.pythonhosted.org/packages/57/47/2ae96f92be7a3ad9329dfb29ef3dddfda591f3f05cce7c22c586ab58e03c/linkding_cli-2022.11.0-py3-none-any.whl",
      "yanked": false,
      "yanked_reason": null
    },
    {
      "comment_text": "",
      "digests": {
        "blake2b_256": "17b5beb10bb84324edf496f3cc3cb054ac84e598ad8641b29c07685f07e4fd41",
        "md5": "20914db944edb8a160e6311a9314d9d6",
        "sha256": "406296c7eea9b040e98f193c72303198ed58e14649bb1c7f811bfdca818a9267"
      },
      "downloads": -1,
      "filename": "linkding_cli-2022.11.0.tar.gz",
      "has_sig": false,
      "md5_digest": "20914db944edb8a160e6311a9314d9d6",
      "packagetype": "sdist",
      "python_version": "source",
      "requires_python": ">=3.9.0,<4.0.0",
      "size": 14763,
      "upload_time": "2022-11-24T17:17:59",
      "upload_time_iso_8601": "2022-11-24T17:17:59.849911Z",
      "url": "https://files.pythonhosted.org/packages/17/b5/beb10bb84324edf496f3cc3cb054ac84e598ad8641b29c07685f07e4fd41/linkding_cli-2022.11.0.tar.gz",
      "yanked": false,
      "yanked_reason": null
    }
  ],
  "vulnerabilities": []
}