{
  "info": {
    "author": "Emmanuel Okwudike",
    "author_email": "okwudike.emmanuel@gmail.com",
    "bugtrack_url": null,
    "classifiers": [
      "License :: OSI Approved :: MIT License",
      "Operating System :: OS Independent",
      "Programming Language :: Python :: 3"
    ],
    "description": "## MonoPY\n\n[Unofficial] python wrapper for making requests to the [Mono](https://mono.co/) API and a webhook implementation.\n\nGithub Link: [monopy](https://github.com/iameo/monopy)\n\n### Features\n- Account endpoints [transaction log, statament (json or pdf format)]\n- User endpoints [transaction, income and identity]\n- Unlink Account\n- Misc.\n\n\n\n### How to Get Started\n\nYou would need to get your mono secret key [here](https://mono.co), and then move to acquire an account ID via the many Mono Connect options.\n\n### Installation & Usage Guide\n```\npip install monopy\n```\n\n#### SET YOUR KEYS IN YOUR ENVIRONMENT\n\nOpen up your CMD (replace ```set``` with ```export``` if you are on MAC/LINUX)\n\n```cmd\nset TEST_MONO_SEC_KEY=test_sk_xxxxxxxxxxxxxx\nset acc_ID=xxxxxxxxxxxxxxxxx\n```\n\n#### #Making Requests\n\n\n```python\nfrom mono.api import Account, UserMono, Misc, DirectPay\n```\n\n### User Client\n\n```python\nmono_user = UserMono(mono_sec_key='xxxxxxxxxxxxxxxx')\n\n\n# Get Transaction logs\nmono_user.transaction(id='xxxxxxxxxxx')\n```\n##### A successful response (status code: 200), otherwise {} (status code: 400)\n\n```json\n{\n  \"paging\": {\n    \"total\": 190,\n    \"page\": 2,\n    \"previous\": \"https://api.withmono.com/accounts/:id/transactions?page=2\",\n    \"next\": \"https://api.withmono.com/accounts/:id/transactions?page=3\",\n  },\n  \"data\": [\n    {\n      \"_id\": \"xxxxxxxxxxxxxxxxxxxx\",\n      \"amount\": 10000,\n      \"date\": \"2020-07-21T00:00:00.000Z\",\n      \"narration\": \"TRANSFER from Emmanuel to Fred\",\n      \"type\": \"debit\",\n      \"category\": \"E-CHANNELS\",\n    },\n    ...,\n  ]\n}\n```\n\n##### Get income\n\n```python\nmono_user.income(id='xxxxxxxxxxxx')\n```\n\n\n\n### Account\n\n```python\npy_acc = Account(mono_sec_key='xxxxxxxxxxxxxxxx')\n\n# this represents the account details with the financial institution.\npy_acc.information(id='xxxxxxxxxx')\n```\n\n##### A successful response (status code: 200), otherwise {} (status code: 400)\n\n```json\n{\n    \"meta\": {\n        \"data_status\": \"AVAILABLE\", \n        \"auth_method\": \"mobile_banking\" \n    },\n    \"account\": {\n        \"_id\": \"5feec8ce95e8dc6axxxxxx\",\n        \"institution\": {\n            \"name\": \"GTBank\",\n            \"bankCode\": \"058\",\n            \"type\": \"PERSONAL_BANKING\"\n        },....}\n}\n```\n\n### Misc\n\n#### Get all institutions currently available on Mono\n\n```python\nmisc = Misc(mono_sec_key='xxxxxxxxxxxxxxx)\n\n\nmisc.institutions()\n```\n\n#### A successful reponse is as follow (truncated here)\n\n\n```python\n[\n    {'name': 'Brass', 'icon': 'https://mono-public-bucket.s3.eu-west-2.amazonaws.com/images/brass_logo.jpeg', 'coverage': {'countries': ['NG'], 'business': True, 'personal': False}, 'products': ['Auth', 'Accounts', 'Transactions', 'Balance', 'Income', 'Identity'], 'website': None}, {'name': 'Ecobank', 'icon': 'https://mono-public-bucket.s3.eu-west-2.amazonaws.com/images/ecobank-icon.png', 'coverage': {'countries': ['NG'], 'business': False, 'personal': True}, 'products': ['Auth', 'Accounts', 'Transactions', 'Balance', 'Income', 'Identity'], 'website': None},\n    .....\n    {'name': 'Cowrywise', 'icon': 'https://mono-public-bucket.s3.eu-west-2.amazonaws.com/images/cowrywise-icon.png', 'coverage': {'countries': ['NG'], 'business': False, 'personal': True}, 'products': ['Auth', 'Accounts', 'Transactions', 'Balance', 'Income', 'Identity'], 'website': 'https://cowrywise.com'},\n    {'name': 'Polaris Bank', 'icon': 'https://mono-public-bucket.s3.eu-west-2.amazonaws.com/images/polaris-bank-icon.png', 'coverage': {'countries': ['NG'], 'business': False, 'personal': True}, 'products': ['Auth', 'Accounts', 'Transactions', 'Balance', 'Income', 'Identity'], 'website': 'https://www.polarisbanklimited.com'}\n]\n```\n\n\n### Contribution\n\nKindly adhere to the following rules:\n- fork the repo\n- make your changes on a descriptive branch name\n- ....and make a pull request ONLY when your tests pass.\n\n\n#### Author\n- [Emmanuel Okwudike](https://twitter.com/__iameo__)\n\n\n\n\n\n",
    "description_content_type": "text/markdown",
    "docs_url": null,
    "download_url": "",
    "downloads": {
      "last_day": -1,
      "last_month": -1,
      "last_week": -1
    },
    "home_page": "https://github.com/iameo/monopy",
    "keywords": "monopy pywrapper fintech api monong",
    "license": "MIT",
    "maintainer": "",
    "maintainer_email": "",
    "name": "monopy",
    "package_url": "https://pypi.org/project/monopy/",
    "platform": "",
    "project_url": "https://pypi.org/project/monopy/",
    "project_urls": {
      "Bug Tracker": "https://github.com/iameo/monopy/issues",
      "Homepage": "https://github.com/iameo/monopy"
    },
    "release_url": "https://pypi.org/project/monopy/1.0.3/",
    "requires_dist": [
      "requests"
    ],
    "requires_python": ">=3.6",
    "summary": "a python wrapper for the Mono API",
    "version": "1.0.3",
    "yanked": false,
    "yanked_reason": null
  },
  "last_serial": 12484565,
  "releases": {
    "1.0.0": [
      {
        "comment_text": "",
        "digests": {
          "blake2b_256": "f6ca93adc743083e26ea8d03e2ee0273ba9fed4b045e77f5e5f3e8767c3edc03",
          "md5": "2951a199c7335ae5318b46398effd9f9",
          "sha256": "01337673c87525dde8a295b01b2622f6bc086f5d270161c3a7a0c94363968092"
        },
        "downloads": -1,
        "filename": "monopy-1.0.0-py3-none-any.whl",
        "has_sig": false,
        "md5_digest": "2951a199c7335ae5318b46398effd9f9",
        "packagetype": "bdist_wheel",
        "python_version": "py3",
        "requires_python": ">=3.6",
        "size": 8812,
        "upload_time": "2021-08-20T14:24:02",
        "upload_time_iso_8601": "2021-08-20T14:24:02.278780Z",
        "url": "https://files.pythonhosted.org/packages/f6/ca/93adc743083e26ea8d03e2ee0273ba9fed4b045e77f5e5f3e8767c3edc03/monopy-1.0.0-py3-none-any.whl",
        "yanked": false,
        "yanked_reason": null
      },
      {
        "comment_text": "",
        "digests": {
          "blake2b_256": "b8e1199a8f67901f3fdfcb9559d69385a10d369e4eca9fc042a8ff699e47e108",
          "md5": "8ab40c3ed5a3791467aaa0e274e5c1a3",
          "sha256": "7512b2c68c93f37e0a09df2115ca35e256631e1f8589104b0d21c2c7a858c3c6"
        },
        "downloads": -1,
        "filename": "monopy-1.0.0.tar.gz",
        "has_sig": false,
        "md5_digest": "8ab40c3ed5a3791467aaa0e274e5c1a3",
        "packagetype": "sdist",
        "python_version": "source",
        "requires_python": ">=3.6",
        "size": 6645,
        "upload_time": "2021-08-20T14:24:04",
        "upload_time_iso_8601": "2021-08-20T14:24:04.215575Z",
        "url": "https://files.pythonhosted.org/packages/b8/e1/199a8f67901f3fdfcb9559d69385a10d369e4eca9fc042a8ff699e47e108/monopy-1.0.0.tar.gz",
        "yanked": false,
        "yanked_reason": null
      }
    ],
    "1.0.1": [
      {
        "comment_text": "",
        "digests": {
          "blake2b_256": "5ae3d74a5ebadc629358433672c14d34a212ccf1c4383080f1f2f26a7d528b7b",
          "md5": "22fea1af75b989a4a73ae6ad32c20354",
          "sha256": "cd66151f2d4b826dff00aaeaafe9d261b4a835764052c1ebdf14be798a1b0737"
        },
        "downloads": -1,
        "filename": "monopy-1.0.1-py3-none-any.whl",
        "has_sig": false,
        "md5_digest": "22fea1af75b989a4a73ae6ad32c20354",
        "packagetype": "bdist_wheel",
        "python_version": "py3",
        "requires_python": ">=3.6",
        "size": 12294,
        "upload_time": "2021-12-23T22:21:56",
        "upload_time_iso_8601": "2021-12-23T22:21:56.988619Z",
        "url": "https://files.pythonhosted.org/packages/5a/e3/d74a5ebadc629358433672c14d34a212ccf1c4383080f1f2f26a7d528b7b/monopy-1.0.1-py3-none-any.whl",
        "yanked": false,
        "yanked_reason": null
      },
      {
        "comment_text": "",
        "digests": {
          "blake2b_256": "6472b87f48b4a9224eb2e22eef6e5b09b095851458a82e3316772e34826284e1",
          "md5": "3a380002fe99cd2d4ac8d46297a37a90",
          "sha256": "2a937d3ceb294b969fa1f0c2d8554412dea3a8a9bfe811a33b6c034ef9c729a2"
        },
        "downloads": -1,
        "filename": "monopy-1.0.1.tar.gz",
        "has_sig": false,
        "md5_digest": "3a380002fe99cd2d4ac8d46297a37a90",
        "packagetype": "sdist",
        "python_version": "source",
        "requires_python": ">=3.6",
        "size": 10016,
        "upload_time": "2021-12-23T22:21:58",
        "upload_time_iso_8601": "2021-12-23T22:21:58.928978Z",
        "url": "https://files.pythonhosted.org/packages/64/72/b87f48b4a9224eb2e22eef6e5b09b095851458a82e3316772e34826284e1/monopy-1.0.1.tar.gz",
        "yanked": false,
        "yanked_reason": null
      }
    ],
    "1.0.2": [
      {
        "comment_text": "",
        "digests": {
          "blake2b_256": "62eb4d93e514629c2759ee3fc5be7f8ea1c5ca83b4d481faf18d6bd210578362",
          "md5": "5b8ecb9b5a0c9507847b74292f5942a8",
          "sha256": "ff075a21210cc1e6b1e9a4eb2fc7081c79aaae1ae5a35d36fa22134c90c1c3ae"
        },
        "downloads": -1,
        "filename": "monopy-1.0.2-py3-none-any.whl",
        "has_sig": false,
        "md5_digest": "5b8ecb9b5a0c9507847b74292f5942a8",
        "packagetype": "bdist_wheel",
        "python_version": "py3",
        "requires_python": ">=3.6",
        "size": 12325,
        "upload_time": "2021-12-23T22:36:50",
        "upload_time_iso_8601": "2021-12-23T22:36:50.809777Z",
        "url": "https://files.pythonhosted.org/packages/62/eb/4d93e514629c2759ee3fc5be7f8ea1c5ca83b4d481faf18d6bd210578362/monopy-1.0.2-py3-none-any.whl",
        "yanked": false,
        "yanked_reason": null
      },
      {
        "comment_text": "",
        "digests": {
          "blake2b_256": "bc8ca43c408f35cd056fc52d0d8f85fdfbcf38c1e4f59c0f4875831fc9f0269e",
          "md5": "4cb0f8a637a7f7188939a2eac753fd6e",
          "sha256": "184df6d898c91bf4fdfd78f8fc4f7215998f91684a098b91d799af641087fe51"
        },
        "downloads": -1,
        "filename": "monopy-1.0.2.tar.gz",
        "has_sig": false,
        "md5_digest": "4cb0f8a637a7f7188939a2eac753fd6e",
        "packagetype": "sdist",
        "python_version": "source",
        "requires_python": ">=3.6",
        "size": 10030,
        "upload_time": "2021-12-23T22:36:52",
        "upload_time_iso_8601": "2021-12-23T22:36:52.944022Z",
        "url": "https://files.pythonhosted.org/packages/bc/8c/a43c408f35cd056fc52d0d8f85fdfbcf38c1e4f59c0f4875831fc9f0269e/monopy-1.0.2.tar.gz",
        "yanked": false,
        "yanked_reason": null
      }
    ],
    "1.0.3": [
      {
        "comment_text": "",
        "digests": {
          "blake2b_256": "f90482e2fccb9f3115e31192d00d3c2d6a3a86c0e30f7e3e8ecf353d21e0f402",
          "md5": "fa236a631c87409a07d431a65da2f253",
          "sha256": "a60a8bcb48d8a45bb8c5545e720031e106c84b7b26f7c6aecb29e395160cfa83"
        },
        "downloads": -1,
        "filename": "monopy-1.0.3-py3-none-any.whl",
        "has_sig": false,
        "md5_digest": "fa236a631c87409a07d431a65da2f253",
        "packagetype": "bdist_wheel",
        "python_version": "py3",
        "requires_python": ">=3.6",
        "size": 12340,
        "upload_time": "2022-01-05T14:44:28",
        "upload_time_iso_8601": "2022-01-05T14:44:28.834221Z",
        "url": "https://files.pythonhosted.org/packages/f9/04/82e2fccb9f3115e31192d00d3c2d6a3a86c0e30f7e3e8ecf353d21e0f402/monopy-1.0.3-py3-none-any.whl",
        "yanked": false,
        "yanked_reason": null
      },
      {
        "comment_text": "",
        "digests": {
          "blake2b_256": "a0e086f7c14a8f02840f95e14980d1d8d65252341a5abf1c08c73050e6997e59",
          "md5": "2e3d36e8ed82d49bd1586f99b338b023",
          "sha256": "bd2ac6c88e56b978dedd3c9c76b6a316cdf8676ae063a8f6cc8b04022348f9ac"
        },
        "downloads": -1,
        "filename": "monopy-1.0.3.tar.gz",
        "has_sig": false,
        "md5_digest": "2e3d36e8ed82d49bd1586f99b338b023",
        "packagetype": "sdist",
        "python_version": "source",
        "requires_python": ">=3.6",
        "size": 9673,
        "upload_time": "2022-01-05T14:44:30",
        "upload_time_iso_8601": "2022-01-05T14:44:30.250777Z",
        "url": "https://files.pythonhosted.org/packages/a0/e0/86f7c14a8f02840f95e14980d1d8d65252341a5abf1c08c73050e6997e59/monopy-1.0.3.tar.gz",
        "yanked": false,
        "yanked_reason": null
      }
    ]
  },
  "urls": [
    {
      "comment_text": "",
      "digests": {
        "blake2b_256": "f90482e2fccb9f3115e31192d00d3c2d6a3a86c0e30f7e3e8ecf353d21e0f402",
        "md5": "fa236a631c87409a07d431a65da2f253",
        "sha256": "a60a8bcb48d8a45bb8c5545e720031e106c84b7b26f7c6aecb29e395160cfa83"
      },
      "downloads": -1,
      "filename": "monopy-1.0.3-py3-none-any.whl",
      "has_sig": false,
      "md5_digest": "fa236a631c87409a07d431a65da2f253",
      "packagetype": "bdist_wheel",
      "python_version": "py3",
      "requires_python": ">=3.6",
      "size": 12340,
      "upload_time": "2022-01-05T14:44:28",
      "upload_time_iso_8601": "2022-01-05T14:44:28.834221Z",
      "url": "https://files.pythonhosted.org/packages/f9/04/82e2fccb9f3115e31192d00d3c2d6a3a86c0e30f7e3e8ecf353d21e0f402/monopy-1.0.3-py3-none-any.whl",
      "yanked": false,
      "yanked_reason": null
    },
    {
      "comment_text": "",
      "digests": {
        "blake2b_256": "a0e086f7c14a8f02840f95e14980d1d8d65252341a5abf1c08c73050e6997e59",
        "md5": "2e3d36e8ed82d49bd1586f99b338b023",
        "sha256": "bd2ac6c88e56b978dedd3c9c76b6a316cdf8676ae063a8f6cc8b04022348f9ac"
      },
      "downloads": -1,
      "filename": "monopy-1.0.3.tar.gz",
      "has_sig": false,
      "md5_digest": "2e3d36e8ed82d49bd1586f99b338b023",
      "packagetype": "sdist",
      "python_version": "source",
      "requires_python": ">=3.6",
      "size": 9673,
      "upload_time": "2022-01-05T14:44:30",
      "upload_time_iso_8601": "2022-01-05T14:44:30.250777Z",
      "url": "https://files.pythonhosted.org/packages/a0/e0/86f7c14a8f02840f95e14980d1d8d65252341a5abf1c08c73050e6997e59/monopy-1.0.3.tar.gz",
      "yanked": false,
      "yanked_reason": null
    }
  ],
  "vulnerabilities": []
}