{
  "info": {
    "author": "UNKNOWN",
    "author_email": "UNKNOWN",
    "bugtrack_url": null,
    "classifiers": [
      "Development Status :: 4 - Beta",
      "Environment :: Web Environment",
      "Framework :: Django",
      "Intended Audience :: Developers",
      "License :: OSI Approved :: BSD License",
      "Programming Language :: Python",
      "Programming Language :: Python :: 2.6",
      "Programming Language :: Python :: 2.7",
      "Topic :: Software Development :: Libraries :: Application Frameworks",
      "Topic :: Software Development :: Libraries :: Python Modules"
    ],
    "description": "====================================\nEmber Data and Django Rest Framework\n====================================\n\n.. image:: https://travis-ci.org/django-json-api/rest_framework_ember.svg?branch=master\n   :target: https://travis-ci.org/django-json-api/rest_framework_ember\n\nThe default Ember Data REST Adapter conventions differ from the default\nDjango Rest Framework JSON request and response format. Instead of adding\na Django specific adapter to Ember Data we use this adapter in Django to\noutput and accept JSON in the format the Ember Data REST Adapter expects.\n\nBy default, Django REST Framework will produce a response like::\n\n    {\n        \"count\": 20,\n        \"next\": \"http://example.com/api/1.0/identities/?page=2\",\n        \"previous\": null,\n        \"results\": [\n            {\n                \"id\": 1,\n                \"username\": \"john\",\n                \"full_name\": \"John Coltrane\"\n            },\n            {\n                ...\n            }\n        ]\n    }\n\n\nHowever, for an ``identity`` model in EmberJS, the Ember Data REST Adapter\nexpects a response to look like the following::\n\n    {\n        \"identity\": [\n            {\n                \"id\": 1,\n                \"username\": \"john\",\n                \"full_name\": \"John Coltrane\"\n            },\n            {\n                ...\n            }\n        ],\n        \"meta\": {\n            \"count\": 20,\n            \"next\": 2,\n            \"next_link\": \"http://example.com/api/1.0/identities/?page=2\",\n            \"page\": 1,\n            \"previous\": null,\n            \"previous_link\": null\n        }\n    }\n\n\n------------\nRequirements\n------------\n\n1. Django\n2. Django REST Framework\n\n------------\nInstallation\n------------\n\nFrom PyPI\n^^^^^^^^^\n\n::\n\n    pip install rest_framework_ember\n\n\nFrom Source\n^^^^^^^^^^^\n\n::\n\n    $ git clone https://github.com/ngenworks/rest_framework_ember.git\n    $ cd rest_framework_ember && pip install -e .\n\n\nRunning Tests\n^^^^^^^^^^^^^\n\n::\n\n    $ python runtests.py\n\n\n-----\nUsage\n-----\n\n\n``rest_framework_ember`` assumes you are using class-based views in Django\nRest Framework.\n\n\nSettings\n^^^^^^^^\n\nOne can either add ``rest_framework_ember.parsers.JSONParser`` and\n``rest_framework_ember.renderers.JSONRenderer`` to each ``ViewSet`` class, or\noverride ``settings.REST_FRAMEWORK``::\n\n\n    REST_FRAMEWORK = {\n        'PAGINATE_BY': 10,\n        'PAGINATE_BY_PARAM': 'page_size',\n        'MAX_PAGINATE_BY': 100,\n        # DRF v3.1+\n        'DEFAULT_PAGINATION_CLASS':\n            'rest_framework_ember.pagination.PageNumberPagination',\n        # older than DRF v3.1\n        'DEFAULT_PAGINATION_SERIALIZER_CLASS':\n            'rest_framework_ember.pagination.PaginationSerializer',\n        'DEFAULT_PARSER_CLASSES': (\n            'rest_framework_ember.parsers.JSONParser',\n            'rest_framework.parsers.FormParser',\n            'rest_framework.parsers.MultiPartParser'\n        ),\n        'DEFAULT_RENDERER_CLASSES': (\n            'rest_framework_ember.renderers.JSONRenderer',\n            'rest_framework.renderers.BrowsableAPIRenderer',\n        ),\n    }\n\nIf ``PAGINATE_BY`` is set the renderer will return a ``meta`` object with\nrecord count and the next and previous links. Django Rest Framework looks\nfor the ``page`` GET parameter by default allowing you to make requests for\nsubsets of the data with ``this.store.find('identity', {page: 2});``.\n\nresource_name property\n^^^^^^^^^^^^^^^^^^^^^^\n\nOn resources that do not subclass ``rest_framework.viewsets.ModelViewSet``,\nthe ``resource_name`` property is required on the class::\n\n    class Me(generics.GenericAPIView):\n        \"\"\"\n        Current user's identity endpoint.\n\n        GET /me\n        \"\"\"\n        resource_name = 'data'\n        serializer_class = identity_serializers.IdentitySerializer\n        allowed_methods = ['GET']\n        permission_classes = (permissions.IsAuthenticated, )\n\n\nEmber Data <-> Rest Framework Format Conversion\n^^^^^^^^^^^^^^^^^^^^^^^^^^^^^^^^^^^^^^^^^^^^^^^\n*(camelization/underscore/pluralize)*\n\nThis package includes the optional ability to automatically convert json requests\nand responses from the Ember Data camelCase to python/rest_framework's preferred\nunderscore. Additionally resource names can be pluralized when an array of objects\nare returned. To hook this up include the following in your project settings::\n\n   REST_EMBER_FORMAT_KEYS = True\n   REST_EMBER_PLURALIZE_KEYS = True\n\nNote: due to the way the inflector works address_1 will convert to address1\non output but cannot convert address1 back to address_1 on POST or PUT. Keep\nthis in mind when naming fields with numbers in them.\n\n\nExample - Without format conversion::\n\n   {\n      \"identity\": [\n         {\n            \"id\": 1,\n            \"username\": \"john\",\n            \"first_name\": \"John\",\n            \"last_name\": \"Coltrane\"\n         },\n         {\n            \"id\": 2,\n            \"username\": \"frodo\",\n            \"first_name\": \"Bilbo\",\n            \"last_name\": \"Baggins\"\n         },\n      ],\n      ...\n   }\n\nExample - With format conversion::\n\n   {\n      \"identities\": [\n         {\n            \"id\": 1,\n            \"username\": \"john\",\n            \"firstName\": \"John\",\n            \"lastName\": \"Coltrane\"\n         },\n         {\n            \"id\": 2,\n            \"username\": \"frodo\",\n            \"firstName\": \"Bilbo\",\n            \"lastName\": \"Baggins\"\n         },\n      ],\n      ...\n   }\n\n\nManaging the trailing slash\n^^^^^^^^^^^^^^^^^^^^^^^^^^^\n\nBy default Django expects a trailing slash on urls and will 301 redirect any\nrequests lacking a trailing slash. You can change the server side by\ninstantiating the Django REST Framework's router like so::\n\n    router = routers.SimpleRouter(trailing_slash=False)\n\nIf you aren't using SimpleRouter you can instead set APPEND_SLASH = False\nin Django's settings.py file and modify url pattern regex to match routes\nwithout a trailing slash.\n\nIf you prefer to make the change on the client side then add an\napplication adapter to your Ember app and override the buildURL method::\n\n    App.ApplicationAdapter = DS.RESTAdapter.extend({\n      buildURL: function() {\n        var url = this._super.apply(this, arguments);\n        if (url.charAt(url.length -1) !== '/') {\n          url += '/';\n        }\n        return url;\n      }\n    });\n\nDisplaying Server Side Validation Messages\n^^^^^^^^^^^^^^^^^^^^^^^^^^^^^^^^^^^^^^^^^^\n\nEmber Data does not ship with a default implementation of a validation error\nhandler except in the Rails ActiveModelAdapter so to display validation errors\nyou will need to add a small client adapter::\n\n    App.ApplicationAdapter = DS.RESTAdapter.extend({\n      ajaxError: function(jqXHR) {\n        var error = this._super(jqXHR);\n        if (jqXHR && jqXHR.status === 400) {\n          var response = Ember.$.parseJSON(jqXHR.responseText),\n              errors = {},\n              keys = Ember.keys(response);\n          if (keys.length === 1) {\n            var jsonErrors = response[keys[0]];\n            Ember.EnumerableUtils.forEach(Ember.keys(jsonErrors), function(key) {\n              errors[key] = jsonErrors[key];\n            });\n          }\n          return new DS.InvalidError(errors);\n        } else {\n          return error;\n        }\n      }\n    });\n\nThe adapter above will handle the following response format when the response has\na 400 status code. The root key (\"post\" in this example) is discarded::\n\n    {\n      \"post\": {\n        \"slug\": [\"Post with this Slug already exists.\"]\n      }\n    }\n\nTo display all errors add the following to the template::\n\n    {{#each message in errors.messages}}\n      {{message}}\n    {{/each}}\n\nTo display a specific error inline use the following::\n\n    {{#each errors.title}}\n      <div class=\"error\">{{message}}</div>\n    {{/each}}\n    {{input name=\"title\" value=title}}\n\n\n---------------------\nSideloading Resources\n---------------------\n\nIf you are using the JSON Renderer globally, this can lead to issues\nwhen hitting endpoints that are intended to sideload other objects.\n\nFor example::\n\n    {\n        \"users\": [],\n        \"cars\": []\n    }\n\n\nSet the ``resource_name`` property on the object to ``False``, and the data\nwill be returned as it is above.\n\n\n------\nMixins\n------\n\nThe following mixin classes are available to use with Rest Framework\nresources.\n\nrest_framework_ember.mixins.MultipleIDMixin\n^^^^^^^^^^^^^^^^^^^^^^^^^^^^^^^^^^^^^^^^^^^\n\nOverrides ``get_queryset`` to filter by ``ids[]`` in URL query params.",
    "description_content_type": null,
    "docs_url": null,
    "download_url": "UNKNOWN",
    "downloads": {
      "last_day": -1,
      "last_month": -1,
      "last_week": -1
    },
    "home_page": "https://github.com/django-json-api/rest_framework_ember",
    "keywords": "EmberJS Ember Data Django REST",
    "license": "BSD",
    "maintainer": null,
    "maintainer_email": null,
    "name": "rest_framework_ember",
    "package_url": "https://pypi.org/project/rest_framework_ember/",
    "platform": "any",
    "project_url": "https://pypi.org/project/rest_framework_ember/",
    "project_urls": {
      "Download": "UNKNOWN",
      "Homepage": "https://github.com/django-json-api/rest_framework_ember"
    },
    "release_url": "https://pypi.org/project/rest_framework_ember/1.3.2/",
    "requires_dist": null,
    "requires_python": null,
    "summary": "A Django Rest Framework adapter that provides Ember Data         support. When jsonapi.org reaches 1.0 this adapter plans to adopt it.",
    "version": "1.3.2",
    "yanked": false,
    "yanked_reason": null
  },
  "last_serial": 1532798,
  "releases": {
    "1.0": [
      {
        "comment_text": "",
        "digests": {
          "blake2b_256": "d188ad1a2e5c9c57337e0dba07c7a767e7b0bd0c2d3a1cf5fefbbc2e5ac0a9f4",
          "md5": "796b3d91f4b542a7c9fcdec685209442",
          "sha256": "b788efaeca34cc072953e8160ee616a70632e0945777b88904669f364d2bc47e"
        },
        "downloads": -1,
        "filename": "rest_framework_ember-1.0.tar.gz",
        "has_sig": true,
        "md5_digest": "796b3d91f4b542a7c9fcdec685209442",
        "packagetype": "sdist",
        "python_version": "source",
        "requires_python": null,
        "size": 7721,
        "upload_time": "2014-07-18T22:06:32",
        "upload_time_iso_8601": "2014-07-18T22:06:32.994285Z",
        "url": "https://files.pythonhosted.org/packages/d1/88/ad1a2e5c9c57337e0dba07c7a767e7b0bd0c2d3a1cf5fefbbc2e5ac0a9f4/rest_framework_ember-1.0.tar.gz",
        "yanked": false,
        "yanked_reason": null
      }
    ],
    "1.0.1": [
      {
        "comment_text": "",
        "digests": {
          "blake2b_256": "616248fca7ff847ca16a66645b9697993516109e8d2ea69f902fee1364b4a257",
          "md5": "eda4fdcd903a0ff2dfefe3190403d1c7",
          "sha256": "6c3290e18eceb4744ec84c3fd918accecae476252cd976c298b0aaa81eb6997d"
        },
        "downloads": -1,
        "filename": "rest_framework_ember-1.0.1.tar.gz",
        "has_sig": true,
        "md5_digest": "eda4fdcd903a0ff2dfefe3190403d1c7",
        "packagetype": "sdist",
        "python_version": "source",
        "requires_python": null,
        "size": 8791,
        "upload_time": "2014-07-18T22:17:17",
        "upload_time_iso_8601": "2014-07-18T22:17:17.006974Z",
        "url": "https://files.pythonhosted.org/packages/61/62/48fca7ff847ca16a66645b9697993516109e8d2ea69f902fee1364b4a257/rest_framework_ember-1.0.1.tar.gz",
        "yanked": false,
        "yanked_reason": null
      }
    ],
    "1.0.2": [
      {
        "comment_text": "",
        "digests": {
          "blake2b_256": "c3ff862020fa4b1ba2d97c4fe2b34a1da6f898023cbe0cb0fd52d838a431aacf",
          "md5": "f960bd225ce08c18ce5fdd245358683b",
          "sha256": "2b889c9c529092481edbd34508541d1745107ebe72d2d799d939043da5109d93"
        },
        "downloads": -1,
        "filename": "rest_framework_ember-1.0.2.tar.gz",
        "has_sig": true,
        "md5_digest": "f960bd225ce08c18ce5fdd245358683b",
        "packagetype": "sdist",
        "python_version": "source",
        "requires_python": null,
        "size": 9827,
        "upload_time": "2014-08-01T18:08:38",
        "upload_time_iso_8601": "2014-08-01T18:08:38.735445Z",
        "url": "https://files.pythonhosted.org/packages/c3/ff/862020fa4b1ba2d97c4fe2b34a1da6f898023cbe0cb0fd52d838a431aacf/rest_framework_ember-1.0.2.tar.gz",
        "yanked": false,
        "yanked_reason": null
      }
    ],
    "1.0.3": [
      {
        "comment_text": "",
        "digests": {
          "blake2b_256": "6db8a32fd3808f4688b4a975968dedf55e88d9d454e4cbcd1e1ad06d05c21d1a",
          "md5": "df73a72a7e61cbd1c8510323446d0486",
          "sha256": "10e0d6080031cae9defd29ae7d6983a920ee89bbdbf91e4d0b0b951a6a7df2cf"
        },
        "downloads": -1,
        "filename": "rest_framework_ember-1.0.3.tar.gz",
        "has_sig": true,
        "md5_digest": "df73a72a7e61cbd1c8510323446d0486",
        "packagetype": "sdist",
        "python_version": "source",
        "requires_python": null,
        "size": 12650,
        "upload_time": "2014-09-08T20:22:07",
        "upload_time_iso_8601": "2014-09-08T20:22:07.585891Z",
        "url": "https://files.pythonhosted.org/packages/6d/b8/a32fd3808f4688b4a975968dedf55e88d9d454e4cbcd1e1ad06d05c21d1a/rest_framework_ember-1.0.3.tar.gz",
        "yanked": false,
        "yanked_reason": null
      }
    ],
    "1.0.4": [],
    "1.1.0": [
      {
        "comment_text": "",
        "digests": {
          "blake2b_256": "036915054017c7b024b93231986d9b41c660add4247f8f71baa416ef2a4fb581",
          "md5": "919b63ade9e057aa8d925dbef39f8244",
          "sha256": "d4eb8de898957deb4e4898e966fcb3d0dafef722fcf75a795777812bac6c7671"
        },
        "downloads": -1,
        "filename": "rest_framework_ember-1.1.0.tar.gz",
        "has_sig": true,
        "md5_digest": "919b63ade9e057aa8d925dbef39f8244",
        "packagetype": "sdist",
        "python_version": "source",
        "requires_python": null,
        "size": 11841,
        "upload_time": "2014-12-17T18:56:20",
        "upload_time_iso_8601": "2014-12-17T18:56:20.429582Z",
        "url": "https://files.pythonhosted.org/packages/03/69/15054017c7b024b93231986d9b41c660add4247f8f71baa416ef2a4fb581/rest_framework_ember-1.1.0.tar.gz",
        "yanked": false,
        "yanked_reason": null
      }
    ],
    "1.2.0": [
      {
        "comment_text": "",
        "digests": {
          "blake2b_256": "a5eca68a08977003546b68717d57a0fb59e096a3df63ab38c178694e26006c2d",
          "md5": "8253f6aa723e4c47dd7051efdf1f96e8",
          "sha256": "24ffa375fc1c9d70bc717a00508aa9ff45508e32264c719817ff678be51b482e"
        },
        "downloads": -1,
        "filename": "rest_framework_ember-1.2.0.tar.gz",
        "has_sig": true,
        "md5_digest": "8253f6aa723e4c47dd7051efdf1f96e8",
        "packagetype": "sdist",
        "python_version": "source",
        "requires_python": null,
        "size": 12208,
        "upload_time": "2015-02-01T03:08:11",
        "upload_time_iso_8601": "2015-02-01T03:08:11.578958Z",
        "url": "https://files.pythonhosted.org/packages/a5/ec/a68a08977003546b68717d57a0fb59e096a3df63ab38c178694e26006c2d/rest_framework_ember-1.2.0.tar.gz",
        "yanked": false,
        "yanked_reason": null
      }
    ],
    "1.2.1": [
      {
        "comment_text": "",
        "digests": {
          "blake2b_256": "26761fa841a13798d4c07391ffb14b106d4c64914a1c0161e3ec3fad913c73d9",
          "md5": "f5587eb65f40db08e2bdc49f9fadade5",
          "sha256": "ed667520c9932f587db304a3a67a2aba9de038bf750ad52bc69a3c6bbb2d90bf"
        },
        "downloads": -1,
        "filename": "rest_framework_ember-1.2.1.tar.gz",
        "has_sig": true,
        "md5_digest": "f5587eb65f40db08e2bdc49f9fadade5",
        "packagetype": "sdist",
        "python_version": "source",
        "requires_python": null,
        "size": 12532,
        "upload_time": "2015-04-22T16:47:10",
        "upload_time_iso_8601": "2015-04-22T16:47:10.549640Z",
        "url": "https://files.pythonhosted.org/packages/26/76/1fa841a13798d4c07391ffb14b106d4c64914a1c0161e3ec3fad913c73d9/rest_framework_ember-1.2.1.tar.gz",
        "yanked": false,
        "yanked_reason": null
      }
    ],
    "1.3.0": [
      {
        "comment_text": "",
        "digests": {
          "blake2b_256": "7e4c0ff6f704cb6cacfb01c38e5699ac2eac7cd97ae9823dddfb212204f7f288",
          "md5": "db81818c25ec7731fbebe87549eaffd9",
          "sha256": "1fef49c4b2bece0e2c4fd3fa1ab7c36b11ef5c6b24d3e7e698ea45f590ec0127"
        },
        "downloads": -1,
        "filename": "rest_framework_ember-1.3.0.tar.gz",
        "has_sig": true,
        "md5_digest": "db81818c25ec7731fbebe87549eaffd9",
        "packagetype": "sdist",
        "python_version": "source",
        "requires_python": null,
        "size": 12946,
        "upload_time": "2015-04-22T16:46:03",
        "upload_time_iso_8601": "2015-04-22T16:46:03.446294Z",
        "url": "https://files.pythonhosted.org/packages/7e/4c/0ff6f704cb6cacfb01c38e5699ac2eac7cd97ae9823dddfb212204f7f288/rest_framework_ember-1.3.0.tar.gz",
        "yanked": false,
        "yanked_reason": null
      }
    ],
    "1.3.1": [
      {
        "comment_text": "",
        "digests": {
          "blake2b_256": "50773db1f30b606abce85d7a174bc0dc332c45a64be5617038e59e970535f3dd",
          "md5": "e4af8811837066d99ca48c7211e1c1ae",
          "sha256": "ae09c140a2042c76ce082281503cd70fc7ce6838784c9e2bb2a6d89ea211190a"
        },
        "downloads": -1,
        "filename": "rest_framework_ember-1.3.1.tar.gz",
        "has_sig": true,
        "md5_digest": "e4af8811837066d99ca48c7211e1c1ae",
        "packagetype": "sdist",
        "python_version": "source",
        "requires_python": null,
        "size": 12970,
        "upload_time": "2015-04-28T15:27:26",
        "upload_time_iso_8601": "2015-04-28T15:27:26.914284Z",
        "url": "https://files.pythonhosted.org/packages/50/77/3db1f30b606abce85d7a174bc0dc332c45a64be5617038e59e970535f3dd/rest_framework_ember-1.3.1.tar.gz",
        "yanked": false,
        "yanked_reason": null
      }
    ],
    "1.3.2": [
      {
        "comment_text": "",
        "digests": {
          "blake2b_256": "6fd1af5260875b01be8b33acbde82a03e9681f4a88e4cdb6a099759a7683cc8a",
          "md5": "a06b26b845110e705116e37e987ba9d0",
          "sha256": "9a7c6ba3babc8ab4008e869ea89a88807c217ea0e9f81b429e9456aec2ca9983"
        },
        "downloads": -1,
        "filename": "rest_framework_ember-1.3.2.tar.gz",
        "has_sig": true,
        "md5_digest": "a06b26b845110e705116e37e987ba9d0",
        "packagetype": "sdist",
        "python_version": "source",
        "requires_python": null,
        "size": 12984,
        "upload_time": "2015-05-04T18:14:18",
        "upload_time_iso_8601": "2015-05-04T18:14:18.691455Z",
        "url": "https://files.pythonhosted.org/packages/6f/d1/af5260875b01be8b33acbde82a03e9681f4a88e4cdb6a099759a7683cc8a/rest_framework_ember-1.3.2.tar.gz",
        "yanked": false,
        "yanked_reason": null
      }
    ]
  },
  "urls": [
    {
      "comment_text": "",
      "digests": {
        "blake2b_256": "6fd1af5260875b01be8b33acbde82a03e9681f4a88e4cdb6a099759a7683cc8a",
        "md5": "a06b26b845110e705116e37e987ba9d0",
        "sha256": "9a7c6ba3babc8ab4008e869ea89a88807c217ea0e9f81b429e9456aec2ca9983"
      },
      "downloads": -1,
      "filename": "rest_framework_ember-1.3.2.tar.gz",
      "has_sig": true,
      "md5_digest": "a06b26b845110e705116e37e987ba9d0",
      "packagetype": "sdist",
      "python_version": "source",
      "requires_python": null,
      "size": 12984,
      "upload_time": "2015-05-04T18:14:18",
      "upload_time_iso_8601": "2015-05-04T18:14:18.691455Z",
      "url": "https://files.pythonhosted.org/packages/6f/d1/af5260875b01be8b33acbde82a03e9681f4a88e4cdb6a099759a7683cc8a/rest_framework_ember-1.3.2.tar.gz",
      "yanked": false,
      "yanked_reason": null
    }
  ],
  "vulnerabilities": []
}