{
  "info": {
    "author": "Morgan Bohn",
    "author_email": "morgan.bohn@unistra.fr",
    "bugtrack_url": null,
    "classifiers": [
      "Development Status :: 4 - Beta",
      "Environment :: Web Environment",
      "Framework :: Django",
      "Intended Audience :: Developers",
      "License :: OSI Approved :: GNU General Public License v2 (GPLv2)",
      "Programming Language :: Python :: 2.7",
      "Programming Language :: Python :: 3"
    ],
    "description": "django-rest-framework-custom-paginations\n========================================\n\nCustom paginations for django rest framework\n\nCompatibility\n-------------\n\nwork with :\n * Python 2.7 / 3.4\n * Dango 1.6 / 1.7\n * Django Rest Framework 2.4 / 3.0\n\nInstallation\n------------\n\nInstall the package from pypi: ::\n\n    pip install djangorestframework-custom-paginations\n\nAdd the application in your django settings: ::\n\n    DJANGO_APPS = ('rest_framework_custom_paginations',)\n\nConfigure your rest framework : ::\n\n    REST_FRAMEWORK = {\n        'DEFAULT_PAGINATION_SERIALIZER_CLASS': 'rest_framework_custom_paginations.paginations.SporePaginationSerializer'\n    }\n\nExample\n-------\n\nResults of Spore Pagination : ::\n\n    {\n        \"count\": 532,\n        \"next\": \"http://myurls/persons.json?structure=mystructure&page=3\",\n        \"next_params\": {\n            \"page\": 3,\n            \"structure\": \"mystructure\"\n        },\n        \"num_pages\": 6,\n        \"previous\": \"http://myurls/persons.json?structure=mystructure&page=1\",\n        \"previous_params\": {\n            \"page\": 1,\n            \"structure\": \"mystructure\"\n        },\n        \"results\": [\n            ...\n        ]\n    }",
    "description_content_type": null,
    "docs_url": null,
    "download_url": "https://pypi.python.org/pypi/djangorestframework-custom-paginations",
    "downloads": {
      "last_day": -1,
      "last_month": -1,
      "last_week": -1
    },
    "home_page": "https://github.com/unistra/django-rest-framework-custom-paginations",
    "keywords": "django,REST,rest_framework,paginations",
    "license": "UNKNOWN",
    "maintainer": null,
    "maintainer_email": null,
    "name": "djangorestframework-custom-paginations",
    "package_url": "https://pypi.org/project/djangorestframework-custom-paginations/",
    "platform": "UNKNOWN",
    "project_url": "https://pypi.org/project/djangorestframework-custom-paginations/",
    "project_urls": {
      "Download": "https://pypi.python.org/pypi/djangorestframework-custom-paginations",
      "Homepage": "https://github.com/unistra/django-rest-framework-custom-paginations"
    },
    "release_url": "https://pypi.org/project/djangorestframework-custom-paginations/1.0.0/",
    "requires_dist": null,
    "requires_python": null,
    "summary": "Custom paginations for Django REST Framework",
    "version": "1.0.0",
    "yanked": false,
    "yanked_reason": null
  },
  "last_serial": 2836440,
  "urls": [
    {
      "comment_text": "",
      "digests": {
        "blake2b_256": "fe9b5b835ad347f183be991a34ee0329399d3ec229bb2fe9bb206b2a10523598",
        "md5": "877b382935d230d714cf70e501180da0",
        "sha256": "5207490c1508aefee2d3abfb3339cbf4214e9c3721c12ff4fe44484fe6297fb0"
      },
      "downloads": -1,
      "filename": "djangorestframework-custom-paginations-1.0.0.zip",
      "has_sig": false,
      "md5_digest": "877b382935d230d714cf70e501180da0",
      "packagetype": "sdist",
      "python_version": "source",
      "requires_python": null,
      "size": 13719,
      "upload_time": "2015-06-02T12:34:56",
      "upload_time_iso_8601": "2015-06-02T12:34:56.355315Z",
      "url": "https://files.pythonhosted.org/packages/fe/9b/5b835ad347f183be991a34ee0329399d3ec229bb2fe9bb206b2a10523598/djangorestframework-custom-paginations-1.0.0.zip",
      "yanked": false,
      "yanked_reason": null
    }
  ],
  "vulnerabilities": []
}