{
  "info": {
    "author": "Morgan Bohn",
    "author_email": "morgan.bohn@unistra.fr",
    "bugtrack_url": null,
    "classifiers": [
      "Development Status :: 4 - Beta",
      "Environment :: Web Environment",
      "Framework :: Django",
      "Intended Audience :: Developers",
      "License :: OSI Approved :: GNU General Public License v2 (GPLv2)",
      "Programming Language :: Python :: 2.7",
      "Programming Language :: Python :: 3"
    ],
    "description": "django-rest-framework-custom-paginations\n========================================\n\nCustom paginations for django rest framework\n\nCompatibility\n-------------\n\nwork with :\n * Python 2.7 / 3.4\n * Dango 1.6 / 1.7\n * Django Rest Framework 2.4 / 3.0\n\nInstallation\n------------\n\nInstall the package from pypi: ::\n\n    pip install djangorestframework-custom-paginations\n\nAdd the application in your django settings: ::\n\n    DJANGO_APPS = ('rest_framework_custom_paginations',)\n\nConfigure your rest framework : ::\n\n    REST_FRAMEWORK = {\n        'DEFAULT_PAGINATION_SERIALIZER_CLASS': 'rest_framework_custom_paginations.paginations.SporePaginationSerializer'\n    }\n    \nUsage\n-----\n\nAdd the following parameters in a ListAPIView : ::\n\n    class PersonList(generics.ListAPIView):\n        \"\"\" list of person \"\"\"\n        ...\n        paginate_by = 100\n        paginate_by_param = 'page_size'\n        max_paginate_by = 500\n\nExample\n-------\n\nResults of Spore Pagination : ::\n\n    {\n        \"count\": 532,\n        \"next\": \"http://myurls/persons.json?structure=mystructure&page=3\",\n        \"next_params\": {\n            \"page\": 3,\n            \"structure\": \"mystructure\"\n        },\n        \"num_pages\": 6,\n        \"previous\": \"http://myurls/persons.json?structure=mystructure&page=1\",\n        \"previous_params\": {\n            \"page\": 1,\n            \"structure\": \"mystructure\"\n        },\n        \"results\": [\n            ...\n        ]\n    }",
    "description_content_type": null,
    "docs_url": null,
    "download_url": "https://pypi.python.org/pypi/djangorestframework-custom-paginations",
    "downloads": {
      "last_day": -1,
      "last_month": -1,
      "last_week": -1
    },
    "home_page": "https://github.com/unistra/django-rest-framework-custom-paginations",
    "keywords": "django,REST,rest_framework,paginations",
    "license": "UNKNOWN",
    "maintainer": null,
    "maintainer_email": null,
    "name": "djangorestframework-custom-paginations",
    "package_url": "https://pypi.org/project/djangorestframework-custom-paginations/",
    "platform": "UNKNOWN",
    "project_url": "https://pypi.org/project/djangorestframework-custom-paginations/",
    "project_urls": {
      "Download": "https://pypi.python.org/pypi/djangorestframework-custom-paginations",
      "Homepage": "https://github.com/unistra/django-rest-framework-custom-paginations"
    },
    "release_url": "https://pypi.org/project/djangorestframework-custom-paginations/1.1.0/",
    "requires_dist": null,
    "requires_python": null,
    "summary": "Custom paginations for Django REST Framework",
    "version": "1.1.0",
    "yanked": false,
    "yanked_reason": null
  },
  "last_serial": 2836440,
  "urls": [
    {
      "comment_text": "",
      "digests": {
        "blake2b_256": "57e3a2cff14513615cfe2b838370d7abf238cdf56a3056244547688cfe8f1935",
        "md5": "315bf7faa4202504bf09a2aeed70400f",
        "sha256": "36667e00fc2a9ff9ac4d1da77c39c9f1198322c68c475eb3d87cabdf8a105d4d"
      },
      "downloads": -1,
      "filename": "djangorestframework-custom-paginations-1.1.0.tar.gz",
      "has_sig": false,
      "md5_digest": "315bf7faa4202504bf09a2aeed70400f",
      "packagetype": "sdist",
      "python_version": "source",
      "requires_python": null,
      "size": 9691,
      "upload_time": "2015-06-02T14:16:07",
      "upload_time_iso_8601": "2015-06-02T14:16:07.875999Z",
      "url": "https://files.pythonhosted.org/packages/57/e3/a2cff14513615cfe2b838370d7abf238cdf56a3056244547688cfe8f1935/djangorestframework-custom-paginations-1.1.0.tar.gz",
      "yanked": false,
      "yanked_reason": null
    }
  ],
  "vulnerabilities": []
}