{
  "info": {
    "author": "Morgan Bohn",
    "author_email": "morgan.bohn@unistra.fr",
    "bugtrack_url": null,
    "classifiers": [
      "Development Status :: 4 - Beta",
      "Environment :: Web Environment",
      "Framework :: Django",
      "Intended Audience :: Developers",
      "License :: OSI Approved :: GNU General Public License v2 (GPLv2)",
      "Programming Language :: Python :: 2.7",
      "Programming Language :: Python :: 3"
    ],
    "description": "django-rest-framework-custom-paginations\n========================================\n\nCustom paginations for django rest framework\n\nCompatibility\n-------------\n\nwork with :\n * Python 2.7 / 3.4\n * Dango 1.6 / 1.7\n * Django Rest Framework 2.4 / 3.0 / 3.1 / 3.2 / 3.3\n\nInstallation\n------------\n\nInstall the package from pypi: ::\n\n    pip install djangorestframework-custom-paginations\n\nAdd the application in your django settings: ::\n\n    DJANGO_APPS = ('rest_framework_custom_paginations',)\n\nConfigure your rest framework for DRF >= 3.1: ::\n\n    REST_FRAMEWORK = {\n        'DEFAULT_PAGINATION_CLASS': 'rest_framework_custom_paginations.class.SporePagination',\n    }\n\nor configure your rest framework for DRF < 3.1: ::\n\n    REST_FRAMEWORK = {\n        'DEFAULT_PAGINATION_SERIALIZER_CLASS': 'rest_framework_custom_paginations.paginations.SporePaginationSerializer'\n    }\n\nUsage\n-----\n\nAdd the following parameters in a ListAPIView : ::\n\n    class PersonList(generics.ListAPIView):\n        \"\"\" list of person \"\"\"\n        ...\n        paginate_by = 100\n        paginate_by_param = 'page_size'\n        max_paginate_by = 500\n\nExample\n-------\n\nResults of Spore Pagination : ::\n\n    {\n        \"count\": 532,\n        \"next\": \"http://myurls/persons.json?structure=mystructure&page=3\",\n        \"next_params\": {\n            \"page\": 3,\n            \"structure\": \"mystructure\"\n        },\n        \"num_pages\": 6,\n        \"previous\": \"http://myurls/persons.json?structure=mystructure&page=1\",\n        \"previous_params\": {\n            \"page\": 1,\n            \"structure\": \"mystructure\"\n        },\n        \"results\": [\n            ...\n        ]\n    }",
    "description_content_type": null,
    "docs_url": null,
    "download_url": "https://pypi.python.org/pypi/djangorestframework-custom-paginations",
    "downloads": {
      "last_day": -1,
      "last_month": -1,
      "last_week": -1
    },
    "home_page": "https://github.com/unistra/django-rest-framework-custom-paginations",
    "keywords": "django,REST,rest_framework,paginations",
    "license": "UNKNOWN",
    "maintainer": null,
    "maintainer_email": null,
    "name": "djangorestframework-custom-paginations",
    "package_url": "https://pypi.org/project/djangorestframework-custom-paginations/",
    "platform": "UNKNOWN",
    "project_url": "https://pypi.org/project/djangorestframework-custom-paginations/",
    "project_urls": {
      "Download": "https://pypi.python.org/pypi/djangorestframework-custom-paginations",
      "Homepage": "https://github.com/unistra/django-rest-framework-custom-paginations"
    },
    "release_url": "https://pypi.org/project/djangorestframework-custom-paginations/1.2.0/",
    "requires_dist": null,
    "requires_python": null,
    "summary": "Custom paginations for Django REST Framework",
    "version": "1.2.0",
    "yanked": false,
    "yanked_reason": null
  },
  "last_serial": 2836440,
  "urls": [
    {
      "comment_text": "",
      "digests": {
        "blake2b_256": "bd21236dbc26117cb44bc1b8c564a3e22d0b1373fa40817358fd4c4a397fba99",
        "md5": "dae93bbf4a01c3ae03c9a520c44e10a3",
        "sha256": "dc22db9ec0829a11fcf11c1748001f94b46b9e9a20dea75213692b6940b68dc7"
      },
      "downloads": -1,
      "filename": "djangorestframework-custom-paginations-1.2.0.tar.gz",
      "has_sig": false,
      "md5_digest": "dae93bbf4a01c3ae03c9a520c44e10a3",
      "packagetype": "sdist",
      "python_version": "source",
      "requires_python": null,
      "size": 10107,
      "upload_time": "2017-03-30T14:01:50",
      "upload_time_iso_8601": "2017-03-30T14:01:50.210475Z",
      "url": "https://files.pythonhosted.org/packages/bd/21/236dbc26117cb44bc1b8c564a3e22d0b1373fa40817358fd4c4a397fba99/djangorestframework-custom-paginations-1.2.0.tar.gz",
      "yanked": false,
      "yanked_reason": null
    }
  ],
  "vulnerabilities": []
}