{
  "info": {
    "author": "Jerel Unruh",
    "author_email": "UNKNOWN",
    "bugtrack_url": null,
    "classifiers": [
      "Development Status :: 5 - Production/Stable"
    ],
    "description": "====================================\r\nJSON API and Django Rest Framework\r\n====================================\r\n\r\n.. image:: https://travis-ci.org/django-json-api/django-rest-framework-json-api.svg?branch=develop\r\n   :target: https://travis-ci.org/django-json-api/django-rest-framework-json-api\r\n\r\n.. image:: https://readthedocs.org/projects/django-rest-framework-json-api/badge/?version=latest\r\n   :alt: Read the docs\r\n   :target: http://django-rest-framework-json-api.readthedocs.org/\r\n\r\n.. image:: https://codeclimate.com/github/django-json-api/django-rest-framework-json-api/badges/gpa.svg\r\n   :target: https://codeclimate.com/github/django-json-api/django-rest-framework-json-api\r\n   :alt: Code Climate\r\n\r\n.. image:: https://badges.gitter.im/Join%20Chat.svg\r\n   :alt: Join the chat at https://gitter.im/django-json-api/django-rest-framework-json-api\r\n   :target: https://gitter.im/django-json-api/django-rest-framework-json-api\r\n\r\n\r\nDocumentation: http://django-rest-framework-json-api.readthedocs.org/\r\n\r\nLive demo (resets every hour): http://json-api.jerel.co/\r\n\r\nFormat specification: http://jsonapi.org/format/\r\n\r\n\r\nBy default, Django REST Framework will produce a response like::\r\n\r\n    {\r\n        \"count\": 20,\r\n        \"next\": \"http://example.com/api/1.0/identities/?page=3\",\r\n        \"previous\": \"http://example.com/api/1.0/identities/?page=1\",\r\n        \"results\": [{\r\n            \"id\": 3,\r\n            \"username\": \"john\",\r\n            \"full_name\": \"John Coltrane\"\r\n        }]\r\n    }\r\n\r\n\r\nHowever, for an ``identity`` model in JSON API format the response should look\r\nlike the following::\r\n\r\n    {\r\n        \"links\": {\r\n            \"prev\": \"http://example.com/api/1.0/identities\",\r\n            \"self\": \"http://example.com/api/1.0/identities?page=2\",\r\n            \"next\": \"http://example.com/api/1.0/identities?page=3\",\r\n        },\r\n        \"data\": [{\r\n            \"type\": \"identities\",\r\n            \"id\": 3,\r\n            \"attributes\": {\r\n                \"username\": \"john\",\r\n                \"full-name\": \"John Coltrane\"\r\n            }\r\n        }],\r\n        \"meta\": {\r\n            \"pagination\": {\r\n              \"count\": 20\r\n            }\r\n        }\r\n    }\r\n\r\n\r\n------------\r\nRequirements\r\n------------\r\n\r\n1. Django\r\n2. Django REST Framework\r\n\r\n------------\r\nInstallation\r\n------------\r\n\r\nFrom PyPI\r\n^^^^^^^^^\r\n\r\n::\r\n\r\n    $ pip install djangorestframework-jsonapi\r\n\r\n\r\nFrom Source\r\n^^^^^^^^^^^\r\n\r\n::\r\n\r\n    $ git clone https://github.com/django-json-api/django-rest-framework-json-api.git\r\n    $ cd django-rest-framework-json-api && pip install -e .\r\n\r\n\r\nRunning the example app\r\n^^^^^^^^^^^^^^^^^^^^^^^\r\n\r\n::\r\n\r\n    $ git clone https://github.com/django-json-api/django-rest-framework-json-api.git\r\n    $ cd django-rest-framework-json-api && pip install -e .\r\n    $ django-admin.py runserver --settings=example.settings\r\n\r\nBrowse to http://localhost:8000\r\n\r\n\r\nRunning Tests\r\n^^^^^^^^^^^^^\r\n\r\nIt is recommended to create a virtualenv for testing. Assuming it is already \r\ninstalled and activated:\r\n\r\n::\r\n\r\n    $ pip install -e .\r\n    $ pip install -r requirements-development.txt\r\n    $ py.test\r\n\r\n\r\n-----\r\nUsage\r\n-----\r\n\r\n\r\n``rest_framework_json_api`` assumes you are using class-based views in Django\r\nRest Framework.\r\n\r\n\r\nSettings\r\n^^^^^^^^\r\n\r\nOne can either add ``rest_framework_json_api.parsers.JSONParser`` and\r\n``rest_framework_json_api.renderers.JSONRenderer`` to each ``ViewSet`` class, or\r\noverride ``settings.REST_FRAMEWORK``\r\n\r\n::\r\n\r\n    REST_FRAMEWORK = {\r\n        'PAGE_SIZE': 10,\r\n        'EXCEPTION_HANDLER': 'rest_framework_json_api.exceptions.exception_handler',\r\n        'DEFAULT_PAGINATION_CLASS':\r\n            'rest_framework_json_api.pagination.PageNumberPagination',\r\n        'DEFAULT_PARSER_CLASSES': (\r\n            'rest_framework_json_api.parsers.JSONParser',\r\n            'rest_framework.parsers.FormParser',\r\n            'rest_framework.parsers.MultiPartParser'\r\n        ),\r\n        'DEFAULT_RENDERER_CLASSES': (\r\n            'rest_framework_json_api.renderers.JSONRenderer',\r\n            'rest_framework.renderers.BrowsableAPIRenderer',\r\n        ),\r\n        'DEFAULT_METADATA_CLASS': 'rest_framework_json_api.metadata.JSONAPIMetadata',\r\n    }\r\n\r\nIf ``PAGINATE_BY`` is set the renderer will return a ``meta`` object with\r\nrecord count and a ``links`` object with the next and previous links. Pages\r\ncan be specified with the ``page`` GET parameter.\r\n\r\nThis package provides much more including automatic inflection of JSON keys, extra top level data (using nested serializers), relationships, links, and handy shortcuts like MultipleIDMixin. Read more at http://django-rest-framework-json-api.readthedocs.org/",
    "description_content_type": null,
    "docs_url": null,
    "download_url": "UNKNOWN",
    "downloads": {
      "last_day": -1,
      "last_month": -1,
      "last_week": -1
    },
    "home_page": "https://github.com/django-json-api/django-rest-framework-json-api",
    "keywords": "",
    "license": "MIT",
    "maintainer": "",
    "maintainer_email": "",
    "name": "djangorestframework-jsonapi",
    "package_url": "https://pypi.org/project/djangorestframework-jsonapi/",
    "platform": "UNKNOWN",
    "project_url": "https://pypi.org/project/djangorestframework-jsonapi/",
    "project_urls": {
      "Download": "UNKNOWN",
      "Homepage": "https://github.com/django-json-api/django-rest-framework-json-api"
    },
    "release_url": "https://pypi.org/project/djangorestframework-jsonapi/2.0.0/",
    "requires_dist": null,
    "requires_python": null,
    "summary": "A Django REST framework API adapter for the json-api spec.",
    "version": "2.0.0",
    "yanked": false,
    "yanked_reason": null
  },
  "last_serial": 15199741,
  "urls": [
    {
      "comment_text": "",
      "digests": {
        "blake2b_256": "b0c5697be62c2e648d900170ff46b8b2d448c3356707d7fba5e3967fa1901163",
        "md5": "94e6a0d59823cb4bc7dd4ecd0c76cb62",
        "sha256": "a74c4dc87c9b3e022426e9d5a8089309c80b1104a57b50ea3655176f687d0eab"
      },
      "downloads": -1,
      "filename": "djangorestframework-jsonapi-2.0.0.tar.gz",
      "has_sig": true,
      "md5_digest": "94e6a0d59823cb4bc7dd4ecd0c76cb62",
      "packagetype": "sdist",
      "python_version": "source",
      "requires_python": null,
      "size": 36855,
      "upload_time": "2016-04-29T18:13:14",
      "upload_time_iso_8601": "2016-04-29T18:13:14.434160Z",
      "url": "https://files.pythonhosted.org/packages/b0/c5/697be62c2e648d900170ff46b8b2d448c3356707d7fba5e3967fa1901163/djangorestframework-jsonapi-2.0.0.tar.gz",
      "yanked": false,
      "yanked_reason": null
    }
  ],
  "vulnerabilities": []
}