{
  "info": {
    "author": "Jerel Unruh",
    "author_email": "UNKNOWN",
    "bugtrack_url": null,
    "classifiers": [
      "Development Status :: 5 - Production/Stable",
      "Environment :: Web Environment",
      "Framework :: Django",
      "Intended Audience :: Developers",
      "License :: OSI Approved :: MIT License",
      "Operating System :: OS Independent",
      "Programming Language :: Python",
      "Programming Language :: Python :: 2",
      "Programming Language :: Python :: 2.7",
      "Programming Language :: Python :: 3",
      "Programming Language :: Python :: 3.3",
      "Programming Language :: Python :: 3.4",
      "Programming Language :: Python :: 3.5",
      "Topic :: Internet :: WWW/HTTP",
      "Topic :: Software Development :: Libraries :: Application Frameworks",
      "Topic :: Software Development :: Libraries :: Python Modules"
    ],
    "description": "====================================\nJSON API and Django Rest Framework\n====================================\n\n.. image:: https://travis-ci.org/django-json-api/django-rest-framework-json-api.svg?branch=develop\n   :target: https://travis-ci.org/django-json-api/django-rest-framework-json-api\n\n.. image:: https://readthedocs.org/projects/django-rest-framework-json-api/badge/?version=latest\n   :alt: Read the docs\n   :target: http://django-rest-framework-json-api.readthedocs.org/\n\n.. image:: https://codeclimate.com/github/django-json-api/django-rest-framework-json-api/badges/gpa.svg\n   :target: https://codeclimate.com/github/django-json-api/django-rest-framework-json-api\n   :alt: Code Climate\n\n.. image:: https://badges.gitter.im/Join%20Chat.svg\n   :alt: Join the chat at https://gitter.im/django-json-api/django-rest-framework-json-api\n   :target: https://gitter.im/django-json-api/django-rest-framework-json-api\n\n\nDocumentation: http://django-rest-framework-json-api.readthedocs.org/\n\nLive demo (resets every hour): http://json-api.jerel.co/\n\nFormat specification: http://jsonapi.org/format/\n\n\nBy default, Django REST Framework will produce a response like::\n\n    {\n        \"count\": 20,\n        \"next\": \"http://example.com/api/1.0/identities/?page=3\",\n        \"previous\": \"http://example.com/api/1.0/identities/?page=1\",\n        \"results\": [{\n            \"id\": 3,\n            \"username\": \"john\",\n            \"full_name\": \"John Coltrane\"\n        }]\n    }\n\n\nHowever, for an ``identity`` model in JSON API format the response should look\nlike the following::\n\n    {\n        \"links\": {\n            \"prev\": \"http://example.com/api/1.0/identities\",\n            \"self\": \"http://example.com/api/1.0/identities?page=2\",\n            \"next\": \"http://example.com/api/1.0/identities?page=3\",\n        },\n        \"data\": [{\n            \"type\": \"identities\",\n            \"id\": 3,\n            \"attributes\": {\n                \"username\": \"john\",\n                \"full-name\": \"John Coltrane\"\n            }\n        }],\n        \"meta\": {\n            \"pagination\": {\n              \"count\": 20\n            }\n        }\n    }\n\n\n------------\nRequirements\n------------\n\n1. Django\n2. Django REST Framework\n\n------------\nInstallation\n------------\n\nFrom PyPI\n^^^^^^^^^\n\n::\n\n    $ pip install djangorestframework-jsonapi\n\n\nFrom Source\n^^^^^^^^^^^\n\n::\n\n    $ git clone https://github.com/django-json-api/django-rest-framework-json-api.git\n    $ cd django-rest-framework-json-api && pip install -e .\n\n\nRunning the example app\n^^^^^^^^^^^^^^^^^^^^^^^\n\n::\n\n    $ git clone https://github.com/django-json-api/django-rest-framework-json-api.git\n    $ cd django-rest-framework-json-api && pip install -e .\n    $ django-admin.py runserver --settings=example.settings\n\nBrowse to http://localhost:8000\n\n\nRunning Tests\n^^^^^^^^^^^^^\n\nIt is recommended to create a virtualenv for testing. Assuming it is already \ninstalled and activated:\n\n::\n\n    $ pip install -e .\n    $ pip install -r requirements-development.txt\n    $ py.test\n\n\n-----\nUsage\n-----\n\n\n``rest_framework_json_api`` assumes you are using class-based views in Django\nRest Framework.\n\n\nSettings\n^^^^^^^^\n\nOne can either add ``rest_framework_json_api.parsers.JSONParser`` and\n``rest_framework_json_api.renderers.JSONRenderer`` to each ``ViewSet`` class, or\noverride ``settings.REST_FRAMEWORK``\n\n::\n\n    REST_FRAMEWORK = {\n        'PAGE_SIZE': 10,\n        'EXCEPTION_HANDLER': 'rest_framework_json_api.exceptions.exception_handler',\n        'DEFAULT_PAGINATION_CLASS':\n            'rest_framework_json_api.pagination.PageNumberPagination',\n        'DEFAULT_PARSER_CLASSES': (\n            'rest_framework_json_api.parsers.JSONParser',\n            'rest_framework.parsers.FormParser',\n            'rest_framework.parsers.MultiPartParser'\n        ),\n        'DEFAULT_RENDERER_CLASSES': (\n            'rest_framework_json_api.renderers.JSONRenderer',\n            'rest_framework.renderers.BrowsableAPIRenderer',\n        ),\n        'DEFAULT_METADATA_CLASS': 'rest_framework_json_api.metadata.JSONAPIMetadata',\n    }\n\nIf ``PAGINATE_BY`` is set the renderer will return a ``meta`` object with\nrecord count and a ``links`` object with the next and previous links. Pages\ncan be specified with the ``page`` GET parameter.\n\nThis package provides much more including automatic inflection of JSON keys, extra top level data (using nested serializers), relationships, links, and handy shortcuts like MultipleIDMixin. Read more at http://django-rest-framework-json-api.readthedocs.org/",
    "description_content_type": null,
    "docs_url": null,
    "download_url": "UNKNOWN",
    "downloads": {
      "last_day": -1,
      "last_month": -1,
      "last_week": -1
    },
    "home_page": "https://github.com/django-json-api/django-rest-framework-json-api",
    "keywords": null,
    "license": "MIT",
    "maintainer": null,
    "maintainer_email": null,
    "name": "djangorestframework-jsonapi",
    "package_url": "https://pypi.org/project/djangorestframework-jsonapi/",
    "platform": "UNKNOWN",
    "project_url": "https://pypi.org/project/djangorestframework-jsonapi/",
    "project_urls": {
      "Download": "UNKNOWN",
      "Homepage": "https://github.com/django-json-api/django-rest-framework-json-api"
    },
    "release_url": "https://pypi.org/project/djangorestframework-jsonapi/2.2.0/",
    "requires_dist": null,
    "requires_python": null,
    "summary": "A Django REST framework API adapter for the json-api spec.",
    "version": "2.2.0",
    "yanked": false,
    "yanked_reason": null
  },
  "last_serial": 15199741,
  "urls": [
    {
      "comment_text": "",
      "digests": {
        "blake2b_256": "fb5705a228d62fc6e35508e9edf21e3d65ce8ce3607b88273b982a71b4892ab7",
        "md5": "4be400923a6285f67eff244ff208c851",
        "sha256": "6d10e59f1a059b9b65879bd0c60e41a1125c83c68b9dc37fa75af187f9ce2f7a"
      },
      "downloads": -1,
      "filename": "djangorestframework_jsonapi-2.2.0-py3.6.egg",
      "has_sig": false,
      "md5_digest": "4be400923a6285f67eff244ff208c851",
      "packagetype": "bdist_egg",
      "python_version": "3.6",
      "requires_python": null,
      "size": 54398,
      "upload_time": "2018-07-11T14:25:20",
      "upload_time_iso_8601": "2018-07-11T14:25:20.126700Z",
      "url": "https://files.pythonhosted.org/packages/fb/57/05a228d62fc6e35508e9edf21e3d65ce8ce3607b88273b982a71b4892ab7/djangorestframework_jsonapi-2.2.0-py3.6.egg",
      "yanked": false,
      "yanked_reason": null
    },
    {
      "comment_text": "",
      "digests": {
        "blake2b_256": "a128f1c4db991a7d2884dcd3954c94c692686e17c0c02b1569c3e79c00b83b92",
        "md5": "81eb8b152f2048b05cb56fa223a58a88",
        "sha256": "c2fd9a35ca267f3839d8ec369b5ed44b827fe87c04aeb9ff9629d8a778e58e40"
      },
      "downloads": -1,
      "filename": "djangorestframework-jsonapi-2.2.0.tar.gz",
      "has_sig": true,
      "md5_digest": "81eb8b152f2048b05cb56fa223a58a88",
      "packagetype": "sdist",
      "python_version": "source",
      "requires_python": null,
      "size": 41111,
      "upload_time": "2017-04-21T22:27:45",
      "upload_time_iso_8601": "2017-04-21T22:27:45.965152Z",
      "url": "https://files.pythonhosted.org/packages/a1/28/f1c4db991a7d2884dcd3954c94c692686e17c0c02b1569c3e79c00b83b92/djangorestframework-jsonapi-2.2.0.tar.gz",
      "yanked": false,
      "yanked_reason": null
    }
  ],
  "vulnerabilities": []
}