{
  "info": {
    "author": "Jerel Unruh",
    "author_email": "",
    "bugtrack_url": null,
    "classifiers": [
      "Development Status :: 5 - Production/Stable",
      "Environment :: Web Environment",
      "Framework :: Django",
      "Intended Audience :: Developers",
      "License :: OSI Approved :: MIT License",
      "Operating System :: OS Independent",
      "Programming Language :: Python",
      "Programming Language :: Python :: 2",
      "Programming Language :: Python :: 2.7",
      "Programming Language :: Python :: 3",
      "Programming Language :: Python :: 3.3",
      "Programming Language :: Python :: 3.4",
      "Programming Language :: Python :: 3.5",
      "Programming Language :: Python :: 3.6",
      "Topic :: Internet :: WWW/HTTP",
      "Topic :: Software Development :: Libraries :: Application Frameworks",
      "Topic :: Software Development :: Libraries :: Python Modules"
    ],
    "description": "====================================\nJSON API and Django Rest Framework\n====================================\n\n.. image:: https://travis-ci.org/django-json-api/django-rest-framework-json-api.svg?branch=develop\n   :target: https://travis-ci.org/django-json-api/django-rest-framework-json-api\n\n.. image:: https://readthedocs.org/projects/django-rest-framework-json-api/badge/?version=latest\n   :alt: Read the docs\n   :target: http://django-rest-framework-json-api.readthedocs.org/\n\n.. image:: https://codeclimate.com/github/django-json-api/django-rest-framework-json-api/badges/gpa.svg\n   :target: https://codeclimate.com/github/django-json-api/django-rest-framework-json-api\n   :alt: Code Climate\n\n.. image:: https://badges.gitter.im/Join%20Chat.svg\n   :alt: Join the chat at https://gitter.im/django-json-api/django-rest-framework-json-api\n   :target: https://gitter.im/django-json-api/django-rest-framework-json-api\n\n\n--------\nOverview\n--------\n\n**JSON API support for Django REST Framework**\n\n* Documentation: http://django-rest-framework-json-api.readthedocs.org/\n* Live demo (resets every hour): http://json-api.jerel.co/\n* Format specification: http://jsonapi.org/format/\n\n\nBy default, Django REST Framework will produce a response like::\n\n    {\n        \"count\": 20,\n        \"next\": \"http://example.com/api/1.0/identities/?page=3\",\n        \"previous\": \"http://example.com/api/1.0/identities/?page=1\",\n        \"results\": [{\n            \"id\": 3,\n            \"username\": \"john\",\n            \"full_name\": \"John Coltrane\"\n        }]\n    }\n\n\nHowever, for an ``identity`` model in JSON API format the response should look\nlike the following::\n\n    {\n        \"links\": {\n            \"prev\": \"http://example.com/api/1.0/identities\",\n            \"self\": \"http://example.com/api/1.0/identities?page=2\",\n            \"next\": \"http://example.com/api/1.0/identities?page=3\",\n        },\n        \"data\": [{\n            \"type\": \"identities\",\n            \"id\": 3,\n            \"attributes\": {\n                \"username\": \"john\",\n                \"full-name\": \"John Coltrane\"\n            }\n        }],\n        \"meta\": {\n            \"pagination\": {\n              \"count\": 20\n            }\n        }\n    }\n\n\n------------\nRequirements\n------------\n\n1. Python (2.7, 3.3, 3.4, 3.5, 3.6)\n2. Django (1.8, 1.9, 1.10, 1.11)\n3. Django REST Framework (3.1, 3.2, 3.3, 3.4, 3.5, 3.6)\n\n------------\nInstallation\n------------\n\n>From PyPI\n^^^^^^^^^\n\n::\n\n    $ pip install djangorestframework-jsonapi\n\n\n>From Source\n^^^^^^^^^^^\n\n::\n\n    $ git clone https://github.com/django-json-api/django-rest-framework-json-api.git\n    $ cd django-rest-framework-json-api && pip install -e .\n\n\nRunning the example app\n^^^^^^^^^^^^^^^^^^^^^^^\n\n::\n\n    $ git clone https://github.com/django-json-api/django-rest-framework-json-api.git\n    $ cd django-rest-framework-json-api && pip install -e .\n    $ django-admin.py runserver --settings=example.settings\n\nBrowse to http://localhost:8000\n\n\nRunning Tests\n^^^^^^^^^^^^^\n\nIt is recommended to create a virtualenv for testing. Assuming it is already \ninstalled and activated:\n\n::\n\n    $ pip install -e .\n    $ pip install -r requirements-development.txt\n    $ py.test\n\n\n-----\nUsage\n-----\n\n\n``rest_framework_json_api`` assumes you are using class-based views in Django\nRest Framework.\n\n\nSettings\n^^^^^^^^\n\nOne can either add ``rest_framework_json_api.parsers.JSONParser`` and\n``rest_framework_json_api.renderers.JSONRenderer`` to each ``ViewSet`` class, or\noverride ``settings.REST_FRAMEWORK``\n\n::\n\n    REST_FRAMEWORK = {\n        'PAGE_SIZE': 10,\n        'EXCEPTION_HANDLER': 'rest_framework_json_api.exceptions.exception_handler',\n        'DEFAULT_PAGINATION_CLASS':\n            'rest_framework_json_api.pagination.PageNumberPagination',\n        'DEFAULT_PARSER_CLASSES': (\n            'rest_framework_json_api.parsers.JSONParser',\n            'rest_framework.parsers.FormParser',\n            'rest_framework.parsers.MultiPartParser'\n        ),\n        'DEFAULT_RENDERER_CLASSES': (\n            'rest_framework_json_api.renderers.JSONRenderer',\n            'rest_framework.renderers.BrowsableAPIRenderer',\n        ),\n        'DEFAULT_METADATA_CLASS': 'rest_framework_json_api.metadata.JSONAPIMetadata',\n    }\n\nIf ``PAGINATE_BY`` is set the renderer will return a ``meta`` object with\nrecord count and a ``links`` object with the next and previous links. Pages\ncan be specified with the ``page`` GET parameter.\n\nThis package provides much more including automatic inflection of JSON keys, extra top level data (using nested serializers), relationships, links, and handy shortcuts like MultipleIDMixin. Read more at http://django-rest-framework-json-api.readthedocs.org/\n\n\n",
    "description_content_type": null,
    "docs_url": null,
    "download_url": "",
    "downloads": {
      "last_day": -1,
      "last_month": -1,
      "last_week": -1
    },
    "home_page": "https://github.com/django-json-api/django-rest-framework-json-api",
    "keywords": "",
    "license": "MIT",
    "maintainer": "",
    "maintainer_email": "",
    "name": "djangorestframework-jsonapi",
    "package_url": "https://pypi.org/project/djangorestframework-jsonapi/",
    "platform": "",
    "project_url": "https://pypi.org/project/djangorestframework-jsonapi/",
    "project_urls": {
      "Homepage": "https://github.com/django-json-api/django-rest-framework-json-api"
    },
    "release_url": "https://pypi.org/project/djangorestframework-jsonapi/2.3.1/",
    "requires_dist": [
      "django",
      "djangorestframework (>=3.1.0)",
      "inflection (>=0.3.0)",
      "six"
    ],
    "requires_python": "",
    "summary": "A Django REST framework API adapter for the JSON API spec.",
    "version": "2.3.1",
    "yanked": false,
    "yanked_reason": null
  },
  "last_serial": 15199741,
  "urls": [
    {
      "comment_text": "",
      "digests": {
        "blake2b_256": "485828f626c397279f02fbbc84569c804a4ab3d4bfd2bbde9378c55fdefbc236",
        "md5": "47f297b6d97eb1157f4dbcf236c45dd1",
        "sha256": "9612d58dc86d255962ef945db6132b3dcb655b61e8a912e7f825924df48d7b7e"
      },
      "downloads": -1,
      "filename": "djangorestframework_jsonapi-2.3.1-py2.py3-none-any.whl",
      "has_sig": false,
      "md5_digest": "47f297b6d97eb1157f4dbcf236c45dd1",
      "packagetype": "bdist_wheel",
      "python_version": "py2.py3",
      "requires_python": null,
      "size": 98769,
      "upload_time": "2017-12-03T21:16:02",
      "upload_time_iso_8601": "2017-12-03T21:16:02.093982Z",
      "url": "https://files.pythonhosted.org/packages/48/58/28f626c397279f02fbbc84569c804a4ab3d4bfd2bbde9378c55fdefbc236/djangorestframework_jsonapi-2.3.1-py2.py3-none-any.whl",
      "yanked": false,
      "yanked_reason": null
    },
    {
      "comment_text": "",
      "digests": {
        "blake2b_256": "50cbb95dd45302bcd9916a3616b0b86fccae4bda49cf632dd18d9010cb45e959",
        "md5": "930a0efc1b483d78d87750f177a4fe57",
        "sha256": "640f4000f6f262885c413cc08becefb9de021d1af0208029ef9160858b2b063b"
      },
      "downloads": -1,
      "filename": "djangorestframework-jsonapi-2.3.1.tar.gz",
      "has_sig": false,
      "md5_digest": "930a0efc1b483d78d87750f177a4fe57",
      "packagetype": "sdist",
      "python_version": "source",
      "requires_python": null,
      "size": 90949,
      "upload_time": "2017-12-03T21:16:03",
      "upload_time_iso_8601": "2017-12-03T21:16:03.638276Z",
      "url": "https://files.pythonhosted.org/packages/50/cb/b95dd45302bcd9916a3616b0b86fccae4bda49cf632dd18d9010cb45e959/djangorestframework-jsonapi-2.3.1.tar.gz",
      "yanked": false,
      "yanked_reason": null
    }
  ],
  "vulnerabilities": []
}