{
  "info": {
    "author": "Jerel Unruh",
    "author_email": "",
    "bugtrack_url": null,
    "classifiers": [
      "Development Status :: 5 - Production/Stable",
      "Environment :: Web Environment",
      "Framework :: Django",
      "Intended Audience :: Developers",
      "License :: OSI Approved :: BSD License",
      "Operating System :: OS Independent",
      "Programming Language :: Python",
      "Programming Language :: Python :: 3",
      "Programming Language :: Python :: 3.6",
      "Programming Language :: Python :: 3.7",
      "Programming Language :: Python :: 3.8",
      "Programming Language :: Python :: 3.9",
      "Topic :: Internet :: WWW/HTTP",
      "Topic :: Software Development :: Libraries :: Application Frameworks",
      "Topic :: Software Development :: Libraries :: Python Modules"
    ],
    "description": "==================================\nJSON API and Django Rest Framework\n==================================\n\n.. image:: https://travis-ci.org/django-json-api/django-rest-framework-json-api.svg?branch=develop\n   :target: https://travis-ci.org/django-json-api/django-rest-framework-json-api\n\n.. image:: https://readthedocs.org/projects/django-rest-framework-json-api/badge/?version=latest\n   :alt: Read the docs\n   :target: https://django-rest-framework-json-api.readthedocs.org/\n\n.. image:: https://img.shields.io/pypi/v/djangorestframework-jsonapi.svg\n   :alt: PyPi Version\n   :target: https://pypi.org/project/djangorestframework-jsonapi/\n\n--------\nOverview\n--------\n\n**JSON API support for Django REST Framework**\n\n* Documentation: https://django-rest-framework-json-api.readthedocs.org/\n* Format specification: http://jsonapi.org/format/\n\n\nBy default, Django REST Framework will produce a response like::\n\n    {\n        \"count\": 20,\n        \"next\": \"http://example.com/api/1.0/identities/?page=3\",\n        \"previous\": \"http://example.com/api/1.0/identities/?page=1\",\n        \"results\": [{\n            \"id\": 3,\n            \"username\": \"john\",\n            \"full_name\": \"John Coltrane\"\n        }]\n    }\n\n\nHowever, for an ``identity`` model in JSON API format the response should look\nlike the following::\n\n    {\n        \"links\": {\n            \"prev\": \"http://example.com/api/1.0/identities\",\n            \"self\": \"http://example.com/api/1.0/identities?page=2\",\n            \"next\": \"http://example.com/api/1.0/identities?page=3\",\n        },\n        \"data\": [{\n            \"type\": \"identities\",\n            \"id\": \"3\",\n            \"attributes\": {\n                \"username\": \"john\",\n                \"full-name\": \"John Coltrane\"\n            }\n        }],\n        \"meta\": {\n            \"pagination\": {\n              \"count\": 20\n            }\n        }\n    }\n\n\n-----\nGoals\n-----\n\nAs a Django REST Framework JSON API (short DJA) we are trying to address following goals:\n\n1. Support the `JSON API`_ spec to compliance\n\n2. Be as compatible with `Django REST Framework`_ as possible\n\n   e.g. issues in Django REST Framework should be fixed upstream and not worked around in DJA\n\n3. Have sane defaults to be as easy to pick up as possible\n\n4. Be solid and tested with good coverage\n\n5. Be performant\n\n.. _JSON API: http://jsonapi.org\n.. _Django REST Framework: https://www.django-rest-framework.org/\n\n------------\nRequirements\n------------\n\n1. Python (3.6, 3.7, 3.8, 3.9)\n2. Django (2.2, 3.0, 3.1)\n3. Django REST Framework (3.12)\n\nWe **highly** recommend and only officially support the latest patch release of each Python, Django and REST Framework series.\n\nGenerally Python and Django series are supported till the official end of life. For Django REST Framework the last two series are supported.\n\n------------\nInstallation\n------------\n\nFrom PyPI\n^^^^^^^^^\n\n::\n\n    $ pip install djangorestframework-jsonapi\n    $ # for optional package integrations\n    $ pip install djangorestframework-jsonapi['django-filter']\n    $ pip install djangorestframework-jsonapi['django-polymorphic']\n    $ pip install djangorestframework-jsonapi['openapi']\n\n\nFrom Source\n^^^^^^^^^^^\n\n::\n\n    $ git clone https://github.com/django-json-api/django-rest-framework-json-api.git\n    $ cd django-rest-framework-json-api\n    $ pip install -e .\n\n\nRunning the example app\n^^^^^^^^^^^^^^^^^^^^^^^\n\nIt is recommended to create a virtualenv for testing. Assuming it is already\ninstalled and activated:\n\n::\n\n    $ git clone https://github.com/django-json-api/django-rest-framework-json-api.git\n    $ cd django-rest-framework-json-api\n    $ pip install -Ur requirements.txt\n    $ django-admin migrate --settings=example.settings\n    $ django-admin loaddata drf_example --settings=example.settings\n    $ django-admin runserver --settings=example.settings\n\nBrowse to\n* http://localhost:8000 for the list of available collections (in a non-JSONAPI format!),\n* http://localhost:8000/swagger-ui/ for a Swagger user interface to the dynamic schema view, or\n* http://localhost:8000/openapi for the schema view's OpenAPI specification document.\n\n\nRunning Tests and linting\n^^^^^^^^^^^^^^^^^^^^^^^^^\n\nIt is recommended to create a virtualenv for testing. Assuming it is already\ninstalled and activated:\n\n::\n\n    $ pip install -Ur requirements.txt\n    $ flake8\n    $ pytest\n\n-----\nUsage\n-----\n\n\n``rest_framework_json_api`` assumes you are using class-based views in Django\nRest Framework.\n\n\nSettings\n^^^^^^^^\n\nOne can either add ``rest_framework_json_api.parsers.JSONParser`` and\n``rest_framework_json_api.renderers.JSONRenderer`` to each ``ViewSet`` class, or\noverride ``settings.REST_FRAMEWORK``\n\n::\n\n    REST_FRAMEWORK = {\n        'PAGE_SIZE': 10,\n        'EXCEPTION_HANDLER': 'rest_framework_json_api.exceptions.exception_handler',\n        'DEFAULT_PAGINATION_CLASS':\n            'rest_framework_json_api.pagination.JsonApiPageNumberPagination',\n        'DEFAULT_PARSER_CLASSES': (\n            'rest_framework_json_api.parsers.JSONParser',\n            'rest_framework.parsers.FormParser',\n            'rest_framework.parsers.MultiPartParser'\n        ),\n        'DEFAULT_RENDERER_CLASSES': (\n            'rest_framework_json_api.renderers.JSONRenderer',\n            'rest_framework.renderers.BrowsableAPIRenderer',\n        ),\n        'DEFAULT_METADATA_CLASS': 'rest_framework_json_api.metadata.JSONAPIMetadata',\n        'DEFAULT_FILTER_BACKENDS': (\n            'rest_framework_json_api.filters.QueryParameterValidationFilter',\n            'rest_framework_json_api.filters.OrderingFilter',\n            'rest_framework_json_api.django_filters.DjangoFilterBackend',\n            'rest_framework.filters.SearchFilter',\n        ),\n        'SEARCH_PARAM': 'filter[search]',\n        'TEST_REQUEST_RENDERER_CLASSES': (\n            'rest_framework_json_api.renderers.JSONRenderer',\n        ),\n        'TEST_REQUEST_DEFAULT_FORMAT': 'vnd.api+json'\n    }\n\nThis package provides much more including automatic inflection of JSON keys, extra top level data (using nested\nserializers), relationships, links, paginators, filters, and handy shortcuts.\nRead more at http://django-rest-framework-json-api.readthedocs.org/\n\n\n",
    "description_content_type": "",
    "docs_url": null,
    "download_url": "",
    "downloads": {
      "last_day": -1,
      "last_month": -1,
      "last_week": -1
    },
    "home_page": "https://github.com/django-json-api/django-rest-framework-json-api",
    "keywords": "",
    "license": "BSD",
    "maintainer": "",
    "maintainer_email": "",
    "name": "djangorestframework-jsonapi",
    "package_url": "https://pypi.org/project/djangorestframework-jsonapi/",
    "platform": "",
    "project_url": "https://pypi.org/project/djangorestframework-jsonapi/",
    "project_urls": {
      "Homepage": "https://github.com/django-json-api/django-rest-framework-json-api"
    },
    "release_url": "https://pypi.org/project/djangorestframework-jsonapi/4.0.0/",
    "requires_dist": [
      "inflection (>=0.3.0)",
      "djangorestframework (<3.13,>=3.12)",
      "django (<3.2,>=2.2)",
      "django-filter (>=2.0) ; extra == 'django-filter'",
      "django-polymorphic (>=2.0) ; extra == 'django-polymorphic'",
      "pyyaml (>=5.3) ; extra == 'openapi'",
      "uritemplate (>=3.0.1) ; extra == 'openapi'"
    ],
    "requires_python": ">=3.6",
    "summary": "A Django REST framework API adapter for the JSON API spec.",
    "version": "4.0.0",
    "yanked": false,
    "yanked_reason": null
  },
  "last_serial": 15199741,
  "urls": [
    {
      "comment_text": "",
      "digests": {
        "blake2b_256": "ac09278ca0bebcfad249bc79d1ec8e9199fb074baf7f7a7c8af2e6d5d57cf92c",
        "md5": "d71a293638552f027d93152574d2538d",
        "sha256": "b65ba6c5fb8ecba669dbdcceee708ff4e74452c53dd7ed3cc3c7fe98629483fa"
      },
      "downloads": -1,
      "filename": "djangorestframework_jsonapi-4.0.0-py2.py3-none-any.whl",
      "has_sig": false,
      "md5_digest": "d71a293638552f027d93152574d2538d",
      "packagetype": "bdist_wheel",
      "python_version": "py2.py3",
      "requires_python": ">=3.6",
      "size": 271221,
      "upload_time": "2020-10-30T20:15:09",
      "upload_time_iso_8601": "2020-10-30T20:15:09.166848Z",
      "url": "https://files.pythonhosted.org/packages/ac/09/278ca0bebcfad249bc79d1ec8e9199fb074baf7f7a7c8af2e6d5d57cf92c/djangorestframework_jsonapi-4.0.0-py2.py3-none-any.whl",
      "yanked": false,
      "yanked_reason": null
    },
    {
      "comment_text": "",
      "digests": {
        "blake2b_256": "2f2c6983436b49b8bc2aa3910f29b4b5407c078aefd77c5558b003422e381b3d",
        "md5": "824b4390ff93dcf3ab6ebc3dbbde43b9",
        "sha256": "8b92a006c52d7f6a35aef7ac97d4ad88850a9698159dbaf6eeaff284877ced41"
      },
      "downloads": -1,
      "filename": "djangorestframework-jsonapi-4.0.0.tar.gz",
      "has_sig": false,
      "md5_digest": "824b4390ff93dcf3ab6ebc3dbbde43b9",
      "packagetype": "sdist",
      "python_version": "source",
      "requires_python": ">=3.6",
      "size": 83870,
      "upload_time": "2020-10-30T20:15:11",
      "upload_time_iso_8601": "2020-10-30T20:15:11.364998Z",
      "url": "https://files.pythonhosted.org/packages/2f/2c/6983436b49b8bc2aa3910f29b4b5407c078aefd77c5558b003422e381b3d/djangorestframework-jsonapi-4.0.0.tar.gz",
      "yanked": false,
      "yanked_reason": null
    }
  ],
  "vulnerabilities": []
}