{
  "info": {
    "author": "Jerel Unruh",
    "author_email": "",
    "bugtrack_url": null,
    "classifiers": [
      "Development Status :: 5 - Production/Stable",
      "Environment :: Web Environment",
      "Framework :: Django",
      "Intended Audience :: Developers",
      "License :: OSI Approved :: BSD License",
      "Operating System :: OS Independent",
      "Programming Language :: Python",
      "Programming Language :: Python :: 3",
      "Programming Language :: Python :: 3.10",
      "Programming Language :: Python :: 3.7",
      "Programming Language :: Python :: 3.8",
      "Programming Language :: Python :: 3.9",
      "Topic :: Internet :: WWW/HTTP",
      "Topic :: Software Development :: Libraries :: Application Frameworks",
      "Topic :: Software Development :: Libraries :: Python Modules"
    ],
    "description": "==================================\nJSON:API and Django REST framework\n==================================\n\n.. image:: https://github.com/django-json-api/django-rest-framework-json-api/workflows/Tests/badge.svg\n   :alt: Tests\n   :target: https://github.com/django-json-api/django-rest-framework-json-api/actions\n\n.. image:: https://readthedocs.org/projects/django-rest-framework-json-api/badge/?version=latest\n   :alt: Read the docs\n   :target: https://django-rest-framework-json-api.readthedocs.org/\n\n.. image:: https://img.shields.io/pypi/v/djangorestframework-jsonapi.svg\n   :alt: PyPi Version\n   :target: https://pypi.org/project/djangorestframework-jsonapi/\n\n--------\nOverview\n--------\n\n**JSON:API support for Django REST framework**\n\n* Documentation: https://django-rest-framework-json-api.readthedocs.org/\n* Format specification: https://jsonapi.org/format/\n\n\nBy default, Django REST framework will produce a response like::\n\n    {\n        \"count\": 20,\n        \"next\": \"https://example.com/api/1.0/identities/?page=3\",\n        \"previous\": \"https://example.com/api/1.0/identities/?page=1\",\n        \"results\": [{\n            \"id\": 3,\n            \"username\": \"john\",\n            \"full_name\": \"John Coltrane\"\n        }]\n    }\n\n\nHowever, for an ``identity`` model in JSON:API format the response should look\nlike the following::\n\n    {\n        \"links\": {\n            \"prev\": \"https://example.com/api/1.0/identities\",\n            \"self\": \"https://example.com/api/1.0/identities?page=2\",\n            \"next\": \"https://example.com/api/1.0/identities?page=3\",\n        },\n        \"data\": [{\n            \"type\": \"identities\",\n            \"id\": \"3\",\n            \"attributes\": {\n                \"username\": \"john\",\n                \"full-name\": \"John Coltrane\"\n            }\n        }],\n        \"meta\": {\n            \"pagination\": {\n              \"count\": 20\n            }\n        }\n    }\n\n\n-----\nGoals\n-----\n\nAs a Django REST framework JSON:API (short DJA) we are trying to address following goals:\n\n1. Support the `JSON:API`_ spec to compliance\n\n2. Be as compatible with `Django REST framework`_ as possible\n\n   e.g. issues in Django REST framework should be fixed upstream and not worked around in DJA\n\n3. Have sane defaults to be as easy to pick up as possible\n\n4. Be solid and tested with good coverage\n\n5. Be performant\n\n.. _JSON:API: https://jsonapi.org\n.. _Django REST framework: https://www.django-rest-framework.org/\n\n------------\nRequirements\n------------\n\n1. Python (3.7, 3.8, 3.9, 3.10)\n2. Django (2.2, 3.2, 4.0)\n3. Django REST framework (3.12, 3.13)\n\nWe **highly** recommend and only officially support the latest patch release of each Python, Django and REST framework series.\n\nGenerally Python and Django series are supported till the official end of life. For Django REST framework the last two series are supported.\n\nFor optional dependencies such as Django Filter only the latest release is officially supported even though lower versions should work as well.\n\n------------\nInstallation\n------------\n\nInstall using ``pip``...\n\n::\n\n    $ pip install djangorestframework-jsonapi\n    $ # for optional package integrations\n    $ pip install djangorestframework-jsonapi['django-filter']\n    $ pip install djangorestframework-jsonapi['django-polymorphic']\n    $ pip install djangorestframework-jsonapi['openapi']\n\n\nor from source...\n\n::\n\n    $ git clone https://github.com/django-json-api/django-rest-framework-json-api.git\n    $ cd django-rest-framework-json-api\n    $ pip install -e .\n\n\nand add ``rest_framework_json_api`` to your ``INSTALLED_APPS`` setting below ``rest_framework``.\n\n::\n\n    INSTALLED_APPS = [\n        ...\n        'rest_framework',\n        'rest_framework_json_api',\n        ...\n    ]\n\n\nRunning the example app\n^^^^^^^^^^^^^^^^^^^^^^^\n\nIt is recommended to create a virtualenv for testing. Assuming it is already\ninstalled and activated:\n\n::\n\n    $ git clone https://github.com/django-json-api/django-rest-framework-json-api.git\n    $ cd django-rest-framework-json-api\n    $ pip install -Ur requirements.txt\n    $ django-admin migrate --settings=example.settings\n    $ django-admin loaddata drf_example --settings=example.settings\n    $ django-admin runserver --settings=example.settings\n\nBrowse to\n\n* http://localhost:8000 for the list of available collections (in a non-JSON:API format!),\n* http://localhost:8000/swagger-ui/ for a Swagger user interface to the dynamic schema view, or\n* http://localhost:8000/openapi for the schema view's OpenAPI specification document.\n\n\n-----\nUsage\n-----\n\n\n``rest_framework_json_api`` assumes you are using class-based views in Django\nREST framework.\n\n\nSettings\n^^^^^^^^\n\nOne can either add ``rest_framework_json_api.parsers.JSONParser`` and\n``rest_framework_json_api.renderers.JSONRenderer`` to each ``ViewSet`` class, or\noverride ``settings.REST_FRAMEWORK``\n\n::\n\n    REST_FRAMEWORK = {\n        'PAGE_SIZE': 10,\n        'EXCEPTION_HANDLER': 'rest_framework_json_api.exceptions.exception_handler',\n        'DEFAULT_PAGINATION_CLASS':\n            'rest_framework_json_api.pagination.JsonApiPageNumberPagination',\n        'DEFAULT_PARSER_CLASSES': (\n            'rest_framework_json_api.parsers.JSONParser',\n            'rest_framework.parsers.FormParser',\n            'rest_framework.parsers.MultiPartParser'\n        ),\n        'DEFAULT_RENDERER_CLASSES': (\n            'rest_framework_json_api.renderers.JSONRenderer',\n            'rest_framework_json_api.renderers.BrowsableAPIRenderer',\n        ),\n        'DEFAULT_METADATA_CLASS': 'rest_framework_json_api.metadata.JSONAPIMetadata',\n        'DEFAULT_FILTER_BACKENDS': (\n            'rest_framework_json_api.filters.QueryParameterValidationFilter',\n            'rest_framework_json_api.filters.OrderingFilter',\n            'rest_framework_json_api.django_filters.DjangoFilterBackend',\n            'rest_framework.filters.SearchFilter',\n        ),\n        'SEARCH_PARAM': 'filter[search]',\n        'TEST_REQUEST_RENDERER_CLASSES': (\n            'rest_framework_json_api.renderers.JSONRenderer',\n        ),\n        'TEST_REQUEST_DEFAULT_FORMAT': 'vnd.api+json'\n    }\n\nThis package provides much more including automatic inflection of JSON keys, extra top level data (using nested\nserializers), relationships, links, paginators, filters, and handy shortcuts.\nRead more at https://django-rest-framework-json-api.readthedocs.org/\n\n\n",
    "description_content_type": "",
    "docs_url": null,
    "download_url": "",
    "downloads": {
      "last_day": -1,
      "last_month": -1,
      "last_week": -1
    },
    "home_page": "https://github.com/django-json-api/django-rest-framework-json-api",
    "keywords": "",
    "license": "BSD",
    "maintainer": "",
    "maintainer_email": "",
    "name": "djangorestframework-jsonapi",
    "package_url": "https://pypi.org/project/djangorestframework-jsonapi/",
    "platform": "",
    "project_url": "https://pypi.org/project/djangorestframework-jsonapi/",
    "project_urls": {
      "Homepage": "https://github.com/django-json-api/django-rest-framework-json-api"
    },
    "release_url": "https://pypi.org/project/djangorestframework-jsonapi/5.0.0/",
    "requires_dist": [
      "inflection (>=0.5.0)",
      "djangorestframework (<3.14,>=3.12)",
      "django (<4.1,>=2.2)",
      "django-filter (>=2.4) ; extra == 'django-filter'",
      "django-polymorphic (>=3.0) ; extra == 'django-polymorphic'",
      "pyyaml (>=5.4) ; extra == 'openapi'",
      "uritemplate (>=3.0.1) ; extra == 'openapi'"
    ],
    "requires_python": ">=3.7",
    "summary": "A Django REST framework API adapter for the JSON:API spec.",
    "version": "5.0.0",
    "yanked": false,
    "yanked_reason": null
  },
  "last_serial": 15199741,
  "urls": [
    {
      "comment_text": "",
      "digests": {
        "blake2b_256": "3a6e04d3cf825dd741c701d5a5b0f70d87f0e5702b62adc628852aaea18d7b23",
        "md5": "35e200a49bebd2097fe4a5d70d759d11",
        "sha256": "f25b0d24a990690e578668b7a7a191a75162f1d9561abd773d12de331cf16673"
      },
      "downloads": -1,
      "filename": "djangorestframework_jsonapi-5.0.0-py2.py3-none-any.whl",
      "has_sig": false,
      "md5_digest": "35e200a49bebd2097fe4a5d70d759d11",
      "packagetype": "bdist_wheel",
      "python_version": "py2.py3",
      "requires_python": ">=3.7",
      "size": 341092,
      "upload_time": "2022-01-03T18:18:53",
      "upload_time_iso_8601": "2022-01-03T18:18:53.207399Z",
      "url": "https://files.pythonhosted.org/packages/3a/6e/04d3cf825dd741c701d5a5b0f70d87f0e5702b62adc628852aaea18d7b23/djangorestframework_jsonapi-5.0.0-py2.py3-none-any.whl",
      "yanked": false,
      "yanked_reason": null
    },
    {
      "comment_text": "",
      "digests": {
        "blake2b_256": "ab893fbc1a1d8d4173afc85064fe6d8664eebe6490a96984c0e05506b6ad84d8",
        "md5": "1e981def5fce9e6a4f5fb0423f27387a",
        "sha256": "090c568dc99380ead71cc378020b4cd191db2ffce9ab3e9339df80d5d82c8648"
      },
      "downloads": -1,
      "filename": "djangorestframework-jsonapi-5.0.0.tar.gz",
      "has_sig": false,
      "md5_digest": "1e981def5fce9e6a4f5fb0423f27387a",
      "packagetype": "sdist",
      "python_version": "source",
      "requires_python": ">=3.7",
      "size": 131993,
      "upload_time": "2022-01-03T18:18:58",
      "upload_time_iso_8601": "2022-01-03T18:18:58.596400Z",
      "url": "https://files.pythonhosted.org/packages/ab/89/3fbc1a1d8d4173afc85064fe6d8664eebe6490a96984c0e05506b6ad84d8/djangorestframework-jsonapi-5.0.0.tar.gz",
      "yanked": false,
      "yanked_reason": null
    }
  ],
  "vulnerabilities": []
}