{
  "info": {
    "author": "Pocheng, Scott",
    "author_email": "pcghuang@gmail.com, scott820914@gmail.com",
    "bugtrack_url": null,
    "classifiers": [
      "Development Status :: 4 - Beta",
      "Intended Audience :: Developers",
      "License :: OSI Approved :: BSD License",
      "Operating System :: OS Independent",
      "Programming Language :: Python :: 3",
      "Programming Language :: Python :: 3.6"
    ],
    "description": "# Django REST Framework Google JSON Style API\n\n[![Build Status](https://travis-ci.com/Envive/django-rest-framework-google-json-style-api.svg?branch=master)](https://travis-ci.com/Envive/django-rest-framework-google-json-style-api) \n[![codecov.io](https://codecov.io/github/envive/django-rest-framework-google-json-style-api/coverage.svg?branch=master)](https://codecov.io/github/envive/django-rest-framework-google-json-style-api)\n[![PyPI version](https://badge.fury.io/py/django-rest-framework-google-json-style-api.svg)](https://badge.fury.io/py/django-rest-framework-google-json-style-api)\n\n## Format specification\n- https://google.github.io/styleguide/jsoncstyleguide.xml\n\n## Installation\n\nAt the command line:\n\n```\n$ pip install django-rest-framework-google-json-style-api\n```\n\nAdd the render and parser to your django settings file.\n\n```python\n# ...\nREST_FRAMEWORK = {\n    'PAGE_SIZE': 10,\n    'DEFAULT_PAGINATION_CLASS': \n        'rest_framework_google_json_style_api.pagination.GoogleJsonStylePageNumberPagination',\n    'DEFAULT_RENDERER_CLASSES': (\n        'rest_framework_google_json_style_api.renderers.JSONRenderer',\n        # Any other renders\n    ),\n    'DEFAULT_PARSER_CLASSES': (\n        'rest_framework_google_json_style_api.parsers.JSONParser',\n        # Any other parsers\n    ),\n}\n# ...\n```\n\n## Goals\nBy default, Django REST Framework will produce a response like:\n\n```json\n{\n    \"id\": 1,\n    \"username\": \"scott\",\n    \"full_name\": \"Scott Chang\"\n}\n```\n\nand\n\n```json\n[\n    {\n        \"id\": 1,\n        \"username\": \"scott\",\n        \"full_name\": \"Scott Chang\"\n    },\n    {\n        \"id\": 2,\n        \"username\": \"pocheng\",\n        \"full_name\": \"Pocheng Huang\"\n    }\n]\n```\n\nGoogle JSON Style Guide shows a response to look like the following:\n\n```json\n{\n    \"data\": {\n        \"id\": 1,\n        \"username\": \"scott\",\n        \"fullName\": \"Scott Chang\"\n    }\n}\n```\n\nand\n\n```json\n{\n    \"data\": {\n        \"items\":[\n            {\n                \"id\": 1,\n                \"username\": \"scott\",\n                \"fullName\": \"Scott Chang\"\n            },\n            {\n                \"id\": 2,\n                \"username\": \"pocheng\",\n                \"fullName\": \"Pocheng Huang\"\n            }\n        ]\n    }\n}\n```\n\nGoogle JSON Style Guide uses camel case for field names. So, by default the package uses camel case.\nIf you want to use underscores, you must specify it in your django settings file.\n\n```python\nGOOGLE_JSON_STYLE_API = {\n    # ...\n    'CAMELIZE': False\n    # ...\n}\n```\n\n## Pagination\n```json\n{\n    \"method\": \"list\",\n    \"params\": {\n        \"page\": \"1\",\n        \"pageSize\": \"2\"\n    },\n    \"data\": {\n        \"currentItemCount\": 2,\n        \"itemsPerPage\": 2,\n        \"totalItems\": 200,\n        \"pageIndex\": 1,\n        \"totalPages\": 100,\n        \"nextLink\": \"http://example.com/api/v1/?page=2&page_size=2\",\n        \"previousLink\": null,\n        \"items\": [\n            {\n                \"id\": 1,\n                \"username\": \"scott\",\n                \"fullName\": \"Scott Chang\"\n            },\n            {\n                \"id\": 2,\n                \"username\": \"pocheng\",\n                \"fullName\": \"Pocheng Huang\"\n            }\n        ]\n    }\n}\n```\n\n## Attach meta to data object\n\n#### Example\nLet's add the count of items in the data object.\n\n```python\nclass AuthorViewSet(viewsets.ModelViewSet):\n    queryset = Author.objects.all()\n    # ...\n\n    def list(self, request, *args, **kwargs):\n        response = super(AuthorViewSet, self).list(request, *args, **kwargs)\n        response.data = {\n            'meta': {\n                # Add meta data in here\n                'num_items': self.queryset.count(),\n            },\n            # Keep original data in results\n            'results': response.data\n        }\n```\n\n#### Response\n\n```json\n{\n    \"data\": {\n        \"numItems\": 2,\n        \"items\":[\n            {\n                \"id\": 1,\n                \"username\": \"scott\",\n                \"fullName\": \"Scott Chang\"\n            },\n            {\n                \"id\": 2,\n                \"username\": \"pocheng\",\n                \"fullName\": \"Pocheng Huang\"\n            }\n        ]\n    }\n}\n```\n\n\n## Underscoreize Options\nThere are two conventions of snake case.\n\n### Case 1 (default)\n```\nv2Counter -> v_2_counter\nfooBar2 -> foo_bar_2\n```\n\n### Case 2\n```\nv2Counter -> v2_counter\nfooBar2 -> foo_bar2\n```\n\nBy default, the package uses the first case. To use the second case, specify it in your django settings file. The setting only works when you use camel case(default).\n\n```python\nGOOGLE_JSON_STYLE_API = {\n    # ...\n    'JSON_UNDERSCOREIZE': {\n        'no_underscore_before_number': True,\n    },\n    # ...\n}\n```",
    "description_content_type": "text/markdown",
    "docs_url": null,
    "download_url": "",
    "downloads": {
      "last_day": -1,
      "last_month": -1,
      "last_week": -1
    },
    "home_page": "https://github.com/Envive",
    "keywords": "",
    "license": "BSD License",
    "maintainer": "",
    "maintainer_email": "",
    "name": "django-rest-framework-google-json-style-api",
    "package_url": "https://pypi.org/project/django-rest-framework-google-json-style-api/",
    "platform": "",
    "project_url": "https://pypi.org/project/django-rest-framework-google-json-style-api/",
    "project_urls": {
      "Homepage": "https://github.com/Envive"
    },
    "release_url": "https://pypi.org/project/django-rest-framework-google-json-style-api/1.0.1/",
    "requires_dist": null,
    "requires_python": "",
    "summary": "Make Google Json Style and Django Rest Framework play nice together.",
    "version": "1.0.1",
    "yanked": false,
    "yanked_reason": null
  },
  "last_serial": 9841563,
  "urls": [
    {
      "comment_text": "",
      "digests": {
        "blake2b_256": "b8ed7892187065b264d2a4a3c53c686eec979c66861ebafe74fb82ad81448546",
        "md5": "a9ae030e44c0efd8dc18ff497b12c2fe",
        "sha256": "0a6a0793091959ae741fd73f53a5887fe1beb0b6199d4496f852c86e059d2386"
      },
      "downloads": -1,
      "filename": "django-rest-framework-google-json-style-api-1.0.1.tar.gz",
      "has_sig": false,
      "md5_digest": "a9ae030e44c0efd8dc18ff497b12c2fe",
      "packagetype": "sdist",
      "python_version": "source",
      "requires_python": null,
      "size": 11698,
      "upload_time": "2020-02-24T02:55:44",
      "upload_time_iso_8601": "2020-02-24T02:55:44.674897Z",
      "url": "https://files.pythonhosted.org/packages/b8/ed/7892187065b264d2a4a3c53c686eec979c66861ebafe74fb82ad81448546/django-rest-framework-google-json-style-api-1.0.1.tar.gz",
      "yanked": false,
      "yanked_reason": null
    }
  ],
  "vulnerabilities": []
}